floating_point/_testbenches/vvp/floating_point.vcd
$date
	Wed Jun 28 23:48:40 2023
$end
$version
	Icarus Verilog
$end
$timescale
	100ps
$end
$scope module floating_point_tb $end
$scope module floating_point_tb $end
$var wire 32 ! A [31:0] $end
$var wire 32 " B [31:0] $end
$var wire 1 # clk $end
$var wire 2 $ op [1:0] $end
$var wire 1 % reset $end
$var wire 1 & start $end
$var wire 1 ' sum_mult_selector $end
$var wire 8 ( shift_A [7:0] $end
$var wire 1 ) normalized $end
$var wire 2 * normalize_selector [1:0] $end
$var wire 1 + inicializa $end
$var wire 29 , fract_UC [28:0] $end
$var wire 1 - exp_fract_selector $end
$var wire 8 . exp_difference [7:0] $end
$var wire 1 / done_ULA $end
$var wire 1 0 done $end
$var wire 1 1 continue_selector $end
$var wire 29 2 big_ULA_out [28:0] $end
$var wire 1 3 ULA_START $end
$var wire 32 4 R [31:0] $end
$scope module FD $end
$var wire 32 5 A_in [31:0] $end
$var wire 32 6 B_in [31:0] $end
$var wire 1 # clk $end
$var wire 8 7 exp_difference [7:0] $end
$var wire 29 8 fract_UC [28:0] $end
$var wire 1 % reset $end
$var wire 29 9 ula_out [28:0] $end
$var wire 1 : sum_mult_selector $end
$var wire 8 ; small_ula_out [7:0] $end
$var wire 1 < sign_c $end
$var wire 8 = shift_A_modulo [7:0] $end
$var wire 8 > shift_A [7:0] $end
$var wire 1 ? sB $end
$var wire 1 @ sA $end
$var wire 32 A result [31:0] $end
$var wire 1 ' op $end
$var wire 1 ) normalized $end
$var wire 2 B normalize_selector [1:0] $end
$var wire 23 C lower_fract [22:0] $end
$var wire 29 D lower_ULAIN [28:0] $end
$var wire 29 E left_right_in [28:0] $end
$var wire 1 + inicializa $end
$var wire 23 F higher_fract [22:0] $end
$var wire 29 G higher_ULAIN [28:0] $end
$var wire 29 H fract_shifted [28:0] $end
$var wire 29 I fract_result [28:0] $end
$var wire 23 J fractB [22:0] $end
$var wire 23 K fractA [22:0] $end
$var wire 8 L exp_result [7:0] $end
$var wire 8 M exp_in_mux_increment_decrement [7:0] $end
$var wire 8 N exp_higher [7:0] $end
$var wire 1 - exp_fract_selector $end
$var wire 8 O exp_adjusted [7:0] $end
$var wire 8 P expB [7:0] $end
$var wire 8 Q expA [7:0] $end
$var wire 8 R exp [7:0] $end
$var wire 1 / done_ULA $end
$var wire 1 1 continue_selector $end
$var wire 29 S ULA_fract_OUT [28:0] $end
$var wire 1 3 ULA_START $end
$var wire 32 T B [31:0] $end
$var wire 32 U A [31:0] $end
$scope module MUX_EXP_HIGHER $end
$var wire 8 V a [7:0] $end
$var wire 8 W b [7:0] $end
$var wire 1 X select $end
$var wire 8 Y result [7:0] $end
$upscope $end
$scope module MUX_INCREMENT_DECREMENT $end
$var wire 8 Z a [7:0] $end
$var wire 1 1 select $end
$var wire 8 [ result [7:0] $end
$var wire 8 \ b [7:0] $end
$upscope $end
$scope module MUX_LEFT_RIGHT $end
$var wire 1 1 select $end
$var wire 29 ] result [28:0] $end
$var wire 29 ^ b [28:0] $end
$var wire 29 _ a [28:0] $end
$upscope $end
$scope module MUX_ULAIN_HIGHER $end
$var wire 23 ` a [22:0] $end
$var wire 23 a b [22:0] $end
$var wire 1 - select $end
$var wire 23 b result [22:0] $end
$upscope $end
$scope module MUX_ULAIN_LOWER $end
$var wire 23 c a [22:0] $end
$var wire 23 d b [22:0] $end
$var wire 1 e select $end
$var wire 23 f result [22:0] $end
$upscope $end
$scope module arredonda $end
$var wire 1 # clk $end
$var wire 3 g seguranca [2:0] $end
$var wire 1 ) normalized $end
$var wire 29 h fract_in [28:0] $end
$var wire 8 i exp_in [7:0] $end
$var reg 8 j exp_out [7:0] $end
$var reg 29 k fract_out [28:0] $end
$upscope $end
$scope module exp_ULA $end
$var wire 8 l a [7:0] $end
$var wire 8 m b [7:0] $end
$var wire 1 : sum_mult_selector $end
$var wire 8 n exp_difference [7:0] $end
$upscope $end
$scope module fract_ULA $end
$var wire 29 o b [28:0] $end
$var wire 1 # clk $end
$var wire 23 p fractA [22:0] $end
$var wire 23 q fractB [22:0] $end
$var wire 1 % reset $end
$var wire 1 @ sign_a $end
$var wire 1 ? sign_b $end
$var wire 1 3 start $end
$var wire 1 : op $end
$var wire 48 r multiplicando [47:0] $end
$var wire 24 s multiplicador [23:0] $end
$var wire 29 t c [28:0] $end
$var wire 29 u a [28:0] $end
$var reg 5 v counter [4:0] $end
$var reg 1 / done $end
$var reg 48 w mult_result [47:0] $end
$var reg 1 < sign_c $end
$var reg 29 x soma_result [28:0] $end
$var reg 3 y states [2:0] $end
$upscope $end
$scope module incremento_decremento $end
$var wire 8 z exp_in [7:0] $end
$var wire 2 { normalize_selector [1:0] $end
$var wire 8 | exp_out [7:0] $end
$upscope $end
$scope module left_right $end
$var wire 29 } A [28:0] $end
$var wire 2 ~ normalize_selector [1:0] $end
$var wire 29 !" A_shifted [28:0] $end
$upscope $end
$scope module regA $end
$var wire 1 # clk $end
$var wire 1 % reset $end
$var wire 32 "" x [31:0] $end
$var wire 1 + load $end
$var reg 32 #" x_out [31:0] $end
$upscope $end
$scope module regB $end
$var wire 1 # clk $end
$var wire 1 % reset $end
$var wire 32 $" x [31:0] $end
$var wire 1 + load $end
$var reg 32 %" x_out [31:0] $end
$upscope $end
$scope module regOP $end
$var wire 1 # clk $end
$var wire 1 % reset $end
$var wire 1 ' x $end
$var wire 1 + load $end
$var reg 1 : x_out $end
$upscope $end
$scope module shift_right $end
$var wire 29 &" A [28:0] $end
$var wire 8 '" shift_num [7:0] $end
$var wire 1 : sum_mult_selector $end
$var wire 29 (" A_shifted [28:0] $end
$upscope $end
$upscope $end
$scope module UC $end
$var wire 29 )" big_ULA_out [28:0] $end
$var wire 1 # clk $end
$var wire 1 / done_ULA $end
$var wire 8 *" exp_difference [7:0] $end
$var wire 29 +" fract_UC [28:0] $end
$var wire 2 ," op [1:0] $end
$var wire 1 % reset $end
$var wire 1 & start $end
$var reg 1 3 ULA_START $end
$var reg 1 1 continue_selector $end
$var reg 1 0 done $end
$var reg 1 - exp_fract_selector $end
$var reg 1 + inicializa $end
$var reg 2 -" normalize_selector [1:0] $end
$var reg 1 ) normalized $end
$var reg 8 ." shift_A [7:0] $end
$var reg 4 /" state [3:0] $end
$var reg 1 ' sum_mult_selector $end
$upscope $end
$upscope $end
$upscope $end
$enddefinitions $end
#0
$dumpvars
bx /"
bx ."
bx -"
b0 ,"
bx +"
bx *"
bx )"
bx ("
bx '"
b1xxxxxxxxxxxxxxxxxxxxxxx000 &"
bx %"
b11000001100000000000000000000111 $"
bx #"
b11000000000000000000000000001111 ""
bx !"
bx ~
bx }
bx |
bx {
bx z
bx y
bx x
bx w
bx v
bx u
bx t
bx s
b0xxxxxxxxxxxxxxxxxxxxxxxx r
bx q
bx p
b1xxxxxxxxxxxxxxxxxxxxxxx000 o
bx n
bx m
bx l
bx k
bx j
bx i
bx h
bx g
bx f
xe
bx d
bx c
bx b
bx a
bx `
bx _
bx ^
bx ]
bx \
bx [
bx Z
bx Y
xX
bx W
bx V
bx U
bx T
bx S
bx R
bx Q
bx P
bx O
bx N
bx M
bx L
bx K
bx J
bx I
bx H
b1xxxxxxxxxxxxxxxxxxxxxxx000 G
bx F
bx E
bx D
bx C
bx B
bx A
x@
x?
bx >
bx =
x<
bx ;
x:
bx 9
bx 8
bx 7
b11000001100000000000000000000111 6
b11000000000000000000000000001111 5
bx 4
x3
bx 2
x1
x0
x/
bx .
x-
bx ,
x+
bx *
x)
bx (
x'
x&
0%
b0 $
0#
b11000001100000000000000000000111 "
b11000000000000000000000000001111 !
$end
#1000
bx00000xx M
bx00000xx Z
b0x0 .
b0x0 7
b0x0 *"
b0x0 ;
b0x0 n
b100000000000000000000000000 G
b100000000000000000000000000 o
b0 F
b0 b
b100000000000000000000000000 &"
b0 C
b0 f
b10000001 N
b10000001 Y
b0 K
b0 `
b0 c
b0 p
b10000001 Q
b10000001 V
b10000001 l
0@
b0 J
b0 a
b0 d
b0 q
b10000001 P
b10000001 W
b10000001 m
0?
b0 U
b0 #"
b0 T
b0 %"
bx000 ,
bx000 8
bx000 +"
bx000 I
bx000 ^
bx000 k
b0 y
b1010 /"
1#
1&
1%
#2000
b0 /"
0#
0%
#3000
bx00000xx O
bx00000xx i
bx00000xx |
1X
1e
bx00000xx R
bx00000xx [
bx00000xx z
0/
00
0)
0-
b0 *
b0 B
b0 {
b0 ~
b0 -"
0'
01
03
1+
b1 /"
1#
#4000
b10000001 O
b10000001 i
b10000001 |
b10000001 R
b10000001 [
b10000001 z
b0 .
b0 7
b0 *"
b0 ;
b0 n
b10000001 M
b10000001 Z
0:
0#
#5000
b100 O
b100 i
b100 |
b100 R
b100 [
b100 z
b100 M
b100 Z
b100000000000000000001111000 G
b100000000000000000001111000 o
b1111 F
b1111 b
b100000000000000000000111000 &"
b111 C
b111 f
b100 N
b100 Y
b11111101 .
b11111101 7
b11111101 *"
b11111101 ;
b11111101 n
b1111 K
b1111 `
b1111 c
b1111 p
b1 Q
b1 V
b1 l
1@
b111 J
b111 a
b111 d
b111 q
b100 P
b100 W
b100 m
1?
b11000000000000000000000000001111 U
b11000000000000000000000000001111 #"
b11000001100000000000000000000111 T
b11000001100000000000000000000111 %"
0+
bx00000000xxxxxxxxxxxxxxxxxxxxxxx 4
bx00000000xxxxxxxxxxxxxxxxxxxxxxx A
b10000001 L
b10000001 \
b10000001 j
b10 /"
1#
#6000
0#
#7000
b1 O
b1 i
b1 |
b1 R
b1 [
b1 z
b1 M
b1 Z
b1 N
b1 Y
b100000000000000000001111000 &"
b1111 C
b1111 f
b100000000000000000000111000 G
b100000000000000000000111000 o
b111 F
b111 b
0X
0e
bx10000011xxxxxxxxxxxxxxxxxxxxxxx 4
bx10000011xxxxxxxxxxxxxxxxxxxxxxx A
b100 L
b100 \
b100 j
1-
b11 /"
1#
#8000
0#
#9000
b100000000000000000001 s
b100000000000000000000111 r
b100000000000000000001111 D
b100000000000000000001111 u
b100000000000000000001111 ("
b11 =
b11 '"
b11111101 (
b11111101 >
b11111101 ."
bx10000000xxxxxxxxxxxxxxxxxxxxxxx 4
bx10000000xxxxxxxxxxxxxxxxxxxxxxx A
b1 L
b1 \
b1 j
b100 /"
1#
#10000
0#
#11000
13
1#
#12000
0#
#13000
b1 y
1#
#14000
0#
#15000
b0 w
b0 v
b10 y
1#
#16000
0#
#17000
b111 g
b100100000000000000001000111 H
b100100000000000000001000111 h
b100100000000000000001000111 !"
b100100000000000000001000111 E
b100100000000000000001000111 ]
b100100000000000000001000111 }
b100100000000000000001000111 2
b100100000000000000001000111 9
b100100000000000000001000111 )"
b100100000000000000001000111 S
b100100000000000000001000111 _
b100100000000000000001000111 t
b100 y
b110000000xxxxxxxxxxxxxxxxxxxxxxx 4
b110000000xxxxxxxxxxxxxxxxxxxxxxx A
1<
b100100000000000000001000111 x
1#
#18000
0#
#19000
b11000000000100000000000000001001 4
b11000000000100000000000000001001 A
b100100000000000000001001000 ,
b100100000000000000001001000 8
b100100000000000000001001000 +"
b100100000000000000001001000 I
b100100000000000000001001000 ^
b100100000000000000001001000 k
1/
1#
#20000
0#
#21000
b101 /"
1#
#22000
0#
#23000
b110 /"
1#
#24000
0#
#25000
b0 g
b100100000000000000001001000 H
b100100000000000000001001000 h
b100100000000000000001001000 !"
b100100000000000000001001000 E
b100100000000000000001001000 ]
b100100000000000000001001000 }
11
b111 /"
1#
#26000
0#
#27000
b1000 /"
1#
#28000
0#
#29000
10
1#
#30000
0#
#31000
b100000000000000000000 s
b100000000000000000000000 r
b100000000000000000000000 D
b100000000000000000000000 u
b100000000000000000000000 ("
b10000001 M
b10000001 Z
b100000000000000000000000000 &"
b0 C
b0 f
b10000001 N
b10000001 Y
b100000000000000000000000000 G
b100000000000000000000000000 o
b0 F
b0 b
b0 .
b0 7
b0 *"
b0 ;
b0 n
b0 K
b0 `
b0 c
b0 p
b10000001 Q
b10000001 V
b10000001 l
0@
b0 J
b0 a
b0 d
b0 q
b10000001 P
b10000001 W
b10000001 m
0?
b0 U
b0 #"
b0 T
b0 %"
b0 y
b1010 /"
1#
b11000000000000000000000000000111 "
b11000000000000000000000000000111 6
b11000000000000000000000000000111 $"
b1000000000000000000000000001111 !
b1000000000000000000000000001111 5
b1000000000000000000000000001111 ""
1%
#32000
b0 /"
0#
0%
#33000
b111 g
b100100000000000000001000111 H
b100100000000000000001000111 h
b100100000000000000001000111 !"
b10000001 O
b10000001 i
b10000001 |
1X
1e
b100100000000000000001000111 E
b100100000000000000001000111 ]
b100100000000000000001000111 }
b10000001 R
b10000001 [
b10000001 z
00
0-
01
03
1+
b1 y
0/
b1 /"
1#
#34000
0#
#35000
b1 O
b1 i
b1 |
b100000000000000000001111 r
b1 R
b1 [
b1 z
b100000000000000000000111 D
b100000000000000000000111 u
b100000000000000000000111 ("
b1 M
b1 Z
b100000000000000000001111000 G
b100000000000000000001111000 o
b1111 F
b1111 b
b100000000000000000000111000 &"
b111 C
b111 f
b1 N
b1 Y
b1111 K
b1111 `
b1111 c
b1111 p
b1 Q
b1 V
b1 l
b111 J
b111 a
b111 d
b111 q
b1 P
b1 W
b1 m
1?
b1000000000000000000000000001111 U
b1000000000000000000000000001111 #"
b11000000000000000000000000000111 T
b11000000000000000000000000000111 %"
b10000000000100000000000000001001 4
b10000000000100000000000000001001 A
b10000001 L
b10000001 \
b10000001 j
b10 y
0+
b10 /"
1#
#36000
0#
#37000
b1 g
b11100000000000000001110001 H
b11100000000000000001110001 h
b11100000000000000001110001 !"
b11100000000000000001110001 E
b11100000000000000001110001 ]
b11100000000000000001110001 }
b11100000000000000001110001 2
b11100000000000000001110001 9
b11100000000000000001110001 )"
b11100000000000000001110001 S
b11100000000000000001110001 _
b11100000000000000001110001 t
b100 y
b11100000000000000001110001 x
b11000000000100000000000000001001 4
b11000000000100000000000000001001 A
b1 L
b1 \
b1 j
b11 /"
1#
#38000
0#
#39000
b100000000000000000000111 s
b100000000000000000000111000 D
b100000000000000000000111000 u
b100000000000000000000111000 ("
b0 =
b0 '"
b11000000011100000000000000001110 4
b11000000011100000000000000001110 A
b11100000000000000001110000 ,
b11100000000000000001110000 8
b11100000000000000001110000 +"
b11100000000000000001110000 I
b11100000000000000001110000 ^
b11100000000000000001110000 k
1/
b0 (
b0 >
b0 ."
b100 /"
1#
#40000
0#
#41000
13
b101 /"
1#
#42000
0#
#43000
b10 g
b111000000000000000011100010 H
b111000000000000000011100010 h
b111000000000000000011100010 !"
b0 O
b0 i
b0 |
b10 *
b10 B
b10 {
b10 ~
b10 -"
b110 /"
1#
#44000
0#
#45000
b0 g
b111000000000000000011100000 H
b111000000000000000011100000 h
b111000000000000000011100000 !"
b0 O
b0 i
b0 |
b111000000000000000011100000 E
b111000000000000000011100000 ]
b111000000000000000011100000 }
b0 R
b0 [
b0 z
11
b0 *
b0 B
b0 {
b0 ~
b0 -"
b111000000000000000011100000 ,
b111000000000000000011100000 8
b111000000000000000011100000 +"
b111000000000000000011100000 I
b111000000000000000011100000 ^
b111000000000000000011100000 k
b10111111111000000000000000011100 4
b10111111111000000000000000011100 A
b0 L
b0 \
b0 j
b111 /"
1#
#46000
0#
#47000
b1000 /"
1#
#48000
0#
#49000
10
1#
