floating_point/_testbenches/vvp/float_addition.vcd
$date
	Wed Jun 21 10:03:39 2023
$end
$version
	Icarus Verilog
$end
$timescale
	100ps
$end
$scope module float_addition_tb $end
$scope module float_addition_tb $end
$var wire 32 ! A [31:0] $end
$var wire 32 " B [31:0] $end
$var wire 1 # clk $end
$var wire 1 $ op $end
$var wire 1 % reset $end
$var wire 1 & sum_mult_selector $end
$var wire 8 ' shift_A [7:0] $end
$var wire 32 ( result [31:0] $end
$var wire 1 ) normalized $end
$var wire 2 * normalize_selector [1:0] $end
$var wire 29 + fract_UC [28:0] $end
$var wire 2 , exp_fract_selector [1:0] $end
$var wire 8 - exp_difference [7:0] $end
$var wire 1 . done_ULA $end
$var wire 1 / continue_selector $end
$var wire 29 0 big_ULA_out [28:0] $end
$var wire 1 1 ULA_START $end
$scope module FD $end
$var wire 32 2 A [31:0] $end
$var wire 32 3 B [31:0] $end
$var wire 1 # clk $end
$var wire 8 4 exp_difference [7:0] $end
$var wire 29 5 fract_UC [28:0] $end
$var wire 1 % reset $end
$var wire 29 6 ula_out [28:0] $end
$var wire 1 & sum_mult_selector $end
$var wire 8 7 small_ula_out [7:0] $end
$var wire 1 8 sign_c $end
$var wire 8 9 shift_A_modulo [7:0] $end
$var wire 8 : shift_A [7:0] $end
$var wire 1 ; sB $end
$var wire 1 < sA $end
$var wire 32 = result [31:0] $end
$var wire 1 ) normalized $end
$var wire 2 > normalize_selector [1:0] $end
$var wire 23 ? lower_fract [22:0] $end
$var wire 29 @ lower_ULAIN [28:0] $end
$var wire 29 A left_right_in [28:0] $end
$var wire 23 B higher_fract [22:0] $end
$var wire 29 C higher_ULAIN [28:0] $end
$var wire 29 D fract_shifted [28:0] $end
$var wire 29 E fract_result [28:0] $end
$var wire 23 F fractB [22:0] $end
$var wire 23 G fractA [22:0] $end
$var wire 8 H exp_result [7:0] $end
$var wire 8 I exp_in_mux_increment_decrement [7:0] $end
$var wire 8 J exp_higher [7:0] $end
$var wire 2 K exp_fract_selector [1:0] $end
$var wire 8 L exp_adjusted [7:0] $end
$var wire 8 M expB [7:0] $end
$var wire 8 N expA [7:0] $end
$var wire 8 O exp [7:0] $end
$var wire 1 . done_ULA $end
$var wire 1 / continue_selector $end
$var wire 29 P ULA_fract_OUT [28:0] $end
$var wire 1 1 ULA_START $end
$scope module MUX_EXP_HIGHER $end
$var wire 8 Q a [7:0] $end
$var wire 8 R b [7:0] $end
$var wire 2 S select [1:0] $end
$var wire 8 T result [7:0] $end
$upscope $end
$scope module MUX_INCREMENT_DECREMENT $end
$var wire 8 U a [7:0] $end
$var wire 1 / select $end
$var wire 8 V result [7:0] $end
$var wire 8 W b [7:0] $end
$upscope $end
$scope module MUX_LEFT_RIGHT $end
$var wire 1 / select $end
$var wire 29 X result [28:0] $end
$var wire 29 Y b [28:0] $end
$var wire 29 Z a [28:0] $end
$upscope $end
$scope module MUX_ULAIN_HIGHER $end
$var wire 23 [ a [22:0] $end
$var wire 23 \ b [22:0] $end
$var wire 2 ] select [1:0] $end
$var wire 23 ^ result [22:0] $end
$upscope $end
$scope module MUX_ULAIN_LOWER $end
$var wire 23 _ a [22:0] $end
$var wire 23 ` b [22:0] $end
$var wire 2 a select [1:0] $end
$var wire 23 b result [22:0] $end
$upscope $end
$scope module arredonda $end
$var wire 1 # clk $end
$var wire 3 c seguranca [2:0] $end
$var wire 1 ) normalized $end
$var wire 29 d fract_in [28:0] $end
$var wire 8 e exp_in [7:0] $end
$var reg 8 f exp_out [7:0] $end
$var reg 29 g fract_out [28:0] $end
$upscope $end
$scope module exp_ULA $end
$var wire 8 h a [7:0] $end
$var wire 8 i b [7:0] $end
$var wire 1 & sum_mult_selector $end
$var wire 8 j exp_difference [7:0] $end
$upscope $end
$scope module fract_ULA $end
$var wire 29 k b [28:0] $end
$var wire 1 # clk $end
$var wire 1 % reset $end
$var wire 1 < sign_a $end
$var wire 1 ; sign_b $end
$var wire 1 1 start $end
$var wire 1 & op $end
$var wire 48 l multiplicando [47:0] $end
$var wire 24 m multiplicador [23:0] $end
$var wire 29 n c [28:0] $end
$var wire 29 o a [28:0] $end
$var parameter 32 p DONE $end
$var parameter 32 q IDLE $end
$var parameter 32 r MULT $end
$var parameter 32 s SOMA $end
$var parameter 32 t START $end
$var parameter 32 u TRATAR_MULT $end
$var reg 5 v counter [4:0] $end
$var reg 1 . done $end
$var reg 48 w mult_result [47:0] $end
$var reg 1 8 sign_c $end
$var reg 29 x soma_result [28:0] $end
$var reg 3 y states [2:0] $end
$upscope $end
$scope module incremento_decremento $end
$var wire 8 z exp_in [7:0] $end
$var wire 2 { normalize_selector [1:0] $end
$var wire 8 | exp_out [7:0] $end
$upscope $end
$scope module left_right $end
$var wire 29 } A [28:0] $end
$var wire 2 ~ normalize_selector [1:0] $end
$var wire 29 !" A_shifted [28:0] $end
$upscope $end
$scope module shift_right $end
$var wire 29 "" A [28:0] $end
$var wire 8 #" shift_num [7:0] $end
$var wire 1 & sum_mult_selector $end
$var wire 29 $" A_shifted [28:0] $end
$upscope $end
$upscope $end
$scope module UC $end
$var wire 29 %" big_ULA_out [28:0] $end
$var wire 1 # clk $end
$var wire 1 . done_ULA $end
$var wire 8 &" exp_difference [7:0] $end
$var wire 29 '" fract_UC [28:0] $end
$var wire 1 $ op $end
$var wire 1 % reset $end
$var parameter 32 (" arredonda $end
$var parameter 32 )" bigULA $end
$var parameter 32 *" done $end
$var parameter 32 +" init $end
$var parameter 32 ," normalizing $end
$var parameter 32 -" selectRepeatedMux $end
$var parameter 32 ." selectULAIN $end
$var parameter 32 /" shiftaULAIN $end
$var parameter 32 0" smallULA $end
$var reg 1 1 ULA_START $end
$var reg 1 / continue_selector $end
$var reg 2 1" exp_fract_selector [1:0] $end
$var reg 2 2" normalize_selector [1:0] $end
$var reg 1 ) normalized $end
$var reg 8 3" shift_A [7:0] $end
$var reg 4 4" state [3:0] $end
$var reg 1 & sum_mult_selector $end
$upscope $end
$upscope $end
$upscope $end
$enddefinitions $end
$comment Show the parameter values. $end
$dumpall
b1 0"
b11 /"
b10 ."
b101 -"
b110 ,"
b0 +"
b1000 *"
b100 )"
b111 ("
b110 u
b1 t
b10 s
b11 r
b0 q
b100 p
$end
#0
$dumpvars
bx 4"
bx 3"
bx 2"
bx 1"
bx '"
b0x0 &"
bx %"
bx $"
bx #"
b10000000000000000000x111000 ""
bx !"
bx ~
bx }
bx |
bx {
bx z
bx y
bx x
bx w
bx v
bx o
bx n
bx m
b0xxxxxxxxxxxxxxxxxxxxxxxx l
b10000000000000000000x111000 k
b0x0 j
b1 i
b1 h
bx g
bx f
bx e
bx d
bx c
b0x111 b
bx a
b111 `
b1111 _
b0x111 ^
bx ]
b111 \
b1111 [
bx Z
bx Y
bx X
bx W
bx V
b0xx U
b1 T
bx S
b1 R
b1 Q
bx P
bx O
b1 N
b1 M
bx L
bx K
b1 J
b0xx I
bx H
b1111 G
b111 F
bx E
bx D
b10000000000000000000x111000 C
b0x111 B
bx A
bx @
b0x111 ?
bx >
bx =
0<
1;
bx :
bx 9
x8
b0x0 7
bx 6
bx 5
b0x0 4
b11000000000000000000000000000111 3
b1000000000000000000000000001111 2
x1
bx 0
x/
x.
b0x0 -
bx ,
bx +
bx *
x)
bx (
bx '
x&
0%
0$
0#
b11000000000000000000000000000111 "
b1000000000000000000000000001111 !
$end
#1000
bx000 +
bx000 5
bx000 '"
bx000 E
bx000 Y
bx000 g
b0 y
b0 4"
1#
1%
#2000
0#
0%
#3000
b1 L
b1 e
b1 |
b100000000000000000000111000 ""
b111 ?
b111 b
b100000000000000000001111000 C
b100000000000000000001111000 k
b1111 B
b1111 ^
b11 S
b0 -
b0 4
b0 &"
b0 7
b0 j
b1 I
b1 U
b1 O
b1 V
b1 z
0.
0)
b0 ,
b0 K
b0 ]
b0 a
b0 1"
b0 *
b0 >
b0 {
b0 ~
b0 2"
0&
0/
01
b1 4"
1#
#4000
0#
#5000
bx +
bx 5
bx '"
bx E
bx Y
bx g
bx10000000xxxxxxxxxxxxxxxxxxxxxxx (
bx10000000xxxxxxxxxxxxxxxxxxxxxxx =
b1 H
b1 W
b1 f
b10 4"
1#
#6000
0#
#7000
b1 S
b10 ,
b10 K
b10 ]
b10 a
b10 1"
b11 4"
1#
#8000
0#
#9000
b100000000000000000000111 m
b100000000000000000001111 l
b100000000000000000000111000 @
b100000000000000000000111000 o
b100000000000000000000111000 $"
b0 9
b0 #"
b0 '
b0 :
b0 3"
b100 4"
1#
#10000
0#
#11000
11
1#
#12000
0#
#13000
b1 y
1#
#14000
0#
#15000
b0 w
b0 v
b10 y
1#
#16000
0#
#17000
b0 c
b1000000 D
b1000000 d
b1000000 !"
b1000000 A
b1000000 X
b1000000 }
b1000000 0
b1000000 6
b1000000 %"
b1000000 P
b1000000 Z
b1000000 n
b100 y
b110000000xxxxxxxxxxxxxxxxxxxxxxx (
b110000000xxxxxxxxxxxxxxxxxxxxxxx =
18
b1000000 x
1#
#18000
0#
#19000
b11000000000000000000000000001000 (
b11000000000000000000000000001000 =
b1000000 +
b1000000 5
b1000000 '"
b1000000 E
b1000000 Y
b1000000 g
1.
1#
#20000
0#
#21000
b101 4"
1#
#22000
0#
#23000
b10000000 D
b10000000 d
b10000000 !"
b0 L
b0 e
b0 |
b10 *
b10 >
b10 {
b10 ~
b10 2"
b110 4"
1#
#24000
0#
#25000
b10000000 D
b10000000 d
b10000000 !"
b0 L
b0 e
b0 |
b10000000 A
b10000000 X
b10000000 }
b0 O
b0 V
b0 z
1/
b0 *
b0 >
b0 {
b0 ~
b0 2"
b10000000 +
b10000000 5
b10000000 '"
b10000000 E
b10000000 Y
b10000000 g
b10111111100000000000000000010000 (
b10111111100000000000000000010000 =
b0 H
b0 W
b0 f
b111 4"
1#
#26000
0#
#27000
b1000 4"
1#
#28000
0#
#29000
1)
1#
