floating_point/_testbenches/vvp/float_addition.vcd
$date
	Wed Jun 21 11:21:50 2023
$end
$version
	Icarus Verilog
$end
$timescale
	100ps
$end
$scope module float_addition_tb $end
$scope module float_addition_tb $end
$var wire 32 ! A [31:0] $end
$var wire 32 " B [31:0] $end
$var wire 1 # clk $end
$var wire 1 $ op $end
$var wire 1 % reset $end
$var wire 1 & sum_mult_selector $end
$var wire 8 ' shift_A [7:0] $end
$var wire 32 ( result [31:0] $end
$var wire 1 ) normalized $end
$var wire 1 * normalize_selector $end
$var wire 29 + fract_UC [28:0] $end
$var wire 1 , exp_fract_selector $end
$var wire 8 - exp_difference [7:0] $end
$var wire 1 . done_ULA $end
$var wire 1 / continue_selector $end
$var wire 29 0 big_ULA_out [28:0] $end
$var wire 1 1 ULA_START $end
$scope module FD $end
$var wire 32 2 A [31:0] $end
$var wire 32 3 B [31:0] $end
$var wire 1 # clk $end
$var wire 8 4 exp_difference [7:0] $end
$var wire 29 5 fract_UC [28:0] $end
$var wire 1 % reset $end
$var wire 29 6 ula_out [28:0] $end
$var wire 1 & sum_mult_selector $end
$var wire 8 7 small_ula_out [7:0] $end
$var wire 1 8 sign_c $end
$var wire 8 9 shift_A_modulo [7:0] $end
$var wire 8 : shift_A [7:0] $end
$var wire 1 ; sB $end
$var wire 1 < sA $end
$var wire 32 = result [31:0] $end
$var wire 1 ) normalized $end
$var wire 1 * normalize_selector $end
$var wire 23 > lower_fract [22:0] $end
$var wire 29 ? lower_ULAIN [28:0] $end
$var wire 29 @ left_right_in [28:0] $end
$var wire 23 A higher_fract [22:0] $end
$var wire 29 B higher_ULAIN [28:0] $end
$var wire 29 C fract_shifted [28:0] $end
$var wire 29 D fract_result [28:0] $end
$var wire 23 E fractB [22:0] $end
$var wire 23 F fractA [22:0] $end
$var wire 8 G exp_result [7:0] $end
$var wire 8 H exp_in_mux_increment_decrement [7:0] $end
$var wire 8 I exp_higher [7:0] $end
$var wire 1 , exp_fract_selector $end
$var wire 8 J exp_adjusted [7:0] $end
$var wire 8 K expB [7:0] $end
$var wire 8 L expA [7:0] $end
$var wire 8 M exp [7:0] $end
$var wire 1 . done_ULA $end
$var wire 1 / continue_selector $end
$var wire 29 N ULA_fract_OUT [28:0] $end
$var wire 1 1 ULA_START $end
$scope module MUX_EXP_HIGHER $end
$var wire 8 O a [7:0] $end
$var wire 8 P b [7:0] $end
$var wire 1 Q select $end
$var wire 8 R result [7:0] $end
$upscope $end
$scope module MUX_INCREMENT_DECREMENT $end
$var wire 8 S a [7:0] $end
$var wire 1 / select $end
$var wire 8 T result [7:0] $end
$var wire 8 U b [7:0] $end
$upscope $end
$scope module MUX_LEFT_RIGHT $end
$var wire 1 / select $end
$var wire 29 V result [28:0] $end
$var wire 29 W b [28:0] $end
$var wire 29 X a [28:0] $end
$upscope $end
$scope module MUX_ULAIN_HIGHER $end
$var wire 23 Y a [22:0] $end
$var wire 23 Z b [22:0] $end
$var wire 1 [ select $end
$var wire 23 \ result [22:0] $end
$upscope $end
$scope module MUX_ULAIN_LOWER $end
$var wire 23 ] a [22:0] $end
$var wire 23 ^ b [22:0] $end
$var wire 1 , select $end
$var wire 23 _ result [22:0] $end
$upscope $end
$scope module arredonda $end
$var wire 1 # clk $end
$var wire 3 ` seguranca [2:0] $end
$var wire 1 ) normalized $end
$var wire 29 a fract_in [28:0] $end
$var wire 8 b exp_in [7:0] $end
$var reg 8 c exp_out [7:0] $end
$var reg 29 d fract_out [28:0] $end
$upscope $end
$scope module exp_ULA $end
$var wire 8 e a [7:0] $end
$var wire 8 f b [7:0] $end
$var wire 1 & sum_mult_selector $end
$var wire 8 g exp_difference [7:0] $end
$upscope $end
$scope module fract_ULA $end
$var wire 29 h b [28:0] $end
$var wire 1 # clk $end
$var wire 1 % reset $end
$var wire 1 < sign_a $end
$var wire 1 ; sign_b $end
$var wire 1 1 start $end
$var wire 1 & op $end
$var wire 48 i multiplicando [47:0] $end
$var wire 24 j multiplicador [23:0] $end
$var wire 29 k c [28:0] $end
$var wire 29 l a [28:0] $end
$var reg 5 m counter [4:0] $end
$var reg 1 . done $end
$var reg 48 n mult_result [47:0] $end
$var reg 1 8 sign_c $end
$var reg 29 o soma_result [28:0] $end
$var reg 3 p states [2:0] $end
$upscope $end
$scope module incremento_decremento $end
$var wire 8 q exp_in [7:0] $end
$var wire 1 * increment_decrement $end
$var wire 8 r exp_out [7:0] $end
$upscope $end
$scope module left_right $end
$var wire 29 s A [28:0] $end
$var wire 1 * shift_selector $end
$var wire 29 t A_shifted [28:0] $end
$upscope $end
$scope module shift_right $end
$var wire 29 u A [28:0] $end
$var wire 8 v shift_num [7:0] $end
$var wire 1 & sum_mult_selector $end
$var wire 29 w A_shifted [28:0] $end
$upscope $end
$upscope $end
$scope module UC $end
$var wire 29 x big_ULA_out [28:0] $end
$var wire 1 # clk $end
$var wire 1 . done_ULA $end
$var wire 8 y exp_difference [7:0] $end
$var wire 29 z fract_UC [28:0] $end
$var wire 1 $ op $end
$var wire 1 % reset $end
$var reg 1 1 ULA_START $end
$var reg 1 / continue_selector $end
$var reg 1 , exp_fract_selector $end
$var reg 1 * normalize_selector $end
$var reg 1 ) normalized $end
$var reg 8 { shift_A [7:0] $end
$var reg 4 | state [3:0] $end
$var reg 1 & sum_mult_selector $end
$upscope $end
$upscope $end
$upscope $end
$enddefinitions $end
#0
$dumpvars
bx |
bx {
bx z
bx11 y
bx x
bx w
bx v
b11xx00000000000000000000000 u
bx t
bx s
bx r
bx q
bx p
bx o
bx n
bx m
bx l
bx k
bx j
b0xxxxxxxxxxxxxxxxxxxxxxxx i
b11xx00000000000000000000000 h
bx11 g
b10 f
b1 e
bx d
bx c
bx b
bx a
bx `
b1xx00000000000000000000 _
b11000000000000000000000 ^
b10100000000000000000000 ]
b1xx00000000000000000000 \
x[
b11000000000000000000000 Z
b10100000000000000000000 Y
bx X
bx W
bx V
bx U
bx T
bx S
b0xx R
xQ
b10 P
b1 O
bx N
bx M
b1 L
b10 K
bx J
b0xx I
bx H
bx G
b10100000000000000000000 F
b11000000000000000000000 E
bx D
bx C
b11xx00000000000000000000000 B
b1xx00000000000000000000 A
bx @
bx ?
b1xx00000000000000000000 >
bx =
0<
0;
bx :
bx 9
x8
bx11 7
bx 6
bx 5
bx11 4
b1000000111000000000000000000000 3
b1000000010100000000000000000000 2
x1
bx 0
x/
x.
bx11 -
x,
bx +
x*
x)
bx (
bx '
x&
0%
1$
0#
b1000000111000000000000000000000 "
b1000000010100000000000000000000 !
$end
#1000
b0 p
b0 |
1#
1%
#2000
0#
0%
#3000
b10 I
b10 R
b10 J
b10 b
b10 r
b111000000000000000000000000 B
b111000000000000000000000000 h
b11000000000000000000000 A
b11000000000000000000000 \
b10 M
b10 T
b10 q
b110100000000000000000000000 u
b10100000000000000000000 >
b10100000000000000000000 _
1Q
1[
b11111111 -
b11111111 4
b11111111 y
b11111111 7
b11111111 g
b10 H
b10 S
0.
0)
0,
0*
0&
0/
01
b1 |
1#
#4000
0#
#5000
bx0 `
b110100000000000000000000 j
b0xxxxxxxxxxxxxxxxxxxxxxxxxxx0 C
b0xxxxxxxxxxxxxxxxxxxxxxxxxxx0 a
b0xxxxxxxxxxxxxxxxxxxxxxxxxxx0 t
b11 J
b11 b
b11 r
b111000000000000000000000 i
b0xxxxxxxxxxxxxxxxxxxxxxxxxxx0 @
b0xxxxxxxxxxxxxxxxxxxxxxxxxxx0 V
b0xxxxxxxxxxxxxxxxxxxxxxxxxxx0 s
b11 M
b11 T
b11 q
b110100000000000000000000000 ?
b110100000000000000000000000 l
b110100000000000000000000000 w
b0xxxxxxxxxxxxxxxxxxxxxxxxxxx0 0
b0xxxxxxxxxxxxxxxxxxxxxxxxxxx0 6
b0xxxxxxxxxxxxxxxxxxxxxxxxxxx0 x
b0xxxxxxxxxxxxxxxxxxxxxxxxxxx0 N
b0xxxxxxxxxxxxxxxxxxxxxxxxxxx0 X
b0xxxxxxxxxxxxxxxxxxxxxxxxxxx0 k
b11 -
b11 4
b11 y
b11 7
b11 g
b11 H
b11 S
1&
bx10000001xxxxxxxxxxxxxxxxxxxxxxx (
bx10000001xxxxxxxxxxxxxxxxxxxxxxx =
b10 G
b10 U
b10 c
b10 |
1#
#6000
0#
#7000
b111000000000000000000000 i
b1 I
b1 R
b111000000000000000000000000 ?
b111000000000000000000000000 l
b111000000000000000000000000 w
b110100000000000000000000000 B
b110100000000000000000000000 h
b10100000000000000000000 A
b10100000000000000000000 \
b111000000000000000000000000 u
b11000000000000000000000 >
b11000000000000000000000 _
0Q
0[
b0xxxxxxxxxxxxxxxxxxxxxxxxxxx0 +
b0xxxxxxxxxxxxxxxxxxxxxxxxxxx0 5
b0xxxxxxxxxxxxxxxxxxxxxxxxxxx0 z
b0xxxxxxxxxxxxxxxxxxxxxxxxxxx0 D
b0xxxxxxxxxxxxxxxxxxxxxxxxxxx0 W
b0xxxxxxxxxxxxxxxxxxxxxxxxxxx0 d
bx10000010xxxxxxxxxxxxxxxxxxxxxxx (
bx10000010xxxxxxxxxxxxxxxxxxxxxxx =
b11 G
b11 U
b11 c
1,
b11 |
1#
#8000
0#
#9000
b0 9
b0 v
b0 '
b0 :
b0 {
b100 |
1#
#10000
0#
#11000
11
1#
#12000
0#
#13000
b1 p
1#
#14000
0#
#15000
b0 `
b0 C
b0 a
b0 t
b0 @
b0 V
b0 s
b0 0
b0 6
b0 x
b0 N
b0 X
b0 k
b0 n
b0 m
b11 p
1#
#16000
0#
#17000
b1 m
b1000001000000000000000000000000 (
b1000001000000000000000000000000 =
08
b0 +
b0 5
b0 z
b0 D
b0 W
b0 d
1#
#18000
0#
#19000
b10 m
1#
#20000
0#
#21000
b11 m
1#
#22000
0#
#23000
b100 m
1#
#24000
0#
#25000
b101 m
1#
#26000
0#
#27000
b110 m
1#
#28000
0#
#29000
b111 m
1#
#30000
0#
#31000
b1000 m
1#
#32000
0#
#33000
b1001 m
1#
#34000
0#
#35000
b1010 m
1#
#36000
0#
#37000
b1011 m
1#
#38000
0#
#39000
b1100 m
1#
#40000
0#
#41000
b1101 m
1#
#42000
0#
#43000
b1110 m
1#
#44000
0#
#45000
b1111 m
1#
#46000
0#
#47000
b10000 m
1#
#48000
0#
#49000
b10001 m
1#
#50000
0#
#51000
b10010 m
1#
#52000
0#
#53000
b10011 m
1#
#54000
0#
#55000
b10100 m
1#
#56000
0#
#57000
b111000000000000000000000 C
b111000000000000000000000 a
b111000000000000000000000 t
b111000000000000000000000 @
b111000000000000000000000 V
b111000000000000000000000 s
b111000000000000000000000 0
b111000000000000000000000 6
b111000000000000000000000 x
b111000000000000000000000 N
b111000000000000000000000 X
b111000000000000000000000 k
b10101 m
b11100000000000000000000000000000000000000000 n
1#
#58000
0#
#59000
b1000001000111000000000000000000 (
b1000001000111000000000000000000 =
b111000000000000000000000 +
b111000000000000000000000 5
b111000000000000000000000 z
b111000000000000000000000 D
b111000000000000000000000 W
b111000000000000000000000 d
b10110 m
1#
#60000
0#
#61000
b100011000000000000000000000 C
b100011000000000000000000000 a
b100011000000000000000000000 t
b100011000000000000000000000 @
b100011000000000000000000000 V
b100011000000000000000000000 s
b100011000000000000000000000 0
b100011000000000000000000000 6
b100011000000000000000000000 x
b100011000000000000000000000 N
b100011000000000000000000000 X
b100011000000000000000000000 k
b10111 m
b10001100000000000000000000000000000000000000000 n
1#
#62000
0#
#63000
b1011011000000000000000000000 C
b1011011000000000000000000000 a
b1011011000000000000000000000 t
b1011011000000000000000000000 @
b1011011000000000000000000000 V
b1011011000000000000000000000 s
b1011011000000000000000000000 0
b1011011000000000000000000000 6
b1011011000000000000000000000 x
b1011011000000000000000000000 N
b1011011000000000000000000000 X
b1011011000000000000000000000 k
b1000001000011000000000000000000 (
b1000001000011000000000000000000 =
b100011000000000000000000000 +
b100011000000000000000000000 5
b100011000000000000000000000 z
b100011000000000000000000000 D
b100011000000000000000000000 W
b100011000000000000000000000 d
b11000 m
b101101100000000000000000000000000000000000000000 n
1#
#64000
0#
#65000
b1000001011011000000000000000000 (
b1000001011011000000000000000000 =
b100 p
b11001 m
b1011011000000000000000000000 +
b1011011000000000000000000000 5
b1011011000000000000000000000 z
b1011011000000000000000000000 D
b1011011000000000000000000000 W
b1011011000000000000000000000 d
1#
#66000
0#
#67000
1.
1#
#68000
0#
#69000
b101 |
1#
#70000
0#
#71000
b101101100000000000000000000 C
b101101100000000000000000000 a
b101101100000000000000000000 t
b100 J
b100 b
b100 r
1*
b110 |
1#
#72000
0#
#73000
b100 M
b100 T
b100 q
b101101100000000000000000000 @
b101101100000000000000000000 V
b101101100000000000000000000 s
b101101100000000000000000000 C
b101101100000000000000000000 a
b101101100000000000000000000 t
b100 J
b100 b
b100 r
1/
0*
b101101100000000000000000000 +
b101101100000000000000000000 5
b101101100000000000000000000 z
b101101100000000000000000000 D
b101101100000000000000000000 W
b101101100000000000000000000 d
b1000001101101100000000000000000 (
b1000001101101100000000000000000 =
b100 G
b100 U
b100 c
b111 |
1#
#74000
0#
#75000
b1000 |
1#
#76000
0#
#77000
1)
1#
