floating_point/_testbenches/vvp/floating_point.vcd
$date
	Tue Jun 27 20:23:41 2023
$end
$version
	Icarus Verilog
$end
$timescale
	100ps
$end
$scope module floating_point_tb $end
$scope module floating_point_tb $end
$var wire 32 ! A [31:0] $end
$var wire 32 " B [31:0] $end
$var wire 1 # clk $end
$var wire 1 $ done $end
$var wire 2 % op [1:0] $end
$var wire 1 & reset $end
$var wire 1 ' start $end
$var wire 1 ( sum_mult_selector $end
$var wire 8 ) shift_A [7:0] $end
$var wire 1 * normalized $end
$var wire 2 + normalize_selector [1:0] $end
$var wire 29 , fract_UC [28:0] $end
$var wire 1 - exp_fract_selector $end
$var wire 8 . exp_difference [7:0] $end
$var wire 1 / done_ULA $end
$var wire 1 0 continue_selector $end
$var wire 29 1 big_ULA_out [28:0] $end
$var wire 1 2 ULA_START $end
$var wire 32 3 R [31:0] $end
$scope module FD $end
$var wire 32 4 A [31:0] $end
$var wire 32 5 B [31:0] $end
$var wire 1 # clk $end
$var wire 8 6 exp_difference [7:0] $end
$var wire 29 7 fract_UC [28:0] $end
$var wire 1 & reset $end
$var wire 29 8 ula_out [28:0] $end
$var wire 1 ( sum_mult_selector $end
$var wire 8 9 small_ula_out [7:0] $end
$var wire 1 : sign_c $end
$var wire 8 ; shift_A_modulo [7:0] $end
$var wire 8 < shift_A [7:0] $end
$var wire 1 = sB $end
$var wire 1 > sA $end
$var wire 32 ? result [31:0] $end
$var wire 1 * normalized $end
$var wire 2 @ normalize_selector [1:0] $end
$var wire 23 A lower_fract [22:0] $end
$var wire 29 B lower_ULAIN [28:0] $end
$var wire 29 C left_right_in [28:0] $end
$var wire 23 D higher_fract [22:0] $end
$var wire 29 E higher_ULAIN [28:0] $end
$var wire 29 F fract_shifted [28:0] $end
$var wire 29 G fract_result [28:0] $end
$var wire 23 H fractB [22:0] $end
$var wire 23 I fractA [22:0] $end
$var wire 8 J exp_result [7:0] $end
$var wire 8 K exp_in_mux_increment_decrement [7:0] $end
$var wire 8 L exp_higher [7:0] $end
$var wire 1 - exp_fract_selector $end
$var wire 8 M exp_adjusted [7:0] $end
$var wire 8 N expB [7:0] $end
$var wire 8 O expA [7:0] $end
$var wire 8 P exp [7:0] $end
$var wire 1 / done_ULA $end
$var wire 1 0 continue_selector $end
$var wire 29 Q ULA_fract_OUT [28:0] $end
$var wire 1 2 ULA_START $end
$scope module MUX_EXP_HIGHER $end
$var wire 8 R a [7:0] $end
$var wire 8 S b [7:0] $end
$var wire 1 T select $end
$var wire 8 U result [7:0] $end
$upscope $end
$scope module MUX_INCREMENT_DECREMENT $end
$var wire 8 V a [7:0] $end
$var wire 1 0 select $end
$var wire 8 W result [7:0] $end
$var wire 8 X b [7:0] $end
$upscope $end
$scope module MUX_LEFT_RIGHT $end
$var wire 1 0 select $end
$var wire 29 Y result [28:0] $end
$var wire 29 Z b [28:0] $end
$var wire 29 [ a [28:0] $end
$upscope $end
$scope module MUX_ULAIN_HIGHER $end
$var wire 23 \ a [22:0] $end
$var wire 23 ] b [22:0] $end
$var wire 1 - select $end
$var wire 23 ^ result [22:0] $end
$upscope $end
$scope module MUX_ULAIN_LOWER $end
$var wire 23 _ a [22:0] $end
$var wire 23 ` b [22:0] $end
$var wire 1 a select $end
$var wire 23 b result [22:0] $end
$upscope $end
$scope module arredonda $end
$var wire 1 # clk $end
$var wire 3 c seguranca [2:0] $end
$var wire 1 * normalized $end
$var wire 29 d fract_in [28:0] $end
$var wire 8 e exp_in [7:0] $end
$var reg 8 f exp_out [7:0] $end
$var reg 29 g fract_out [28:0] $end
$upscope $end
$scope module exp_ULA $end
$var wire 8 h a [7:0] $end
$var wire 8 i b [7:0] $end
$var wire 1 ( sum_mult_selector $end
$var wire 8 j exp_difference [7:0] $end
$upscope $end
$scope module fract_ULA $end
$var wire 29 k b [28:0] $end
$var wire 1 # clk $end
$var wire 23 l fractA [22:0] $end
$var wire 23 m fractB [22:0] $end
$var wire 1 & reset $end
$var wire 1 > sign_a $end
$var wire 1 = sign_b $end
$var wire 1 2 start $end
$var wire 1 ( op $end
$var wire 48 n multiplicando [47:0] $end
$var wire 24 o multiplicador [23:0] $end
$var wire 29 p c [28:0] $end
$var wire 29 q a [28:0] $end
$var parameter 32 r DONE $end
$var parameter 32 s IDLE $end
$var parameter 32 t MULT $end
$var parameter 32 u SOMA $end
$var parameter 32 v START $end
$var parameter 32 w TRATAR_MULT $end
$var reg 5 x counter [4:0] $end
$var reg 1 / done $end
$var reg 48 y mult_result [47:0] $end
$var reg 1 : sign_c $end
$var reg 29 z soma_result [28:0] $end
$var reg 3 { states [2:0] $end
$upscope $end
$scope module incremento_decremento $end
$var wire 8 | exp_in [7:0] $end
$var wire 2 } normalize_selector [1:0] $end
$var wire 8 ~ exp_out [7:0] $end
$upscope $end
$scope module left_right $end
$var wire 29 !" A [28:0] $end
$var wire 2 "" normalize_selector [1:0] $end
$var wire 29 #" A_shifted [28:0] $end
$upscope $end
$scope module shift_right $end
$var wire 29 $" A [28:0] $end
$var wire 8 %" shift_num [7:0] $end
$var wire 1 ( sum_mult_selector $end
$var wire 29 &" A_shifted [28:0] $end
$upscope $end
$upscope $end
$scope module UC $end
$var wire 29 '" big_ULA_out [28:0] $end
$var wire 1 # clk $end
$var wire 1 / done_ULA $end
$var wire 8 (" exp_difference [7:0] $end
$var wire 29 )" fract_UC [28:0] $end
$var wire 2 *" op [1:0] $end
$var wire 1 & reset $end
$var wire 1 ' start $end
$var parameter 32 +" DONE $end
$var parameter 32 ," arredonda $end
$var parameter 32 -" bigULA $end
$var parameter 32 ." init $end
$var parameter 32 /" normalizing $end
$var parameter 32 0" selectRepeatedMux $end
$var parameter 32 1" selectULAIN $end
$var parameter 32 2" shiftaULAIN $end
$var parameter 32 3" smallULA $end
$var reg 1 2 ULA_START $end
$var reg 1 0 continue_selector $end
$var reg 1 4" done $end
$var reg 1 - exp_fract_selector $end
$var reg 2 5" normalize_selector [1:0] $end
$var reg 1 * normalized $end
$var reg 8 6" shift_A [7:0] $end
$var reg 4 7" state [3:0] $end
$var reg 1 ( sum_mult_selector $end
$upscope $end
$upscope $end
$upscope $end
$enddefinitions $end
$comment Show the parameter values. $end
$dumpall
b1 3"
b11 2"
b10 1"
b101 0"
b110 /"
b0 ."
b100 -"
b111 ,"
b1000 +"
b110 w
b1 v
b10 u
b11 t
b0 s
b100 r
$end
#0
$dumpvars
bx 7"
bx 6"
bx 5"
x4"
b0 *"
bx )"
b0x0 ("
bx '"
bx &"
bx %"
b10000000000000000000x111000 $"
bx #"
bx ""
bx !"
bx ~
bx }
bx |
bx {
bx z
bx y
bx x
bx q
bx p
bx o
b0xxxxxxxxxxxxxxxxxxxxxxxx n
b111 m
b1111 l
b10000000000000000000x111000 k
b0x0 j
b1 i
b1 h
bx g
bx f
bx e
bx d
bx c
b0x111 b
xa
b111 `
b1111 _
b0x111 ^
b111 ]
b1111 \
bx [
bx Z
bx Y
bx X
bx W
b0xx V
b1 U
xT
b1 S
b1 R
bx Q
bx P
b1 O
b1 N
bx M
b1 L
b0xx K
bx J
b1111 I
b111 H
bx G
bx F
b10000000000000000000x111000 E
b0x111 D
bx C
bx B
b0x111 A
bx @
bx ?
1>
1=
bx <
bx ;
x:
b0x0 9
bx 8
bx 7
b0x0 6
b11000000000000000000000000000111 5
b11000000000000000000000000001111 4
bx 3
x2
bx 1
x0
x/
b0x0 .
x-
bx ,
bx +
x*
bx )
x(
x'
0&
b0 %
x$
0#
b11000000000000000000000000000111 "
b11000000000000000000000000001111 !
$end
#1000
bx000 ,
bx000 7
bx000 )"
bx000 G
bx000 Z
bx000 g
b0 {
b0 7"
1#
1'
1&
#2000
0#
0&
#3000
b100000000000000000000111000 $"
b111 A
b111 b
b1 M
b1 e
b1 ~
b100000000000000000001111000 E
b100000000000000000001111000 k
b1111 D
b1111 ^
1T
1a
b0 .
b0 6
b0 ("
b0 9
b0 j
b1 K
b1 V
b1 P
b1 W
b1 |
0/
0$
04"
0*
0-
b0 +
b0 @
b0 }
b0 ""
b0 5"
0(
00
02
b1 7"
1#
#4000
0#
#5000
bx ,
bx 7
bx )"
bx G
bx Z
bx g
bx10000000xxxxxxxxxxxxxxxxxxxxxxx 3
bx10000000xxxxxxxxxxxxxxxxxxxxxxx ?
b1 J
b1 X
b1 f
b10 7"
1#
#6000
0#
#7000
b11 7"
1#
#8000
0#
#9000
b100000000000000000000111 o
b100000000000000000001111 n
b100000000000000000000111000 B
b100000000000000000000111000 q
b100000000000000000000111000 &"
b0 ;
b0 %"
b0 )
b0 <
b0 6"
b100 7"
1#
#10000
0#
#11000
12
1#
#12000
0#
#13000
b1 {
1#
#14000
0#
#15000
b0 y
b0 x
b10 {
1#
#16000
0#
#17000
b0 c
b1000000000000000000010110000 F
b1000000000000000000010110000 d
b1000000000000000000010110000 #"
b1000000000000000000010110000 C
b1000000000000000000010110000 Y
b1000000000000000000010110000 !"
b1000000000000000000010110000 1
b1000000000000000000010110000 8
b1000000000000000000010110000 '"
b1000000000000000000010110000 Q
b1000000000000000000010110000 [
b1000000000000000000010110000 p
b100 {
b110000000xxxxxxxxxxxxxxxxxxxxxxx 3
b110000000xxxxxxxxxxxxxxxxxxxxxxx ?
1:
b1000000000000000000010110000 z
1#
#18000
0#
#19000
b11000000000000000000000000010110 3
b11000000000000000000000000010110 ?
b1000000000000000000010110000 ,
b1000000000000000000010110000 7
b1000000000000000000010110000 )"
b1000000000000000000010110000 G
b1000000000000000000010110000 Z
b1000000000000000000010110000 g
1/
1#
#20000
0#
#21000
b101 7"
1#
#22000
0#
#23000
b100000000000000000001011000 F
b100000000000000000001011000 d
b100000000000000000001011000 #"
b10 M
b10 e
b10 ~
b1 +
b1 @
b1 }
b1 ""
b1 5"
b110 7"
1#
#24000
0#
#25000
b100000000000000000001011000 C
b100000000000000000001011000 Y
b100000000000000000001011000 !"
b10 P
b10 W
b10 |
b100000000000000000001011000 F
b100000000000000000001011000 d
b100000000000000000001011000 #"
b10 M
b10 e
b10 ~
10
b0 +
b0 @
b0 }
b0 ""
b0 5"
b100000000000000000001011000 ,
b100000000000000000001011000 7
b100000000000000000001011000 )"
b100000000000000000001011000 G
b100000000000000000001011000 Z
b100000000000000000001011000 g
b11000000100000000000000000001011 3
b11000000100000000000000000001011 ?
b10 J
b10 X
b10 f
b111 7"
1#
#26000
0#
#27000
b1000 7"
1#
#28000
0#
#29000
14"
1$
1*
1#
#30000
0#
#31000
b0 {
b0 7"
0>
1#
b1000000000000000000000000001111 !
b1000000000000000000000000001111 4
1&
#32000
0#
0&
#33000
b1000000000000000000010110000 F
b1000000000000000000010110000 d
b1000000000000000000010110000 #"
b1 M
b1 e
b1 ~
b1000000000000000000010110000 C
b1000000000000000000010110000 Y
b1000000000000000000010110000 !"
b1 P
b1 W
b1 |
04"
0$
0*
00
02
b1 {
0/
b1 7"
1#
#34000
0#
#35000
b1000000000000000000010110000 ,
b1000000000000000000010110000 7
b1000000000000000000010110000 )"
b1000000000000000000010110000 G
b1000000000000000000010110000 Z
b1000000000000000000010110000 g
b11000000000000000000000000010110 3
b11000000000000000000000000010110 ?
b1 J
b1 X
b1 f
b10 {
b10 7"
1#
#36000
0#
#37000
b1000000 F
b1000000 d
b1000000 #"
b1000000 C
b1000000 Y
b1000000 !"
b1000000 1
b1000000 8
b1000000 '"
b1000000 Q
b1000000 [
b1000000 p
b100 {
b1000000000000000000000000010110 3
b1000000000000000000000000010110 ?
0:
b1000000 z
b11 7"
1#
#38000
0#
#39000
b1000000000000000000000000001000 3
b1000000000000000000000000001000 ?
b1000000 ,
b1000000 7
b1000000 )"
b1000000 G
b1000000 Z
b1000000 g
1/
b100 7"
1#
#40000
0#
#41000
12
b101 7"
1#
#42000
0#
#43000
b10000000 F
b10000000 d
b10000000 #"
b0 M
b0 e
b0 ~
b10 +
b10 @
b10 }
b10 ""
b10 5"
b110 7"
1#
#44000
0#
#45000
b10000000 F
b10000000 d
b10000000 #"
b0 M
b0 e
b0 ~
b10000000 C
b10000000 Y
b10000000 !"
b0 P
b0 W
b0 |
10
b0 +
b0 @
b0 }
b0 ""
b0 5"
b10000000 ,
b10000000 7
b10000000 )"
b10000000 G
b10000000 Z
b10000000 g
b111111100000000000000000010000 3
b111111100000000000000000010000 ?
b0 J
b0 X
b0 f
b111 7"
1#
#46000
0#
#47000
b101 7"
1#
#48000
0#
#49000
b100000000 F
b100000000 d
b100000000 #"
b11111111 M
b11111111 e
b11111111 ~
b10 +
b10 @
b10 }
b10 ""
b10 5"
b110 7"
1#
#50000
0#
#51000
b100000000 F
b100000000 d
b100000000 #"
b11111111 M
b11111111 e
b11111111 ~
b100000000 C
b100000000 Y
b100000000 !"
b11111111 P
b11111111 W
b11111111 |
b100000000 ,
b100000000 7
b100000000 )"
b100000000 G
b100000000 Z
b100000000 g
b111111000000000000000000100000 3
b111111000000000000000000100000 ?
b11111111 J
b11111111 X
b11111111 f
b0 +
b0 @
b0 }
b0 ""
b0 5"
b111 7"
1#
#52000
0#
#53000
b101 7"
1#
#54000
0#
#55000
b1000000000 F
b1000000000 d
b1000000000 #"
b11111110 M
b11111110 e
b11111110 ~
b10 +
b10 @
b10 }
b10 ""
b10 5"
b110 7"
1#
#56000
0#
#57000
b1000000000 C
b1000000000 Y
b1000000000 !"
b11111110 P
b11111110 W
b11111110 |
b0 +
b0 @
b0 }
b0 ""
b0 5"
b1000000000 ,
b1000000000 7
b1000000000 )"
b1000000000 G
b1000000000 Z
b1000000000 g
b111110100000000000000001000000 3
b111110100000000000000001000000 ?
b11111110 J
b11111110 X
b11111110 f
b111 7"
1#
#58000
0#
#59000
b101 7"
1#
#60000
0#
#61000
b10000000000 F
b10000000000 d
b10000000000 #"
b11111101 M
b11111101 e
b11111101 ~
b10 +
b10 @
b10 }
b10 ""
b10 5"
b110 7"
1#
#62000
0#
#63000
b10000000000 F
b10000000000 d
b10000000000 #"
b11111101 M
b11111101 e
b11111101 ~
b10000000000 C
b10000000000 Y
b10000000000 !"
b11111101 P
b11111101 W
b11111101 |
b10000000000 ,
b10000000000 7
b10000000000 )"
b10000000000 G
b10000000000 Z
b10000000000 g
b111110000000000000000010000000 3
b111110000000000000000010000000 ?
b11111101 J
b11111101 X
b11111101 f
b0 +
b0 @
b0 }
b0 ""
b0 5"
b111 7"
1#
#64000
0#
#65000
b101 7"
1#
#66000
0#
#67000
b100000000000 F
b100000000000 d
b100000000000 #"
b11111100 M
b11111100 e
b11111100 ~
b10 +
b10 @
b10 }
b10 ""
b10 5"
b110 7"
1#
#68000
0#
#69000
b100000000000 C
b100000000000 Y
b100000000000 !"
b11111100 P
b11111100 W
b11111100 |
b0 +
b0 @
b0 }
b0 ""
b0 5"
b100000000000 ,
b100000000000 7
b100000000000 )"
b100000000000 G
b100000000000 Z
b100000000000 g
b111101100000000000000100000000 3
b111101100000000000000100000000 ?
b11111100 J
b11111100 X
b11111100 f
b111 7"
1#
#70000
0#
#71000
b101 7"
1#
#72000
0#
#73000
b1000000000000 F
b1000000000000 d
b1000000000000 #"
b11111011 M
b11111011 e
b11111011 ~
b10 +
b10 @
b10 }
b10 ""
b10 5"
b110 7"
1#
#74000
0#
#75000
b1000000000000 F
b1000000000000 d
b1000000000000 #"
b11111011 M
b11111011 e
b11111011 ~
b1000000000000 C
b1000000000000 Y
b1000000000000 !"
b11111011 P
b11111011 W
b11111011 |
b1000000000000 ,
b1000000000000 7
b1000000000000 )"
b1000000000000 G
b1000000000000 Z
b1000000000000 g
b111101000000000000001000000000 3
b111101000000000000001000000000 ?
b11111011 J
b11111011 X
b11111011 f
b0 +
b0 @
b0 }
b0 ""
b0 5"
b111 7"
1#
#76000
0#
#77000
b101 7"
1#
#78000
0#
#79000
b10000000000000 F
b10000000000000 d
b10000000000000 #"
b11111010 M
b11111010 e
b11111010 ~
b10 +
b10 @
b10 }
b10 ""
b10 5"
b110 7"
1#
#80000
0#
#81000
b10000000000000 C
b10000000000000 Y
b10000000000000 !"
b11111010 P
b11111010 W
b11111010 |
b0 +
b0 @
b0 }
b0 ""
b0 5"
b10000000000000 ,
b10000000000000 7
b10000000000000 )"
b10000000000000 G
b10000000000000 Z
b10000000000000 g
b111100100000000000010000000000 3
b111100100000000000010000000000 ?
b11111010 J
b11111010 X
b11111010 f
b111 7"
1#
#82000
0#
#83000
b101 7"
1#
#84000
0#
#85000
b100000000000000 F
b100000000000000 d
b100000000000000 #"
b11111001 M
b11111001 e
b11111001 ~
b10 +
b10 @
b10 }
b10 ""
b10 5"
b110 7"
1#
#86000
0#
#87000
b100000000000000 F
b100000000000000 d
b100000000000000 #"
b11111001 M
b11111001 e
b11111001 ~
b100000000000000 C
b100000000000000 Y
b100000000000000 !"
b11111001 P
b11111001 W
b11111001 |
b100000000000000 ,
b100000000000000 7
b100000000000000 )"
b100000000000000 G
b100000000000000 Z
b100000000000000 g
b111100000000000000100000000000 3
b111100000000000000100000000000 ?
b11111001 J
b11111001 X
b11111001 f
b0 +
b0 @
b0 }
b0 ""
b0 5"
b111 7"
1#
#88000
0#
#89000
b101 7"
1#
#90000
0#
#91000
b1000000000000000 F
b1000000000000000 d
b1000000000000000 #"
b11111000 M
b11111000 e
b11111000 ~
b10 +
b10 @
b10 }
b10 ""
b10 5"
b110 7"
1#
#92000
0#
#93000
b1000000000000000 C
b1000000000000000 Y
b1000000000000000 !"
b11111000 P
b11111000 W
b11111000 |
b0 +
b0 @
b0 }
b0 ""
b0 5"
b1000000000000000 ,
b1000000000000000 7
b1000000000000000 )"
b1000000000000000 G
b1000000000000000 Z
b1000000000000000 g
b111011100000000001000000000000 3
b111011100000000001000000000000 ?
b11111000 J
b11111000 X
b11111000 f
b111 7"
1#
#94000
0#
#95000
b101 7"
1#
#96000
0#
#97000
b10000000000000000 F
b10000000000000000 d
b10000000000000000 #"
b11110111 M
b11110111 e
b11110111 ~
b10 +
b10 @
b10 }
b10 ""
b10 5"
b110 7"
1#
#98000
0#
#99000
b10000000000000000 F
b10000000000000000 d
b10000000000000000 #"
b11110111 M
b11110111 e
b11110111 ~
b10000000000000000 C
b10000000000000000 Y
b10000000000000000 !"
b11110111 P
b11110111 W
b11110111 |
b10000000000000000 ,
b10000000000000000 7
b10000000000000000 )"
b10000000000000000 G
b10000000000000000 Z
b10000000000000000 g
b111011000000000010000000000000 3
b111011000000000010000000000000 ?
b11110111 J
b11110111 X
b11110111 f
b0 +
b0 @
b0 }
b0 ""
b0 5"
b111 7"
1#
#100000
0#
#101000
b101 7"
1#
#102000
0#
#103000
b100000000000000000 F
b100000000000000000 d
b100000000000000000 #"
b11110110 M
b11110110 e
b11110110 ~
b10 +
b10 @
b10 }
b10 ""
b10 5"
b110 7"
1#
#104000
0#
#105000
b100000000000000000 C
b100000000000000000 Y
b100000000000000000 !"
b11110110 P
b11110110 W
b11110110 |
b0 +
b0 @
b0 }
b0 ""
b0 5"
b100000000000000000 ,
b100000000000000000 7
b100000000000000000 )"
b100000000000000000 G
b100000000000000000 Z
b100000000000000000 g
b111010100000000100000000000000 3
b111010100000000100000000000000 ?
b11110110 J
b11110110 X
b11110110 f
b111 7"
1#
#106000
0#
#107000
b101 7"
1#
#108000
0#
#109000
b1000000000000000000 F
b1000000000000000000 d
b1000000000000000000 #"
b11110101 M
b11110101 e
b11110101 ~
b10 +
b10 @
b10 }
b10 ""
b10 5"
b110 7"
1#
#110000
0#
#111000
b1000000000000000000 F
b1000000000000000000 d
b1000000000000000000 #"
b11110101 M
b11110101 e
b11110101 ~
b1000000000000000000 C
b1000000000000000000 Y
b1000000000000000000 !"
b11110101 P
b11110101 W
b11110101 |
b1000000000000000000 ,
b1000000000000000000 7
b1000000000000000000 )"
b1000000000000000000 G
b1000000000000000000 Z
b1000000000000000000 g
b111010000000001000000000000000 3
b111010000000001000000000000000 ?
b11110101 J
b11110101 X
b11110101 f
b0 +
b0 @
b0 }
b0 ""
b0 5"
b111 7"
1#
#112000
0#
#113000
b101 7"
1#
#114000
0#
#115000
b10000000000000000000 F
b10000000000000000000 d
b10000000000000000000 #"
b11110100 M
b11110100 e
b11110100 ~
b10 +
b10 @
b10 }
b10 ""
b10 5"
b110 7"
1#
#116000
0#
#117000
b10000000000000000000 C
b10000000000000000000 Y
b10000000000000000000 !"
b11110100 P
b11110100 W
b11110100 |
b0 +
b0 @
b0 }
b0 ""
b0 5"
b10000000000000000000 ,
b10000000000000000000 7
b10000000000000000000 )"
b10000000000000000000 G
b10000000000000000000 Z
b10000000000000000000 g
b111001100000010000000000000000 3
b111001100000010000000000000000 ?
b11110100 J
b11110100 X
b11110100 f
b111 7"
1#
#118000
0#
#119000
b101 7"
1#
#120000
0#
#121000
b100000000000000000000 F
b100000000000000000000 d
b100000000000000000000 #"
b11110011 M
b11110011 e
b11110011 ~
b10 +
b10 @
b10 }
b10 ""
b10 5"
b110 7"
1#
#122000
0#
#123000
b100000000000000000000 F
b100000000000000000000 d
b100000000000000000000 #"
b11110011 M
b11110011 e
b11110011 ~
b100000000000000000000 C
b100000000000000000000 Y
b100000000000000000000 !"
b11110011 P
b11110011 W
b11110011 |
b100000000000000000000 ,
b100000000000000000000 7
b100000000000000000000 )"
b100000000000000000000 G
b100000000000000000000 Z
b100000000000000000000 g
b111001000000100000000000000000 3
b111001000000100000000000000000 ?
b11110011 J
b11110011 X
b11110011 f
b0 +
b0 @
b0 }
b0 ""
b0 5"
b111 7"
1#
#124000
0#
#125000
b101 7"
1#
#126000
0#
#127000
b1000000000000000000000 F
b1000000000000000000000 d
b1000000000000000000000 #"
b11110010 M
b11110010 e
b11110010 ~
b10 +
b10 @
b10 }
b10 ""
b10 5"
b110 7"
1#
#128000
0#
#129000
b1000000000000000000000 C
b1000000000000000000000 Y
b1000000000000000000000 !"
b11110010 P
b11110010 W
b11110010 |
b0 +
b0 @
b0 }
b0 ""
b0 5"
b1000000000000000000000 ,
b1000000000000000000000 7
b1000000000000000000000 )"
b1000000000000000000000 G
b1000000000000000000000 Z
b1000000000000000000000 g
b111000100001000000000000000000 3
b111000100001000000000000000000 ?
b11110010 J
b11110010 X
b11110010 f
b111 7"
1#
#130000
0#
#131000
b101 7"
1#
#132000
0#
#133000
b10000000000000000000000 F
b10000000000000000000000 d
b10000000000000000000000 #"
b11110001 M
b11110001 e
b11110001 ~
b10 +
b10 @
b10 }
b10 ""
b10 5"
b110 7"
1#
#134000
0#
#135000
b10000000000000000000000 F
b10000000000000000000000 d
b10000000000000000000000 #"
b11110001 M
b11110001 e
b11110001 ~
b10000000000000000000000 C
b10000000000000000000000 Y
b10000000000000000000000 !"
b11110001 P
b11110001 W
b11110001 |
b10000000000000000000000 ,
b10000000000000000000000 7
b10000000000000000000000 )"
b10000000000000000000000 G
b10000000000000000000000 Z
b10000000000000000000000 g
b111000000010000000000000000000 3
b111000000010000000000000000000 ?
b11110001 J
b11110001 X
b11110001 f
b0 +
b0 @
b0 }
b0 ""
b0 5"
b111 7"
1#
#136000
0#
#137000
b101 7"
1#
#138000
0#
#139000
b100000000000000000000000 F
b100000000000000000000000 d
b100000000000000000000000 #"
b11110000 M
b11110000 e
b11110000 ~
b10 +
b10 @
b10 }
b10 ""
b10 5"
b110 7"
1#
#140000
0#
#141000
b100000000000000000000000 C
b100000000000000000000000 Y
b100000000000000000000000 !"
b11110000 P
b11110000 W
b11110000 |
b0 +
b0 @
b0 }
b0 ""
b0 5"
b100000000000000000000000 ,
b100000000000000000000000 7
b100000000000000000000000 )"
b100000000000000000000000 G
b100000000000000000000000 Z
b100000000000000000000000 g
b110111100100000000000000000000 3
b110111100100000000000000000000 ?
b11110000 J
b11110000 X
b11110000 f
b111 7"
1#
#142000
0#
#143000
b101 7"
1#
#144000
0#
#145000
b1000000000000000000000000 F
b1000000000000000000000000 d
b1000000000000000000000000 #"
b11101111 M
b11101111 e
b11101111 ~
b10 +
b10 @
b10 }
b10 ""
b10 5"
b110 7"
1#
#146000
0#
#147000
b1000000000000000000000000 F
b1000000000000000000000000 d
b1000000000000000000000000 #"
b11101111 M
b11101111 e
b11101111 ~
b1000000000000000000000000 C
b1000000000000000000000000 Y
b1000000000000000000000000 !"
b11101111 P
b11101111 W
b11101111 |
b1000000000000000000000000 ,
b1000000000000000000000000 7
b1000000000000000000000000 )"
b1000000000000000000000000 G
b1000000000000000000000000 Z
b1000000000000000000000000 g
b110111001000000000000000000000 3
b110111001000000000000000000000 ?
b11101111 J
b11101111 X
b11101111 f
b0 +
b0 @
b0 }
b0 ""
b0 5"
b111 7"
1#
#148000
0#
#149000
b101 7"
1#
#150000
0#
#151000
b10000000000000000000000000 F
b10000000000000000000000000 d
b10000000000000000000000000 #"
b11101110 M
b11101110 e
b11101110 ~
b10 +
b10 @
b10 }
b10 ""
b10 5"
b110 7"
1#
#152000
0#
#153000
b10000000000000000000000000 C
b10000000000000000000000000 Y
b10000000000000000000000000 !"
b11101110 P
b11101110 W
b11101110 |
b0 +
b0 @
b0 }
b0 ""
b0 5"
b10000000000000000000000000 ,
b10000000000000000000000000 7
b10000000000000000000000000 )"
b10000000000000000000000000 G
b10000000000000000000000000 Z
b10000000000000000000000000 g
b110110110000000000000000000000 3
b110110110000000000000000000000 ?
b11101110 J
b11101110 X
b11101110 f
b111 7"
1#
#154000
0#
#155000
b101 7"
1#
#156000
0#
#157000
b100000000000000000000000000 F
b100000000000000000000000000 d
b100000000000000000000000000 #"
b11101101 M
b11101101 e
b11101101 ~
b10 +
b10 @
b10 }
b10 ""
b10 5"
b110 7"
1#
#158000
0#
#159000
b100000000000000000000000000 F
b100000000000000000000000000 d
b100000000000000000000000000 #"
b11101101 M
b11101101 e
b11101101 ~
b100000000000000000000000000 C
b100000000000000000000000000 Y
b100000000000000000000000000 !"
b11101101 P
b11101101 W
b11101101 |
b100000000000000000000000000 ,
b100000000000000000000000000 7
b100000000000000000000000000 )"
b100000000000000000000000000 G
b100000000000000000000000000 Z
b100000000000000000000000000 g
b110110000000000000000000000000 3
b110110000000000000000000000000 ?
b11101101 J
b11101101 X
b11101101 f
b0 +
b0 @
b0 }
b0 ""
b0 5"
b111 7"
1#
#160000
0#
#161000
b1000 7"
1#
#162000
0#
#163000
14"
1$
1*
1#
