floating_point/_testbenches/vvp/float_addition.vcd
$date
	Mon Jun 26 04:33:22 2023
$end
$version
	Icarus Verilog
$end
$timescale
	100ps
$end
$scope module float_addition_tb $end
$scope module float_addition_tb $end
$var wire 32 ! A [31:0] $end
$var wire 32 " B [31:0] $end
$var wire 1 # clk $end
$var wire 1 $ op $end
$var wire 1 % reset $end
$var wire 1 & sum_mult_selector $end
$var wire 8 ' shift_A [7:0] $end
$var wire 32 ( result [31:0] $end
$var wire 1 ) normalized $end
$var wire 2 * normalize_selector [1:0] $end
$var wire 29 + fract_UC [28:0] $end
$var wire 1 , exp_fract_selector $end
$var wire 8 - exp_difference [7:0] $end
$var wire 1 . done_ULA $end
$var wire 1 / continue_selector $end
$var wire 29 0 big_ULA_out [28:0] $end
$var wire 1 1 ULA_START $end
$scope module FD $end
$var wire 32 2 A [31:0] $end
$var wire 32 3 B [31:0] $end
$var wire 1 # clk $end
$var wire 8 4 exp_difference [7:0] $end
$var wire 29 5 fract_UC [28:0] $end
$var wire 1 % reset $end
$var wire 29 6 ula_out [28:0] $end
$var wire 1 & sum_mult_selector $end
$var wire 8 7 small_ula_out [7:0] $end
$var wire 1 8 sign_c $end
$var wire 8 9 shift_A_modulo [7:0] $end
$var wire 8 : shift_A [7:0] $end
$var wire 1 ; sB $end
$var wire 1 < sA $end
$var wire 32 = result [31:0] $end
$var wire 1 ) normalized $end
$var wire 2 > normalize_selector [1:0] $end
$var wire 23 ? lower_fract [22:0] $end
$var wire 29 @ lower_ULAIN [28:0] $end
$var wire 29 A left_right_in [28:0] $end
$var wire 23 B higher_fract [22:0] $end
$var wire 29 C higher_ULAIN [28:0] $end
$var wire 29 D fract_shifted [28:0] $end
$var wire 29 E fract_result [28:0] $end
$var wire 23 F fractB [22:0] $end
$var wire 23 G fractA [22:0] $end
$var wire 8 H exp_result [7:0] $end
$var wire 8 I exp_in_mux_increment_decrement [7:0] $end
$var wire 8 J exp_higher [7:0] $end
$var wire 1 , exp_fract_selector $end
$var wire 8 K exp_adjusted [7:0] $end
$var wire 8 L expB [7:0] $end
$var wire 8 M expA [7:0] $end
$var wire 8 N exp [7:0] $end
$var wire 1 . done_ULA $end
$var wire 1 / continue_selector $end
$var wire 29 O ULA_fract_OUT [28:0] $end
$var wire 1 1 ULA_START $end
$scope module MUX_EXP_HIGHER $end
$var wire 8 P a [7:0] $end
$var wire 8 Q b [7:0] $end
$var wire 1 R select $end
$var wire 8 S result [7:0] $end
$upscope $end
$scope module MUX_INCREMENT_DECREMENT $end
$var wire 8 T a [7:0] $end
$var wire 1 / select $end
$var wire 8 U result [7:0] $end
$var wire 8 V b [7:0] $end
$upscope $end
$scope module MUX_LEFT_RIGHT $end
$var wire 1 / select $end
$var wire 29 W result [28:0] $end
$var wire 29 X b [28:0] $end
$var wire 29 Y a [28:0] $end
$upscope $end
$scope module MUX_ULAIN_HIGHER $end
$var wire 23 Z a [22:0] $end
$var wire 23 [ b [22:0] $end
$var wire 1 , select $end
$var wire 23 \ result [22:0] $end
$upscope $end
$scope module MUX_ULAIN_LOWER $end
$var wire 23 ] a [22:0] $end
$var wire 23 ^ b [22:0] $end
$var wire 1 _ select $end
$var wire 23 ` result [22:0] $end
$upscope $end
$scope module arredonda $end
$var wire 1 # clk $end
$var wire 3 a seguranca [2:0] $end
$var wire 1 ) normalized $end
$var wire 29 b fract_in [28:0] $end
$var wire 8 c exp_in [7:0] $end
$var reg 8 d exp_out [7:0] $end
$var reg 29 e fract_out [28:0] $end
$upscope $end
$scope module exp_ULA $end
$var wire 8 f a [7:0] $end
$var wire 8 g b [7:0] $end
$var wire 1 & sum_mult_selector $end
$var wire 8 h exp_difference [7:0] $end
$upscope $end
$scope module fract_ULA $end
$var wire 29 i b [28:0] $end
$var wire 1 # clk $end
$var wire 23 j fractA [22:0] $end
$var wire 23 k fractB [22:0] $end
$var wire 1 % reset $end
$var wire 1 < sign_a $end
$var wire 1 ; sign_b $end
$var wire 1 1 start $end
$var wire 1 & op $end
$var wire 48 l multiplicando [47:0] $end
$var wire 24 m multiplicador [23:0] $end
$var wire 29 n c [28:0] $end
$var wire 29 o a [28:0] $end
$var parameter 32 p DONE $end
$var parameter 32 q IDLE $end
$var parameter 32 r MULT $end
$var parameter 32 s SOMA $end
$var parameter 32 t START $end
$var parameter 32 u TRATAR_MULT $end
$var reg 5 v counter [4:0] $end
$var reg 1 . done $end
$var reg 48 w mult_result [47:0] $end
$var reg 1 8 sign_c $end
$var reg 29 x soma_result [28:0] $end
$var reg 3 y states [2:0] $end
$upscope $end
$scope module incremento_decremento $end
$var wire 8 z exp_in [7:0] $end
$var wire 2 { normalize_selector [1:0] $end
$var wire 8 | exp_out [7:0] $end
$upscope $end
$scope module left_right $end
$var wire 29 } A [28:0] $end
$var wire 2 ~ normalize_selector [1:0] $end
$var wire 29 !" A_shifted [28:0] $end
$upscope $end
$scope module shift_right $end
$var wire 29 "" A [28:0] $end
$var wire 8 #" shift_num [7:0] $end
$var wire 1 & sum_mult_selector $end
$var wire 29 $" A_shifted [28:0] $end
$upscope $end
$upscope $end
$scope module UC $end
$var wire 29 %" big_ULA_out [28:0] $end
$var wire 1 # clk $end
$var wire 1 . done_ULA $end
$var wire 8 &" exp_difference [7:0] $end
$var wire 29 '" fract_UC [28:0] $end
$var wire 1 $ op $end
$var wire 1 % reset $end
$var parameter 32 (" arredonda $end
$var parameter 32 )" bigULA $end
$var parameter 32 *" done $end
$var parameter 32 +" init $end
$var parameter 32 ," normalizing $end
$var parameter 32 -" selectRepeatedMux $end
$var parameter 32 ." selectULAIN $end
$var parameter 32 /" shiftaULAIN $end
$var parameter 32 0" smallULA $end
$var reg 1 1 ULA_START $end
$var reg 1 / continue_selector $end
$var reg 1 , exp_fract_selector $end
$var reg 2 1" normalize_selector [1:0] $end
$var reg 1 ) normalized $end
$var reg 8 2" shift_A [7:0] $end
$var reg 4 3" state [3:0] $end
$var reg 1 & sum_mult_selector $end
$upscope $end
$upscope $end
$upscope $end
$enddefinitions $end
$comment Show the parameter values. $end
$dumpall
b1 0"
b11 /"
b10 ."
b101 -"
b110 ,"
b0 +"
b1000 *"
b100 )"
b111 ("
b110 u
b1 t
b10 s
b11 r
b0 q
b100 p
$end
#0
$dumpvars
bx 3"
bx 2"
bx 1"
bx '"
b0x0 &"
bx %"
bx $"
bx #"
b10000000000000000000x111000 ""
bx !"
bx ~
bx }
bx |
bx {
bx z
bx y
bx x
bx w
bx v
bx o
bx n
bx m
b0xxxxxxxxxxxxxxxxxxxxxxxx l
b111 k
b1111 j
b10000000000000000000x111000 i
b0x0 h
b1 g
b1 f
bx e
bx d
bx c
bx b
bx a
b0x111 `
x_
b111 ^
b1111 ]
b0x111 \
b111 [
b1111 Z
bx Y
bx X
bx W
bx V
bx U
b0xx T
b1 S
xR
b1 Q
b1 P
bx O
bx N
b1 M
b1 L
bx K
b1 J
b0xx I
bx H
b1111 G
b111 F
bx E
bx D
b10000000000000000000x111000 C
b0x111 B
bx A
bx @
b0x111 ?
bx >
bx =
1<
1;
bx :
bx 9
x8
b0x0 7
bx 6
bx 5
b0x0 4
b11000000000000000000000000000111 3
b11000000000000000000000000001111 2
x1
bx 0
x/
x.
b0x0 -
x,
bx +
bx *
x)
bx (
bx '
x&
0%
0$
0#
b11000000000000000000000000000111 "
b11000000000000000000000000001111 !
$end
#1000
bx000 +
bx000 5
bx000 '"
bx000 E
bx000 X
bx000 e
b0 y
b0 3"
1#
1%
#2000
0#
0%
#3000
b100000000000000000000111000 ""
b111 ?
b111 `
b1 K
b1 c
b1 |
b100000000000000000001111000 C
b100000000000000000001111000 i
b1111 B
b1111 \
1R
1_
b0 -
b0 4
b0 &"
b0 7
b0 h
b1 I
b1 T
b1 N
b1 U
b1 z
0.
0)
0,
b0 *
b0 >
b0 {
b0 ~
b0 1"
0&
0/
01
b1 3"
1#
#4000
0#
#5000
bx +
bx 5
bx '"
bx E
bx X
bx e
bx10000000xxxxxxxxxxxxxxxxxxxxxxx (
bx10000000xxxxxxxxxxxxxxxxxxxxxxx =
b1 H
b1 V
b1 d
b10 3"
1#
#6000
0#
#7000
b11 3"
1#
#8000
0#
#9000
b100000000000000000000111 m
b100000000000000000001111 l
b100000000000000000000111000 @
b100000000000000000000111000 o
b100000000000000000000111000 $"
b0 9
b0 #"
b0 '
b0 :
b0 2"
b100 3"
1#
#10000
0#
#11000
11
1#
#12000
0#
#13000
b1 y
1#
#14000
0#
#15000
b0 w
b0 v
b10 y
1#
#16000
0#
#17000
b0 a
b1000000000000000000010110000 D
b1000000000000000000010110000 b
b1000000000000000000010110000 !"
b1000000000000000000010110000 A
b1000000000000000000010110000 W
b1000000000000000000010110000 }
b1000000000000000000010110000 0
b1000000000000000000010110000 6
b1000000000000000000010110000 %"
b1000000000000000000010110000 O
b1000000000000000000010110000 Y
b1000000000000000000010110000 n
b100 y
b110000000xxxxxxxxxxxxxxxxxxxxxxx (
b110000000xxxxxxxxxxxxxxxxxxxxxxx =
18
b1000000000000000000010110000 x
1#
#18000
0#
#19000
b11000000000000000000000000010110 (
b11000000000000000000000000010110 =
b1000000000000000000010110000 +
b1000000000000000000010110000 5
b1000000000000000000010110000 '"
b1000000000000000000010110000 E
b1000000000000000000010110000 X
b1000000000000000000010110000 e
1.
1#
#20000
0#
#21000
b101 3"
1#
#22000
0#
#23000
b100000000000000000001011000 D
b100000000000000000001011000 b
b100000000000000000001011000 !"
b10 K
b10 c
b10 |
b1 *
b1 >
b1 {
b1 ~
b1 1"
b110 3"
1#
#24000
0#
#25000
b100000000000000000001011000 A
b100000000000000000001011000 W
b100000000000000000001011000 }
b10 N
b10 U
b10 z
b100000000000000000001011000 D
b100000000000000000001011000 b
b100000000000000000001011000 !"
b10 K
b10 c
b10 |
1/
b0 *
b0 >
b0 {
b0 ~
b0 1"
b100000000000000000001011000 +
b100000000000000000001011000 5
b100000000000000000001011000 '"
b100000000000000000001011000 E
b100000000000000000001011000 X
b100000000000000000001011000 e
b11000000100000000000000000001011 (
b11000000100000000000000000001011 =
b10 H
b10 V
b10 d
b111 3"
1#
#26000
0#
#27000
b1000 3"
1#
#28000
0#
#29000
1)
1#
#30000
0#
#31000
b0 y
b0 3"
0<
1#
b1000000000000000000000000001111 !
b1000000000000000000000000001111 2
1%
#32000
0#
0%
#33000
b1000000000000000000010110000 D
b1000000000000000000010110000 b
b1000000000000000000010110000 !"
b1 K
b1 c
b1 |
b1000000000000000000010110000 A
b1000000000000000000010110000 W
b1000000000000000000010110000 }
b1 N
b1 U
b1 z
0)
0/
01
b1 y
0.
b1 3"
1#
#34000
0#
#35000
b1000000000000000000010110000 +
b1000000000000000000010110000 5
b1000000000000000000010110000 '"
b1000000000000000000010110000 E
b1000000000000000000010110000 X
b1000000000000000000010110000 e
b11000000000000000000000000010110 (
b11000000000000000000000000010110 =
b1 H
b1 V
b1 d
b10 y
b10 3"
1#
#36000
0#
#37000
b1000000 D
b1000000 b
b1000000 !"
b1000000 A
b1000000 W
b1000000 }
b1000000 0
b1000000 6
b1000000 %"
b1000000 O
b1000000 Y
b1000000 n
b100 y
b1000000000000000000000000010110 (
b1000000000000000000000000010110 =
08
b1000000 x
b11 3"
1#
#38000
0#
#39000
b1000000000000000000000000001000 (
b1000000000000000000000000001000 =
b1000000 +
b1000000 5
b1000000 '"
b1000000 E
b1000000 X
b1000000 e
1.
b100 3"
1#
#40000
0#
#41000
11
b101 3"
1#
#42000
0#
#43000
b10000000 D
b10000000 b
b10000000 !"
b0 K
b0 c
b0 |
b10 *
b10 >
b10 {
b10 ~
b10 1"
b110 3"
1#
#44000
0#
#45000
b10000000 D
b10000000 b
b10000000 !"
b0 K
b0 c
b0 |
b10000000 A
b10000000 W
b10000000 }
b0 N
b0 U
b0 z
1/
b0 *
b0 >
b0 {
b0 ~
b0 1"
b10000000 +
b10000000 5
b10000000 '"
b10000000 E
b10000000 X
b10000000 e
b111111100000000000000000010000 (
b111111100000000000000000010000 =
b0 H
b0 V
b0 d
b111 3"
1#
#46000
0#
#47000
b101 3"
1#
#48000
0#
#49000
b100000000 D
b100000000 b
b100000000 !"
b11111111 K
b11111111 c
b11111111 |
b10 *
b10 >
b10 {
b10 ~
b10 1"
b110 3"
1#
#50000
0#
#51000
b100000000 D
b100000000 b
b100000000 !"
b11111111 K
b11111111 c
b11111111 |
b100000000 A
b100000000 W
b100000000 }
b11111111 N
b11111111 U
b11111111 z
b100000000 +
b100000000 5
b100000000 '"
b100000000 E
b100000000 X
b100000000 e
b111111000000000000000000100000 (
b111111000000000000000000100000 =
b11111111 H
b11111111 V
b11111111 d
b0 *
b0 >
b0 {
b0 ~
b0 1"
b111 3"
1#
#52000
0#
#53000
b101 3"
1#
#54000
0#
#55000
b1000000000 D
b1000000000 b
b1000000000 !"
b11111110 K
b11111110 c
b11111110 |
b10 *
b10 >
b10 {
b10 ~
b10 1"
b110 3"
1#
#56000
0#
#57000
b1000000000 A
b1000000000 W
b1000000000 }
b11111110 N
b11111110 U
b11111110 z
b0 *
b0 >
b0 {
b0 ~
b0 1"
b1000000000 +
b1000000000 5
b1000000000 '"
b1000000000 E
b1000000000 X
b1000000000 e
b111110100000000000000001000000 (
b111110100000000000000001000000 =
b11111110 H
b11111110 V
b11111110 d
b111 3"
1#
#58000
0#
#59000
b101 3"
1#
#60000
0#
#61000
b10000000000 D
b10000000000 b
b10000000000 !"
b11111101 K
b11111101 c
b11111101 |
b10 *
b10 >
b10 {
b10 ~
b10 1"
b110 3"
1#
#62000
0#
#63000
b10000000000 D
b10000000000 b
b10000000000 !"
b11111101 K
b11111101 c
b11111101 |
b10000000000 A
b10000000000 W
b10000000000 }
b11111101 N
b11111101 U
b11111101 z
b10000000000 +
b10000000000 5
b10000000000 '"
b10000000000 E
b10000000000 X
b10000000000 e
b111110000000000000000010000000 (
b111110000000000000000010000000 =
b11111101 H
b11111101 V
b11111101 d
b0 *
b0 >
b0 {
b0 ~
b0 1"
b111 3"
1#
#64000
0#
#65000
b101 3"
1#
#66000
0#
#67000
b100000000000 D
b100000000000 b
b100000000000 !"
b11111100 K
b11111100 c
b11111100 |
b10 *
b10 >
b10 {
b10 ~
b10 1"
b110 3"
1#
#68000
0#
#69000
b100000000000 A
b100000000000 W
b100000000000 }
b11111100 N
b11111100 U
b11111100 z
b0 *
b0 >
b0 {
b0 ~
b0 1"
b100000000000 +
b100000000000 5
b100000000000 '"
b100000000000 E
b100000000000 X
b100000000000 e
b111101100000000000000100000000 (
b111101100000000000000100000000 =
b11111100 H
b11111100 V
b11111100 d
b111 3"
1#
#70000
0#
#71000
b101 3"
1#
#72000
0#
#73000
b1000000000000 D
b1000000000000 b
b1000000000000 !"
b11111011 K
b11111011 c
b11111011 |
b10 *
b10 >
b10 {
b10 ~
b10 1"
b110 3"
1#
#74000
0#
#75000
b1000000000000 D
b1000000000000 b
b1000000000000 !"
b11111011 K
b11111011 c
b11111011 |
b1000000000000 A
b1000000000000 W
b1000000000000 }
b11111011 N
b11111011 U
b11111011 z
b1000000000000 +
b1000000000000 5
b1000000000000 '"
b1000000000000 E
b1000000000000 X
b1000000000000 e
b111101000000000000001000000000 (
b111101000000000000001000000000 =
b11111011 H
b11111011 V
b11111011 d
b0 *
b0 >
b0 {
b0 ~
b0 1"
b111 3"
1#
#76000
0#
#77000
b101 3"
1#
#78000
0#
#79000
b10000000000000 D
b10000000000000 b
b10000000000000 !"
b11111010 K
b11111010 c
b11111010 |
b10 *
b10 >
b10 {
b10 ~
b10 1"
b110 3"
1#
#80000
0#
#81000
b10000000000000 A
b10000000000000 W
b10000000000000 }
b11111010 N
b11111010 U
b11111010 z
b0 *
b0 >
b0 {
b0 ~
b0 1"
b10000000000000 +
b10000000000000 5
b10000000000000 '"
b10000000000000 E
b10000000000000 X
b10000000000000 e
b111100100000000000010000000000 (
b111100100000000000010000000000 =
b11111010 H
b11111010 V
b11111010 d
b111 3"
1#
#82000
0#
#83000
b101 3"
1#
#84000
0#
#85000
b100000000000000 D
b100000000000000 b
b100000000000000 !"
b11111001 K
b11111001 c
b11111001 |
b10 *
b10 >
b10 {
b10 ~
b10 1"
b110 3"
1#
#86000
0#
#87000
b100000000000000 D
b100000000000000 b
b100000000000000 !"
b11111001 K
b11111001 c
b11111001 |
b100000000000000 A
b100000000000000 W
b100000000000000 }
b11111001 N
b11111001 U
b11111001 z
b100000000000000 +
b100000000000000 5
b100000000000000 '"
b100000000000000 E
b100000000000000 X
b100000000000000 e
b111100000000000000100000000000 (
b111100000000000000100000000000 =
b11111001 H
b11111001 V
b11111001 d
b0 *
b0 >
b0 {
b0 ~
b0 1"
b111 3"
1#
#88000
0#
#89000
b101 3"
1#
#90000
0#
#91000
b1000000000000000 D
b1000000000000000 b
b1000000000000000 !"
b11111000 K
b11111000 c
b11111000 |
b10 *
b10 >
b10 {
b10 ~
b10 1"
b110 3"
1#
#92000
0#
#93000
b1000000000000000 A
b1000000000000000 W
b1000000000000000 }
b11111000 N
b11111000 U
b11111000 z
b0 *
b0 >
b0 {
b0 ~
b0 1"
b1000000000000000 +
b1000000000000000 5
b1000000000000000 '"
b1000000000000000 E
b1000000000000000 X
b1000000000000000 e
b111011100000000001000000000000 (
b111011100000000001000000000000 =
b11111000 H
b11111000 V
b11111000 d
b111 3"
1#
#94000
0#
#95000
b101 3"
1#
#96000
0#
#97000
b10000000000000000 D
b10000000000000000 b
b10000000000000000 !"
b11110111 K
b11110111 c
b11110111 |
b10 *
b10 >
b10 {
b10 ~
b10 1"
b110 3"
1#
#98000
0#
#99000
b10000000000000000 D
b10000000000000000 b
b10000000000000000 !"
b11110111 K
b11110111 c
b11110111 |
b10000000000000000 A
b10000000000000000 W
b10000000000000000 }
b11110111 N
b11110111 U
b11110111 z
b10000000000000000 +
b10000000000000000 5
b10000000000000000 '"
b10000000000000000 E
b10000000000000000 X
b10000000000000000 e
b111011000000000010000000000000 (
b111011000000000010000000000000 =
b11110111 H
b11110111 V
b11110111 d
b0 *
b0 >
b0 {
b0 ~
b0 1"
b111 3"
1#
#100000
0#
#101000
b101 3"
1#
#102000
0#
#103000
b100000000000000000 D
b100000000000000000 b
b100000000000000000 !"
b11110110 K
b11110110 c
b11110110 |
b10 *
b10 >
b10 {
b10 ~
b10 1"
b110 3"
1#
#104000
0#
#105000
b100000000000000000 A
b100000000000000000 W
b100000000000000000 }
b11110110 N
b11110110 U
b11110110 z
b0 *
b0 >
b0 {
b0 ~
b0 1"
b100000000000000000 +
b100000000000000000 5
b100000000000000000 '"
b100000000000000000 E
b100000000000000000 X
b100000000000000000 e
b111010100000000100000000000000 (
b111010100000000100000000000000 =
b11110110 H
b11110110 V
b11110110 d
b111 3"
1#
#106000
0#
#107000
b101 3"
1#
#108000
0#
#109000
b1000000000000000000 D
b1000000000000000000 b
b1000000000000000000 !"
b11110101 K
b11110101 c
b11110101 |
b10 *
b10 >
b10 {
b10 ~
b10 1"
b110 3"
1#
#110000
0#
#111000
b1000000000000000000 D
b1000000000000000000 b
b1000000000000000000 !"
b11110101 K
b11110101 c
b11110101 |
b1000000000000000000 A
b1000000000000000000 W
b1000000000000000000 }
b11110101 N
b11110101 U
b11110101 z
b1000000000000000000 +
b1000000000000000000 5
b1000000000000000000 '"
b1000000000000000000 E
b1000000000000000000 X
b1000000000000000000 e
b111010000000001000000000000000 (
b111010000000001000000000000000 =
b11110101 H
b11110101 V
b11110101 d
b0 *
b0 >
b0 {
b0 ~
b0 1"
b111 3"
1#
#112000
0#
#113000
b101 3"
1#
#114000
0#
#115000
b10000000000000000000 D
b10000000000000000000 b
b10000000000000000000 !"
b11110100 K
b11110100 c
b11110100 |
b10 *
b10 >
b10 {
b10 ~
b10 1"
b110 3"
1#
#116000
0#
#117000
b10000000000000000000 A
b10000000000000000000 W
b10000000000000000000 }
b11110100 N
b11110100 U
b11110100 z
b0 *
b0 >
b0 {
b0 ~
b0 1"
b10000000000000000000 +
b10000000000000000000 5
b10000000000000000000 '"
b10000000000000000000 E
b10000000000000000000 X
b10000000000000000000 e
b111001100000010000000000000000 (
b111001100000010000000000000000 =
b11110100 H
b11110100 V
b11110100 d
b111 3"
1#
#118000
0#
#119000
b101 3"
1#
#120000
0#
#121000
b100000000000000000000 D
b100000000000000000000 b
b100000000000000000000 !"
b11110011 K
b11110011 c
b11110011 |
b10 *
b10 >
b10 {
b10 ~
b10 1"
b110 3"
1#
#122000
0#
#123000
b100000000000000000000 D
b100000000000000000000 b
b100000000000000000000 !"
b11110011 K
b11110011 c
b11110011 |
b100000000000000000000 A
b100000000000000000000 W
b100000000000000000000 }
b11110011 N
b11110011 U
b11110011 z
b100000000000000000000 +
b100000000000000000000 5
b100000000000000000000 '"
b100000000000000000000 E
b100000000000000000000 X
b100000000000000000000 e
b111001000000100000000000000000 (
b111001000000100000000000000000 =
b11110011 H
b11110011 V
b11110011 d
b0 *
b0 >
b0 {
b0 ~
b0 1"
b111 3"
1#
#124000
0#
#125000
b101 3"
1#
#126000
0#
#127000
b1000000000000000000000 D
b1000000000000000000000 b
b1000000000000000000000 !"
b11110010 K
b11110010 c
b11110010 |
b10 *
b10 >
b10 {
b10 ~
b10 1"
b110 3"
1#
#128000
0#
#129000
b1000000000000000000000 A
b1000000000000000000000 W
b1000000000000000000000 }
b11110010 N
b11110010 U
b11110010 z
b0 *
b0 >
b0 {
b0 ~
b0 1"
b1000000000000000000000 +
b1000000000000000000000 5
b1000000000000000000000 '"
b1000000000000000000000 E
b1000000000000000000000 X
b1000000000000000000000 e
b111000100001000000000000000000 (
b111000100001000000000000000000 =
b11110010 H
b11110010 V
b11110010 d
b111 3"
1#
#130000
0#
#131000
b101 3"
1#
#132000
0#
#133000
b10000000000000000000000 D
b10000000000000000000000 b
b10000000000000000000000 !"
b11110001 K
b11110001 c
b11110001 |
b10 *
b10 >
b10 {
b10 ~
b10 1"
b110 3"
1#
#134000
0#
#135000
b10000000000000000000000 D
b10000000000000000000000 b
b10000000000000000000000 !"
b11110001 K
b11110001 c
b11110001 |
b10000000000000000000000 A
b10000000000000000000000 W
b10000000000000000000000 }
b11110001 N
b11110001 U
b11110001 z
b10000000000000000000000 +
b10000000000000000000000 5
b10000000000000000000000 '"
b10000000000000000000000 E
b10000000000000000000000 X
b10000000000000000000000 e
b111000000010000000000000000000 (
b111000000010000000000000000000 =
b11110001 H
b11110001 V
b11110001 d
b0 *
b0 >
b0 {
b0 ~
b0 1"
b111 3"
1#
#136000
0#
#137000
b101 3"
1#
#138000
0#
#139000
b100000000000000000000000 D
b100000000000000000000000 b
b100000000000000000000000 !"
b11110000 K
b11110000 c
b11110000 |
b10 *
b10 >
b10 {
b10 ~
b10 1"
b110 3"
1#
#140000
0#
#141000
b100000000000000000000000 A
b100000000000000000000000 W
b100000000000000000000000 }
b11110000 N
b11110000 U
b11110000 z
b0 *
b0 >
b0 {
b0 ~
b0 1"
b100000000000000000000000 +
b100000000000000000000000 5
b100000000000000000000000 '"
b100000000000000000000000 E
b100000000000000000000000 X
b100000000000000000000000 e
b110111100100000000000000000000 (
b110111100100000000000000000000 =
b11110000 H
b11110000 V
b11110000 d
b111 3"
1#
#142000
0#
#143000
b101 3"
1#
#144000
0#
#145000
b1000000000000000000000000 D
b1000000000000000000000000 b
b1000000000000000000000000 !"
b11101111 K
b11101111 c
b11101111 |
b10 *
b10 >
b10 {
b10 ~
b10 1"
b110 3"
1#
#146000
0#
#147000
b1000000000000000000000000 D
b1000000000000000000000000 b
b1000000000000000000000000 !"
b11101111 K
b11101111 c
b11101111 |
b1000000000000000000000000 A
b1000000000000000000000000 W
b1000000000000000000000000 }
b11101111 N
b11101111 U
b11101111 z
b1000000000000000000000000 +
b1000000000000000000000000 5
b1000000000000000000000000 '"
b1000000000000000000000000 E
b1000000000000000000000000 X
b1000000000000000000000000 e
b110111001000000000000000000000 (
b110111001000000000000000000000 =
b11101111 H
b11101111 V
b11101111 d
b0 *
b0 >
b0 {
b0 ~
b0 1"
b111 3"
1#
#148000
0#
#149000
b101 3"
1#
#150000
0#
#151000
b10000000000000000000000000 D
b10000000000000000000000000 b
b10000000000000000000000000 !"
b11101110 K
b11101110 c
b11101110 |
b10 *
b10 >
b10 {
b10 ~
b10 1"
b110 3"
1#
#152000
0#
#153000
b10000000000000000000000000 A
b10000000000000000000000000 W
b10000000000000000000000000 }
b11101110 N
b11101110 U
b11101110 z
b0 *
b0 >
b0 {
b0 ~
b0 1"
b10000000000000000000000000 +
b10000000000000000000000000 5
b10000000000000000000000000 '"
b10000000000000000000000000 E
b10000000000000000000000000 X
b10000000000000000000000000 e
b110110110000000000000000000000 (
b110110110000000000000000000000 =
b11101110 H
b11101110 V
b11101110 d
b111 3"
1#
#154000
0#
#155000
b101 3"
1#
#156000
0#
#157000
b100000000000000000000000000 D
b100000000000000000000000000 b
b100000000000000000000000000 !"
b11101101 K
b11101101 c
b11101101 |
b10 *
b10 >
b10 {
b10 ~
b10 1"
b110 3"
1#
#158000
0#
#159000
b100000000000000000000000000 D
b100000000000000000000000000 b
b100000000000000000000000000 !"
b11101101 K
b11101101 c
b11101101 |
b100000000000000000000000000 A
b100000000000000000000000000 W
b100000000000000000000000000 }
b11101101 N
b11101101 U
b11101101 z
b100000000000000000000000000 +
b100000000000000000000000000 5
b100000000000000000000000000 '"
b100000000000000000000000000 E
b100000000000000000000000000 X
b100000000000000000000000000 e
b110110000000000000000000000000 (
b110110000000000000000000000000 =
b11101101 H
b11101101 V
b11101101 d
b0 *
b0 >
b0 {
b0 ~
b0 1"
b111 3"
1#
#160000
0#
#161000
b1000 3"
1#
#162000
0#
#163000
1)
1#
