floating_point/_testbenches/vvp/floating_point.vcd
$date
	Wed Jun 28 10:51:13 2023
$end
$version
	Icarus Verilog
$end
$timescale
	100ps
$end
$scope module floating_point_tb $end
$scope module floating_point_tb $end
$var wire 32 ! A [31:0] $end
$var wire 32 " B [31:0] $end
$var wire 1 # clk $end
$var wire 2 $ op [1:0] $end
$var wire 1 % reset $end
$var wire 1 & start $end
$var wire 1 ' sum_mult_selector $end
$var wire 8 ( shift_A [7:0] $end
$var wire 1 ) normalized $end
$var wire 2 * normalize_selector [1:0] $end
$var wire 1 + inicializa $end
$var wire 29 , fract_UC [28:0] $end
$var wire 1 - exp_fract_selector $end
$var wire 8 . exp_difference [7:0] $end
$var wire 1 / done_ULA $end
$var wire 1 0 done $end
$var wire 1 1 continue_selector $end
$var wire 29 2 big_ULA_out [28:0] $end
$var wire 1 3 ULA_START $end
$var wire 32 4 R [31:0] $end
$scope module FD $end
$var wire 32 5 A_in [31:0] $end
$var wire 32 6 B_in [31:0] $end
$var wire 1 # clk $end
$var wire 8 7 exp_difference [7:0] $end
$var wire 29 8 fract_UC [28:0] $end
$var wire 1 % reset $end
$var wire 29 9 ula_out [28:0] $end
$var wire 1 : sum_mult_selector $end
$var wire 8 ; small_ula_out [7:0] $end
$var wire 1 < sign_c $end
$var wire 8 = shift_A_modulo [7:0] $end
$var wire 8 > shift_A [7:0] $end
$var wire 1 ? sB $end
$var wire 1 @ sA $end
$var wire 32 A result [31:0] $end
$var wire 1 ' op $end
$var wire 1 ) normalized $end
$var wire 2 B normalize_selector [1:0] $end
$var wire 23 C lower_fract [22:0] $end
$var wire 29 D lower_ULAIN [28:0] $end
$var wire 29 E left_right_in [28:0] $end
$var wire 1 + inicializa $end
$var wire 23 F higher_fract [22:0] $end
$var wire 29 G higher_ULAIN [28:0] $end
$var wire 29 H fract_shifted [28:0] $end
$var wire 29 I fract_result [28:0] $end
$var wire 23 J fractB [22:0] $end
$var wire 23 K fractA [22:0] $end
$var wire 8 L exp_result [7:0] $end
$var wire 8 M exp_in_mux_increment_decrement [7:0] $end
$var wire 8 N exp_higher [7:0] $end
$var wire 1 - exp_fract_selector $end
$var wire 8 O exp_adjusted [7:0] $end
$var wire 8 P expB [7:0] $end
$var wire 8 Q expA [7:0] $end
$var wire 8 R exp [7:0] $end
$var wire 1 / done_ULA $end
$var wire 1 1 continue_selector $end
$var wire 29 S ULA_fract_OUT [28:0] $end
$var wire 1 3 ULA_START $end
$var wire 32 T B [31:0] $end
$var wire 32 U A [31:0] $end
$scope module MUX_EXP_HIGHER $end
$var wire 8 V a [7:0] $end
$var wire 8 W b [7:0] $end
$var wire 1 X select $end
$var wire 8 Y result [7:0] $end
$upscope $end
$scope module MUX_INCREMENT_DECREMENT $end
$var wire 8 Z a [7:0] $end
$var wire 1 1 select $end
$var wire 8 [ result [7:0] $end
$var wire 8 \ b [7:0] $end
$upscope $end
$scope module MUX_LEFT_RIGHT $end
$var wire 1 1 select $end
$var wire 29 ] result [28:0] $end
$var wire 29 ^ b [28:0] $end
$var wire 29 _ a [28:0] $end
$upscope $end
$scope module MUX_ULAIN_HIGHER $end
$var wire 23 ` a [22:0] $end
$var wire 23 a b [22:0] $end
$var wire 1 - select $end
$var wire 23 b result [22:0] $end
$upscope $end
$scope module MUX_ULAIN_LOWER $end
$var wire 23 c a [22:0] $end
$var wire 23 d b [22:0] $end
$var wire 1 e select $end
$var wire 23 f result [22:0] $end
$upscope $end
$scope module arredonda $end
$var wire 1 # clk $end
$var wire 3 g seguranca [2:0] $end
$var wire 1 ) normalized $end
$var wire 29 h fract_in [28:0] $end
$var wire 8 i exp_in [7:0] $end
$var reg 8 j exp_out [7:0] $end
$var reg 29 k fract_out [28:0] $end
$upscope $end
$scope module exp_ULA $end
$var wire 8 l a [7:0] $end
$var wire 8 m b [7:0] $end
$var wire 1 : sum_mult_selector $end
$var wire 8 n exp_difference [7:0] $end
$upscope $end
$scope module fract_ULA $end
$var wire 29 o b [28:0] $end
$var wire 1 # clk $end
$var wire 23 p fractA [22:0] $end
$var wire 23 q fractB [22:0] $end
$var wire 1 % reset $end
$var wire 1 @ sign_a $end
$var wire 1 ? sign_b $end
$var wire 1 3 start $end
$var wire 1 : op $end
$var wire 48 r multiplicando [47:0] $end
$var wire 24 s multiplicador [23:0] $end
$var wire 29 t c [28:0] $end
$var wire 29 u a [28:0] $end
$var parameter 32 v DONE $end
$var parameter 32 w IDLE $end
$var parameter 32 x MULT $end
$var parameter 32 y SOMA $end
$var parameter 32 z START $end
$var parameter 32 { TRATAR_MULT $end
$var reg 5 | counter [4:0] $end
$var reg 1 / done $end
$var reg 48 } mult_result [47:0] $end
$var reg 1 < sign_c $end
$var reg 29 ~ soma_result [28:0] $end
$var reg 3 !" states [2:0] $end
$upscope $end
$scope module incremento_decremento $end
$var wire 8 "" exp_in [7:0] $end
$var wire 2 #" normalize_selector [1:0] $end
$var wire 8 $" exp_out [7:0] $end
$upscope $end
$scope module left_right $end
$var wire 29 %" A [28:0] $end
$var wire 2 &" normalize_selector [1:0] $end
$var wire 29 '" A_shifted [28:0] $end
$upscope $end
$scope module regA $end
$var wire 1 # clk $end
$var wire 1 % reset $end
$var wire 32 (" x [31:0] $end
$var wire 1 + load $end
$var parameter 32 )" N $end
$var reg 32 *" x_out [31:0] $end
$upscope $end
$scope module regB $end
$var wire 1 # clk $end
$var wire 1 % reset $end
$var wire 32 +" x [31:0] $end
$var wire 1 + load $end
$var parameter 32 ," N $end
$var reg 32 -" x_out [31:0] $end
$upscope $end
$scope module regOP $end
$var wire 1 # clk $end
$var wire 1 % reset $end
$var wire 1 ' x $end
$var wire 1 + load $end
$var parameter 32 ." N $end
$var reg 1 : x_out $end
$upscope $end
$scope module shift_right $end
$var wire 29 /" A [28:0] $end
$var wire 8 0" shift_num [7:0] $end
$var wire 1 : sum_mult_selector $end
$var wire 29 1" A_shifted [28:0] $end
$upscope $end
$upscope $end
$scope module UC $end
$var wire 29 2" big_ULA_out [28:0] $end
$var wire 1 # clk $end
$var wire 1 / done_ULA $end
$var wire 8 3" exp_difference [7:0] $end
$var wire 29 4" fract_UC [28:0] $end
$var wire 2 5" op [1:0] $end
$var wire 1 % reset $end
$var wire 1 & start $end
$var parameter 32 6" DONE $end
$var parameter 32 7" IDLE $end
$var parameter 32 8" arredonda $end
$var parameter 32 9" bigULA $end
$var parameter 32 :" init $end
$var parameter 32 ;" normalizado $end
$var parameter 32 <" normalizing $end
$var parameter 32 =" selectRepeatedMux $end
$var parameter 32 >" selectULAIN $end
$var parameter 32 ?" shiftaULAIN $end
$var parameter 32 @" smallULA $end
$var reg 1 3 ULA_START $end
$var reg 1 1 continue_selector $end
$var reg 1 0 done $end
$var reg 1 - exp_fract_selector $end
$var reg 1 + inicializa $end
$var reg 2 A" normalize_selector [1:0] $end
$var reg 1 ) normalized $end
$var reg 8 B" shift_A [7:0] $end
$var reg 4 C" state [3:0] $end
$var reg 1 ' sum_mult_selector $end
$upscope $end
$upscope $end
$upscope $end
$enddefinitions $end
$comment Show the parameter values. $end
$dumpall
b1 @"
b11 ?"
b10 >"
b101 ="
b110 <"
b1001 ;"
b0 :"
b100 9"
b111 8"
b1010 7"
b1000 6"
b1 ."
b100000 ,"
b100000 )"
b110 {
b1 z
b10 y
b11 x
b0 w
b100 v
$end
#0
$dumpvars
bx C"
bx B"
bx A"
b0 5"
bx 4"
bx 3"
bx 2"
bx 1"
bx 0"
b1xxxxxxxxxxxxxxxxxxxxxxx000 /"
bx -"
b11000000000000000000000000000111 +"
bx *"
b11000000000000000000000000001111 ("
bx '"
bx &"
bx %"
bx $"
bx #"
bx ""
bx !"
bx ~
bx }
bx |
bx u
bx t
bx s
b0xxxxxxxxxxxxxxxxxxxxxxxx r
bx q
bx p
b1xxxxxxxxxxxxxxxxxxxxxxx000 o
bx n
bx m
bx l
bx k
bx j
bx i
bx h
bx g
bx f
xe
bx d
bx c
bx b
bx a
bx `
bx _
bx ^
bx ]
bx \
bx [
bx Z
bx Y
xX
bx W
bx V
bx U
bx T
bx S
bx R
bx Q
bx P
bx O
bx N
bx M
bx L
bx K
bx J
bx I
bx H
b1xxxxxxxxxxxxxxxxxxxxxxx000 G
bx F
bx E
bx D
bx C
bx B
bx A
x@
x?
bx >
bx =
x<
bx ;
x:
bx 9
bx 8
bx 7
b11000000000000000000000000000111 6
b11000000000000000000000000001111 5
bx 4
x3
bx 2
x1
x0
x/
bx .
x-
bx ,
x+
bx *
x)
bx (
x'
x&
0%
b0 $
0#
b11000000000000000000000000000111 "
b11000000000000000000000000001111 !
$end
#1000
bx00000xx M
bx00000xx Z
b0x0 .
b0x0 7
b0x0 3"
b0x0 ;
b0x0 n
b100000000000000000000000000 G
b100000000000000000000000000 o
b0 F
b0 b
b100000000000000000000000000 /"
b0 C
b0 f
b10000001 N
b10000001 Y
b0 K
b0 `
b0 c
b0 p
b10000001 Q
b10000001 V
b10000001 l
0@
b0 J
b0 a
b0 d
b0 q
b10000001 P
b10000001 W
b10000001 m
0?
b0 U
b0 *"
b0 T
b0 -"
bx000 ,
bx000 8
bx000 4"
bx000 I
bx000 ^
bx000 k
b0 !"
b1010 C"
1#
1&
1%
#2000
b0 C"
0#
0%
#3000
bx00000xx O
bx00000xx i
bx00000xx $"
1X
1e
bx00000xx R
bx00000xx [
bx00000xx ""
0/
00
0)
0-
b0 *
b0 B
b0 #"
b0 &"
b0 A"
0'
01
03
1+
b1 C"
1#
#4000
b10000001 O
b10000001 i
b10000001 $"
b10000001 R
b10000001 [
b10000001 ""
b0 .
b0 7
b0 3"
b0 ;
b0 n
b10000001 M
b10000001 Z
0:
0#
#5000
b1 O
b1 i
b1 $"
b1 R
b1 [
b1 ""
b1 M
b1 Z
b100000000000000000001111000 G
b100000000000000000001111000 o
b1111 F
b1111 b
b100000000000000000000111000 /"
b111 C
b111 f
b1 N
b1 Y
b1111 K
b1111 `
b1111 c
b1111 p
b1 Q
b1 V
b1 l
1@
b111 J
b111 a
b111 d
b111 q
b1 P
b1 W
b1 m
1?
b11000000000000000000000000001111 U
b11000000000000000000000000001111 *"
b11000000000000000000000000000111 T
b11000000000000000000000000000111 -"
0+
bx ,
bx 8
bx 4"
bx I
bx ^
bx k
bx00000000xxxxxxxxxxxxxxxxxxxxxxx 4
bx00000000xxxxxxxxxxxxxxxxxxxxxxx A
b10000001 L
b10000001 \
b10000001 j
b10 C"
1#
#6000
0#
#7000
bx10000000xxxxxxxxxxxxxxxxxxxxxxx 4
bx10000000xxxxxxxxxxxxxxxxxxxxxxx A
b1 L
b1 \
b1 j
b11 C"
1#
#8000
0#
#9000
b100000000000000000000111 s
b100000000000000000001111 r
b100000000000000000000111000 D
b100000000000000000000111000 u
b100000000000000000000111000 1"
b0 =
b0 0"
b0 (
b0 >
b0 B"
b100 C"
1#
#10000
0#
#11000
13
1#
#12000
0#
#13000
b1 !"
1#
#14000
0#
#15000
b0 }
b0 |
b10 !"
1#
#16000
0#
#17000
b0 g
b1000000000000000000010110000 H
b1000000000000000000010110000 h
b1000000000000000000010110000 '"
b1000000000000000000010110000 E
b1000000000000000000010110000 ]
b1000000000000000000010110000 %"
b1000000000000000000010110000 2
b1000000000000000000010110000 9
b1000000000000000000010110000 2"
b1000000000000000000010110000 S
b1000000000000000000010110000 _
b1000000000000000000010110000 t
b100 !"
b110000000xxxxxxxxxxxxxxxxxxxxxxx 4
b110000000xxxxxxxxxxxxxxxxxxxxxxx A
1<
b1000000000000000000010110000 ~
1#
#18000
0#
#19000
b11000000000000000000000000010110 4
b11000000000000000000000000010110 A
b1000000000000000000010110000 ,
b1000000000000000000010110000 8
b1000000000000000000010110000 4"
b1000000000000000000010110000 I
b1000000000000000000010110000 ^
b1000000000000000000010110000 k
1/
1#
#20000
0#
#21000
b101 C"
1#
#22000
0#
#23000
b100000000000000000001011000 H
b100000000000000000001011000 h
b100000000000000000001011000 '"
b10 O
b10 i
b10 $"
b1 *
b1 B
b1 #"
b1 &"
b1 A"
b110 C"
1#
#24000
0#
#25000
b100000000000000000001011000 E
b100000000000000000001011000 ]
b100000000000000000001011000 %"
b10 R
b10 [
b10 ""
b100000000000000000001011000 H
b100000000000000000001011000 h
b100000000000000000001011000 '"
b10 O
b10 i
b10 $"
11
b0 *
b0 B
b0 #"
b0 &"
b0 A"
b100000000000000000001011000 ,
b100000000000000000001011000 8
b100000000000000000001011000 4"
b100000000000000000001011000 I
b100000000000000000001011000 ^
b100000000000000000001011000 k
b11000000100000000000000000001011 4
b11000000100000000000000000001011 A
b10 L
b10 \
b10 j
b111 C"
1#
#26000
0#
#27000
b1000 C"
1#
#28000
0#
#29000
10
1#
#30000
0#
#31000
b100000000000000000000000 r
b100000000000000000000000 s
b100000000000000000000000000 D
b100000000000000000000000000 u
b100000000000000000000000000 1"
b10000001 M
b10000001 Z
b100000000000000000000000000 G
b100000000000000000000000000 o
b0 F
b0 b
b100000000000000000000000000 /"
b0 C
b0 f
b10000001 N
b10000001 Y
b0 K
b0 `
b0 c
b0 p
b10000001 Q
b10000001 V
b10000001 l
0@
b0 J
b0 a
b0 d
b0 q
b10000001 P
b10000001 W
b10000001 m
0?
b0 U
b0 *"
b0 T
b0 -"
b0 !"
b1010 C"
1#
b1000000000000000000000000001111 !
b1000000000000000000000000001111 5
b1000000000000000000000000001111 ("
1%
#32000
b0 C"
0#
0%
#33000
b1000000000000000000010110000 H
b1000000000000000000010110000 h
b1000000000000000000010110000 '"
b10000001 O
b10000001 i
b10000001 $"
b1000000000000000000010110000 E
b1000000000000000000010110000 ]
b1000000000000000000010110000 %"
b10000001 R
b10000001 [
b10000001 ""
00
01
03
1+
b1 !"
0/
b1 C"
1#
#34000
0#
#35000
b1 O
b1 i
b1 $"
b100000000000000000000111 s
b100000000000000000001111 r
b1 R
b1 [
b1 ""
b100000000000000000000111000 D
b100000000000000000000111000 u
b100000000000000000000111000 1"
b1 M
b1 Z
b100000000000000000001111000 G
b100000000000000000001111000 o
b1111 F
b1111 b
b100000000000000000000111000 /"
b111 C
b111 f
b1 N
b1 Y
b1111 K
b1111 `
b1111 c
b1111 p
b1 Q
b1 V
b1 l
b111 J
b111 a
b111 d
b111 q
b1 P
b1 W
b1 m
1?
b1000000000000000000000000001111 U
b1000000000000000000000000001111 *"
b11000000000000000000000000000111 T
b11000000000000000000000000000111 -"
b1000000000000000000010110000 ,
b1000000000000000000010110000 8
b1000000000000000000010110000 4"
b1000000000000000000010110000 I
b1000000000000000000010110000 ^
b1000000000000000000010110000 k
b10000000000000000000000000010110 4
b10000000000000000000000000010110 A
b10000001 L
b10000001 \
b10000001 j
b10 !"
0+
b10 C"
1#
#36000
0#
#37000
b1000000 H
b1000000 h
b1000000 '"
b1000000 E
b1000000 ]
b1000000 %"
b1000000 2
b1000000 9
b1000000 2"
b1000000 S
b1000000 _
b1000000 t
b100 !"
0<
b1000000 ~
b1000000000000000000000000010110 4
b1000000000000000000000000010110 A
b1 L
b1 \
b1 j
b11 C"
1#
#38000
0#
#39000
b1000000000000000000000000001000 4
b1000000000000000000000000001000 A
b1000000 ,
b1000000 8
b1000000 4"
b1000000 I
b1000000 ^
b1000000 k
1/
b100 C"
1#
#40000
0#
#41000
13
b101 C"
1#
#42000
0#
#43000
b10000000 H
b10000000 h
b10000000 '"
b0 O
b0 i
b0 $"
b10 *
b10 B
b10 #"
b10 &"
b10 A"
b110 C"
1#
#44000
0#
#45000
b10000000 H
b10000000 h
b10000000 '"
b0 O
b0 i
b0 $"
b10000000 E
b10000000 ]
b10000000 %"
b0 R
b0 [
b0 ""
11
b0 *
b0 B
b0 #"
b0 &"
b0 A"
b10000000 ,
b10000000 8
b10000000 4"
b10000000 I
b10000000 ^
b10000000 k
b111111100000000000000000010000 4
b111111100000000000000000010000 A
b0 L
b0 \
b0 j
b111 C"
1#
#46000
0#
#47000
b101 C"
1#
#48000
0#
#49000
b100000000 H
b100000000 h
b100000000 '"
b11111111 O
b11111111 i
b11111111 $"
b10 *
b10 B
b10 #"
b10 &"
b10 A"
b110 C"
1#
#50000
0#
#51000
b100000000 H
b100000000 h
b100000000 '"
b11111111 O
b11111111 i
b11111111 $"
b100000000 E
b100000000 ]
b100000000 %"
b11111111 R
b11111111 [
b11111111 ""
b100000000 ,
b100000000 8
b100000000 4"
b100000000 I
b100000000 ^
b100000000 k
b111111000000000000000000100000 4
b111111000000000000000000100000 A
b11111111 L
b11111111 \
b11111111 j
b0 *
b0 B
b0 #"
b0 &"
b0 A"
b111 C"
1#
#52000
0#
#53000
b101 C"
1#
#54000
0#
#55000
b1000000000 H
b1000000000 h
b1000000000 '"
b11111110 O
b11111110 i
b11111110 $"
b10 *
b10 B
b10 #"
b10 &"
b10 A"
b110 C"
1#
#56000
0#
#57000
b1000000000 E
b1000000000 ]
b1000000000 %"
b11111110 R
b11111110 [
b11111110 ""
b0 *
b0 B
b0 #"
b0 &"
b0 A"
b1000000000 ,
b1000000000 8
b1000000000 4"
b1000000000 I
b1000000000 ^
b1000000000 k
b111110100000000000000001000000 4
b111110100000000000000001000000 A
b11111110 L
b11111110 \
b11111110 j
b111 C"
1#
#58000
0#
#59000
b101 C"
1#
#60000
0#
#61000
b10000000000 H
b10000000000 h
b10000000000 '"
b11111101 O
b11111101 i
b11111101 $"
b10 *
b10 B
b10 #"
b10 &"
b10 A"
b110 C"
1#
#62000
0#
#63000
b10000000000 H
b10000000000 h
b10000000000 '"
b11111101 O
b11111101 i
b11111101 $"
b10000000000 E
b10000000000 ]
b10000000000 %"
b11111101 R
b11111101 [
b11111101 ""
b10000000000 ,
b10000000000 8
b10000000000 4"
b10000000000 I
b10000000000 ^
b10000000000 k
b111110000000000000000010000000 4
b111110000000000000000010000000 A
b11111101 L
b11111101 \
b11111101 j
b0 *
b0 B
b0 #"
b0 &"
b0 A"
b111 C"
1#
#64000
0#
#65000
b101 C"
1#
#66000
0#
#67000
b100000000000 H
b100000000000 h
b100000000000 '"
b11111100 O
b11111100 i
b11111100 $"
b10 *
b10 B
b10 #"
b10 &"
b10 A"
b110 C"
1#
#68000
0#
#69000
b100000000000 E
b100000000000 ]
b100000000000 %"
b11111100 R
b11111100 [
b11111100 ""
b0 *
b0 B
b0 #"
b0 &"
b0 A"
b100000000000 ,
b100000000000 8
b100000000000 4"
b100000000000 I
b100000000000 ^
b100000000000 k
b111101100000000000000100000000 4
b111101100000000000000100000000 A
b11111100 L
b11111100 \
b11111100 j
b111 C"
1#
#70000
0#
#71000
b101 C"
1#
#72000
0#
#73000
b1000000000000 H
b1000000000000 h
b1000000000000 '"
b11111011 O
b11111011 i
b11111011 $"
b10 *
b10 B
b10 #"
b10 &"
b10 A"
b110 C"
1#
#74000
0#
#75000
b1000000000000 H
b1000000000000 h
b1000000000000 '"
b11111011 O
b11111011 i
b11111011 $"
b1000000000000 E
b1000000000000 ]
b1000000000000 %"
b11111011 R
b11111011 [
b11111011 ""
b1000000000000 ,
b1000000000000 8
b1000000000000 4"
b1000000000000 I
b1000000000000 ^
b1000000000000 k
b111101000000000000001000000000 4
b111101000000000000001000000000 A
b11111011 L
b11111011 \
b11111011 j
b0 *
b0 B
b0 #"
b0 &"
b0 A"
b111 C"
1#
#76000
0#
#77000
b101 C"
1#
#78000
0#
#79000
b10000000000000 H
b10000000000000 h
b10000000000000 '"
b11111010 O
b11111010 i
b11111010 $"
b10 *
b10 B
b10 #"
b10 &"
b10 A"
b110 C"
1#
#80000
0#
#81000
b10000000000000 E
b10000000000000 ]
b10000000000000 %"
b11111010 R
b11111010 [
b11111010 ""
b0 *
b0 B
b0 #"
b0 &"
b0 A"
b10000000000000 ,
b10000000000000 8
b10000000000000 4"
b10000000000000 I
b10000000000000 ^
b10000000000000 k
b111100100000000000010000000000 4
b111100100000000000010000000000 A
b11111010 L
b11111010 \
b11111010 j
b111 C"
1#
#82000
0#
#83000
b101 C"
1#
#84000
0#
#85000
b100000000000000 H
b100000000000000 h
b100000000000000 '"
b11111001 O
b11111001 i
b11111001 $"
b10 *
b10 B
b10 #"
b10 &"
b10 A"
b110 C"
1#
#86000
0#
#87000
b100000000000000 H
b100000000000000 h
b100000000000000 '"
b11111001 O
b11111001 i
b11111001 $"
b100000000000000 E
b100000000000000 ]
b100000000000000 %"
b11111001 R
b11111001 [
b11111001 ""
b100000000000000 ,
b100000000000000 8
b100000000000000 4"
b100000000000000 I
b100000000000000 ^
b100000000000000 k
b111100000000000000100000000000 4
b111100000000000000100000000000 A
b11111001 L
b11111001 \
b11111001 j
b0 *
b0 B
b0 #"
b0 &"
b0 A"
b111 C"
1#
#88000
0#
#89000
b101 C"
1#
#90000
0#
#91000
b1000000000000000 H
b1000000000000000 h
b1000000000000000 '"
b11111000 O
b11111000 i
b11111000 $"
b10 *
b10 B
b10 #"
b10 &"
b10 A"
b110 C"
1#
#92000
0#
#93000
b1000000000000000 E
b1000000000000000 ]
b1000000000000000 %"
b11111000 R
b11111000 [
b11111000 ""
b0 *
b0 B
b0 #"
b0 &"
b0 A"
b1000000000000000 ,
b1000000000000000 8
b1000000000000000 4"
b1000000000000000 I
b1000000000000000 ^
b1000000000000000 k
b111011100000000001000000000000 4
b111011100000000001000000000000 A
b11111000 L
b11111000 \
b11111000 j
b111 C"
1#
#94000
0#
#95000
b101 C"
1#
#96000
0#
#97000
b10000000000000000 H
b10000000000000000 h
b10000000000000000 '"
b11110111 O
b11110111 i
b11110111 $"
b10 *
b10 B
b10 #"
b10 &"
b10 A"
b110 C"
1#
#98000
0#
#99000
b10000000000000000 H
b10000000000000000 h
b10000000000000000 '"
b11110111 O
b11110111 i
b11110111 $"
b10000000000000000 E
b10000000000000000 ]
b10000000000000000 %"
b11110111 R
b11110111 [
b11110111 ""
b10000000000000000 ,
b10000000000000000 8
b10000000000000000 4"
b10000000000000000 I
b10000000000000000 ^
b10000000000000000 k
b111011000000000010000000000000 4
b111011000000000010000000000000 A
b11110111 L
b11110111 \
b11110111 j
b0 *
b0 B
b0 #"
b0 &"
b0 A"
b111 C"
1#
#100000
0#
#101000
b101 C"
1#
#102000
0#
#103000
b100000000000000000 H
b100000000000000000 h
b100000000000000000 '"
b11110110 O
b11110110 i
b11110110 $"
b10 *
b10 B
b10 #"
b10 &"
b10 A"
b110 C"
1#
#104000
0#
#105000
b100000000000000000 E
b100000000000000000 ]
b100000000000000000 %"
b11110110 R
b11110110 [
b11110110 ""
b0 *
b0 B
b0 #"
b0 &"
b0 A"
b100000000000000000 ,
b100000000000000000 8
b100000000000000000 4"
b100000000000000000 I
b100000000000000000 ^
b100000000000000000 k
b111010100000000100000000000000 4
b111010100000000100000000000000 A
b11110110 L
b11110110 \
b11110110 j
b111 C"
1#
#106000
0#
#107000
b101 C"
1#
#108000
0#
#109000
b1000000000000000000 H
b1000000000000000000 h
b1000000000000000000 '"
b11110101 O
b11110101 i
b11110101 $"
b10 *
b10 B
b10 #"
b10 &"
b10 A"
b110 C"
1#
#110000
0#
#111000
b1000000000000000000 H
b1000000000000000000 h
b1000000000000000000 '"
b11110101 O
b11110101 i
b11110101 $"
b1000000000000000000 E
b1000000000000000000 ]
b1000000000000000000 %"
b11110101 R
b11110101 [
b11110101 ""
b1000000000000000000 ,
b1000000000000000000 8
b1000000000000000000 4"
b1000000000000000000 I
b1000000000000000000 ^
b1000000000000000000 k
b111010000000001000000000000000 4
b111010000000001000000000000000 A
b11110101 L
b11110101 \
b11110101 j
b0 *
b0 B
b0 #"
b0 &"
b0 A"
b111 C"
1#
#112000
0#
#113000
b101 C"
1#
#114000
0#
#115000
b10000000000000000000 H
b10000000000000000000 h
b10000000000000000000 '"
b11110100 O
b11110100 i
b11110100 $"
b10 *
b10 B
b10 #"
b10 &"
b10 A"
b110 C"
1#
#116000
0#
#117000
b10000000000000000000 E
b10000000000000000000 ]
b10000000000000000000 %"
b11110100 R
b11110100 [
b11110100 ""
b0 *
b0 B
b0 #"
b0 &"
b0 A"
b10000000000000000000 ,
b10000000000000000000 8
b10000000000000000000 4"
b10000000000000000000 I
b10000000000000000000 ^
b10000000000000000000 k
b111001100000010000000000000000 4
b111001100000010000000000000000 A
b11110100 L
b11110100 \
b11110100 j
b111 C"
1#
#118000
0#
#119000
b101 C"
1#
#120000
0#
#121000
b100000000000000000000 H
b100000000000000000000 h
b100000000000000000000 '"
b11110011 O
b11110011 i
b11110011 $"
b10 *
b10 B
b10 #"
b10 &"
b10 A"
b110 C"
1#
#122000
0#
#123000
b100000000000000000000 H
b100000000000000000000 h
b100000000000000000000 '"
b11110011 O
b11110011 i
b11110011 $"
b100000000000000000000 E
b100000000000000000000 ]
b100000000000000000000 %"
b11110011 R
b11110011 [
b11110011 ""
b100000000000000000000 ,
b100000000000000000000 8
b100000000000000000000 4"
b100000000000000000000 I
b100000000000000000000 ^
b100000000000000000000 k
b111001000000100000000000000000 4
b111001000000100000000000000000 A
b11110011 L
b11110011 \
b11110011 j
b0 *
b0 B
b0 #"
b0 &"
b0 A"
b111 C"
1#
#124000
0#
#125000
b101 C"
1#
#126000
0#
#127000
b1000000000000000000000 H
b1000000000000000000000 h
b1000000000000000000000 '"
b11110010 O
b11110010 i
b11110010 $"
b10 *
b10 B
b10 #"
b10 &"
b10 A"
b110 C"
1#
#128000
0#
#129000
b1000000000000000000000 E
b1000000000000000000000 ]
b1000000000000000000000 %"
b11110010 R
b11110010 [
b11110010 ""
b0 *
b0 B
b0 #"
b0 &"
b0 A"
b1000000000000000000000 ,
b1000000000000000000000 8
b1000000000000000000000 4"
b1000000000000000000000 I
b1000000000000000000000 ^
b1000000000000000000000 k
b111000100001000000000000000000 4
b111000100001000000000000000000 A
b11110010 L
b11110010 \
b11110010 j
b111 C"
1#
#130000
0#
#131000
b101 C"
1#
#132000
0#
#133000
b10000000000000000000000 H
b10000000000000000000000 h
b10000000000000000000000 '"
b11110001 O
b11110001 i
b11110001 $"
b10 *
b10 B
b10 #"
b10 &"
b10 A"
b110 C"
1#
#134000
0#
#135000
b10000000000000000000000 H
b10000000000000000000000 h
b10000000000000000000000 '"
b11110001 O
b11110001 i
b11110001 $"
b10000000000000000000000 E
b10000000000000000000000 ]
b10000000000000000000000 %"
b11110001 R
b11110001 [
b11110001 ""
b10000000000000000000000 ,
b10000000000000000000000 8
b10000000000000000000000 4"
b10000000000000000000000 I
b10000000000000000000000 ^
b10000000000000000000000 k
b111000000010000000000000000000 4
b111000000010000000000000000000 A
b11110001 L
b11110001 \
b11110001 j
b0 *
b0 B
b0 #"
b0 &"
b0 A"
b111 C"
1#
#136000
0#
#137000
b101 C"
1#
#138000
0#
#139000
b100000000000000000000000 H
b100000000000000000000000 h
b100000000000000000000000 '"
b11110000 O
b11110000 i
b11110000 $"
b10 *
b10 B
b10 #"
b10 &"
b10 A"
b110 C"
1#
#140000
0#
#141000
b100000000000000000000000 E
b100000000000000000000000 ]
b100000000000000000000000 %"
b11110000 R
b11110000 [
b11110000 ""
b0 *
b0 B
b0 #"
b0 &"
b0 A"
b100000000000000000000000 ,
b100000000000000000000000 8
b100000000000000000000000 4"
b100000000000000000000000 I
b100000000000000000000000 ^
b100000000000000000000000 k
b110111100100000000000000000000 4
b110111100100000000000000000000 A
b11110000 L
b11110000 \
b11110000 j
b111 C"
1#
#142000
0#
#143000
b101 C"
1#
#144000
0#
#145000
b1000000000000000000000000 H
b1000000000000000000000000 h
b1000000000000000000000000 '"
b11101111 O
b11101111 i
b11101111 $"
b10 *
b10 B
b10 #"
b10 &"
b10 A"
b110 C"
1#
#146000
0#
#147000
b1000000000000000000000000 H
b1000000000000000000000000 h
b1000000000000000000000000 '"
b11101111 O
b11101111 i
b11101111 $"
b1000000000000000000000000 E
b1000000000000000000000000 ]
b1000000000000000000000000 %"
b11101111 R
b11101111 [
b11101111 ""
b1000000000000000000000000 ,
b1000000000000000000000000 8
b1000000000000000000000000 4"
b1000000000000000000000000 I
b1000000000000000000000000 ^
b1000000000000000000000000 k
b110111001000000000000000000000 4
b110111001000000000000000000000 A
b11101111 L
b11101111 \
b11101111 j
b0 *
b0 B
b0 #"
b0 &"
b0 A"
b111 C"
1#
#148000
0#
#149000
b101 C"
1#
#150000
0#
#151000
b10000000000000000000000000 H
b10000000000000000000000000 h
b10000000000000000000000000 '"
b11101110 O
b11101110 i
b11101110 $"
b10 *
b10 B
b10 #"
b10 &"
b10 A"
b110 C"
1#
#152000
0#
#153000
b10000000000000000000000000 E
b10000000000000000000000000 ]
b10000000000000000000000000 %"
b11101110 R
b11101110 [
b11101110 ""
b0 *
b0 B
b0 #"
b0 &"
b0 A"
b10000000000000000000000000 ,
b10000000000000000000000000 8
b10000000000000000000000000 4"
b10000000000000000000000000 I
b10000000000000000000000000 ^
b10000000000000000000000000 k
b110110110000000000000000000000 4
b110110110000000000000000000000 A
b11101110 L
b11101110 \
b11101110 j
b111 C"
1#
#154000
0#
#155000
b101 C"
1#
#156000
0#
#157000
b100000000000000000000000000 H
b100000000000000000000000000 h
b100000000000000000000000000 '"
b11101101 O
b11101101 i
b11101101 $"
b10 *
b10 B
b10 #"
b10 &"
b10 A"
b110 C"
1#
#158000
0#
#159000
b100000000000000000000000000 H
b100000000000000000000000000 h
b100000000000000000000000000 '"
b11101101 O
b11101101 i
b11101101 $"
b100000000000000000000000000 E
b100000000000000000000000000 ]
b100000000000000000000000000 %"
b11101101 R
b11101101 [
b11101101 ""
b100000000000000000000000000 ,
b100000000000000000000000000 8
b100000000000000000000000000 4"
b100000000000000000000000000 I
b100000000000000000000000000 ^
b100000000000000000000000000 k
b110110000000000000000000000000 4
b110110000000000000000000000000 A
b11101101 L
b11101101 \
b11101101 j
b0 *
b0 B
b0 #"
b0 &"
b0 A"
b111 C"
1#
#160000
0#
#161000
b1000 C"
1#
#162000
0#
#163000
10
1#
