Processador/TesteUcColeguinhaPepe/_testbenches/vvp/RV.vcd
$date
	Mon Jun 12 10:51:42 2023
$end
$version
	Icarus Verilog
$end
$timescale
	100ps
$end
$scope module Processador_tb $end
$var reg 1 ! clk_tb $end
$var reg 1 " rst_n_tb $end
$scope module rv $end
$var wire 1 ! clk $end
$var wire 64 # d_mem_data [63:0] $end
$var wire 1 " rst_n $end
$var wire 32 $ i_mem_data [31:0] $end
$var wire 6 % i_mem_addr [5:0] $end
$var wire 1 & d_mem_we $end
$var wire 6 ' d_mem_addr [5:0] $end
$scope module RAM_ROM $end
$var wire 1 ! clk $end
$var wire 64 ( d_mem_data [63:0] $end
$var wire 64 ) d_mem_data_in [63:0] $end
$var wire 32 * i_mem_data [31:0] $end
$var wire 32 + i_mem_data_interno [31:0] $end
$var wire 6 , i_mem_addr [5:0] $end
$var wire 1 & d_mem_we $end
$var wire 64 - d_mem_data_out [63:0] $end
$var wire 6 . d_mem_addr [5:0] $end
$var wire 1 / clk_atrasado $end
$scope module MemD $end
$var wire 64 0 d_mem_data_in [63:0] $end
$var wire 64 1 d_mem_data_out [63:0] $end
$var wire 1 & d_mem_we $end
$var wire 6 2 d_mem_addr [5:0] $end
$var wire 1 / clk $end
$upscope $end
$scope module MemI $end
$var wire 32 3 i_mem_data [31:0] $end
$var wire 6 4 i_mem_addr [5:0] $end
$upscope $end
$scope module atrasa_clk $end
$var wire 1 ! clk $end
$var wire 1 / clk_out $end
$var reg 2 5 counter [1:0] $end
$upscope $end
$upscope $end
$scope module RV $end
$var wire 1 ! clk $end
$var wire 64 6 d_mem_data [63:0] $end
$var wire 32 7 i_mem_data [31:0] $end
$var wire 1 " rst_n $end
$var wire 1 8 rf_we $end
$var wire 1 9 rf_src $end
$var wire 1 : pc_src $end
$var wire 7 ; opcode [6:0] $end
$var wire 6 < i_mem_addr [5:0] $end
$var wire 1 & d_mem_we $end
$var wire 6 = d_mem_addr [5:0] $end
$var wire 1 > clk_atrasado $end
$var wire 1 ? alu_src $end
$var wire 4 @ alu_flags [3:0] $end
$var wire 4 A alu_cmd [3:0] $end
$var parameter 32 B d_addr_bits $end
$var parameter 32 C i_addr_bits $end
$scope module FD $end
$var wire 4 D alu_flags [3:0] $end
$var wire 64 E d_mem_data [63:0] $end
$var wire 64 F d_mem_data_in [63:0] $end
$var wire 64 G d_mem_data_out [63:0] $end
$var wire 32 H i_mem_data [31:0] $end
$var wire 1 " rst_n $end
$var wire 1 8 rf_we $end
$var wire 1 9 rf_src $end
$var wire 1 : pc_src $end
$var wire 7 I opcode [6:0] $end
$var wire 4 J op [3:0] $end
$var wire 32 K instruction_IR_out [31:0] $end
$var wire 32 L imm [31:0] $end
$var wire 6 M i_mem_addr [5:0] $end
$var wire 7 N funct7 [6:0] $end
$var wire 3 O funct3 [2:0] $end
$var wire 4 P flags [3:0] $end
$var wire 64 Q doutB [63:0] $end
$var wire 64 R doutA [63:0] $end
$var wire 1 & d_mem_we $end
$var wire 6 S d_mem_addr [5:0] $end
$var wire 1 > clk $end
$var wire 1 ? alu_src $end
$var wire 4 T alu_cmd [3:0] $end
$var wire 32 U addr_instruction [31:0] $end
$var wire 64 V ULA_OUT [63:0] $end
$var wire 5 W Rw [4:0] $end
$var wire 5 X Rb [4:0] $end
$var wire 5 Y Ra [4:0] $end
$var wire 64 Z RF_input [63:0] $end
$var wire 32 [ PC_addr [31:0] $end
$var wire 64 \ OFFSET [63:0] $end
$scope module IR $end
$var wire 1 ] clk $end
$var wire 1 ^ load $end
$var wire 1 " reset $end
$var wire 32 _ x [31:0] $end
$var parameter 32 ` N $end
$var reg 32 a x_out [31:0] $end
$upscope $end
$scope module PCreg $end
$var wire 1 b load $end
$var wire 1 " reset $end
$var wire 32 c x [31:0] $end
$var wire 1 > clk $end
$var parameter 32 d N $end
$var reg 32 e x_out [31:0] $end
$upscope $end
$scope module RegFile $end
$var wire 64 f dIN [63:0] $end
$var wire 32 g loads [31:0] $end
$var wire 1 > clk $end
$var wire 1 8 WE_Reg $end
$var wire 5 h Rw [4:0] $end
$var wire 5 i Rb [4:0] $end
$var wire 5 j Ra [4:0] $end
$var reg 64 k doutA [63:0] $end
$var reg 64 l doutB [63:0] $end
$var integer 32 m j [31:0] $end
$var integer 32 n k [31:0] $end
$scope begin genblk1[1] $end
$var parameter 2 o i $end
$scope module Regs $end
$var wire 1 p load $end
$var wire 64 q x [63:0] $end
$var wire 1 > clk $end
$var parameter 32 r N $end
$var reg 64 s x_out [63:0] $end
$upscope $end
$upscope $end
$scope begin genblk1[2] $end
$var parameter 3 t i $end
$scope module Regs $end
$var wire 1 u load $end
$var wire 64 v x [63:0] $end
$var wire 1 > clk $end
$var parameter 32 w N $end
$var reg 64 x x_out [63:0] $end
$upscope $end
$upscope $end
$scope begin genblk1[3] $end
$var parameter 3 y i $end
$scope module Regs $end
$var wire 1 z load $end
$var wire 64 { x [63:0] $end
$var wire 1 > clk $end
$var parameter 32 | N $end
$var reg 64 } x_out [63:0] $end
$upscope $end
$upscope $end
$scope begin genblk1[4] $end
$var parameter 4 ~ i $end
$scope module Regs $end
$var wire 1 !" load $end
$var wire 64 "" x [63:0] $end
$var wire 1 > clk $end
$var parameter 32 #" N $end
$var reg 64 $" x_out [63:0] $end
$upscope $end
$upscope $end
$scope begin genblk1[5] $end
$var parameter 4 %" i $end
$scope module Regs $end
$var wire 1 &" load $end
$var wire 64 '" x [63:0] $end
$var wire 1 > clk $end
$var parameter 32 (" N $end
$var reg 64 )" x_out [63:0] $end
$upscope $end
$upscope $end
$scope begin genblk1[6] $end
$var parameter 4 *" i $end
$scope module Regs $end
$var wire 1 +" load $end
$var wire 64 ," x [63:0] $end
$var wire 1 > clk $end
$var parameter 32 -" N $end
$var reg 64 ." x_out [63:0] $end
$upscope $end
$upscope $end
$scope begin genblk1[7] $end
$var parameter 4 /" i $end
$scope module Regs $end
$var wire 1 0" load $end
$var wire 64 1" x [63:0] $end
$var wire 1 > clk $end
$var parameter 32 2" N $end
$var reg 64 3" x_out [63:0] $end
$upscope $end
$upscope $end
$scope begin genblk1[8] $end
$var parameter 5 4" i $end
$scope module Regs $end
$var wire 1 5" load $end
$var wire 64 6" x [63:0] $end
$var wire 1 > clk $end
$var parameter 32 7" N $end
$var reg 64 8" x_out [63:0] $end
$upscope $end
$upscope $end
$scope begin genblk1[9] $end
$var parameter 5 9" i $end
$scope module Regs $end
$var wire 1 :" load $end
$var wire 64 ;" x [63:0] $end
$var wire 1 > clk $end
$var parameter 32 <" N $end
$var reg 64 =" x_out [63:0] $end
$upscope $end
$upscope $end
$scope begin genblk1[10] $end
$var parameter 5 >" i $end
$scope module Regs $end
$var wire 1 ?" load $end
$var wire 64 @" x [63:0] $end
$var wire 1 > clk $end
$var parameter 32 A" N $end
$var reg 64 B" x_out [63:0] $end
$upscope $end
$upscope $end
$scope begin genblk1[11] $end
$var parameter 5 C" i $end
$scope module Regs $end
$var wire 1 D" load $end
$var wire 64 E" x [63:0] $end
$var wire 1 > clk $end
$var parameter 32 F" N $end
$var reg 64 G" x_out [63:0] $end
$upscope $end
$upscope $end
$scope begin genblk1[12] $end
$var parameter 5 H" i $end
$scope module Regs $end
$var wire 1 I" load $end
$var wire 64 J" x [63:0] $end
$var wire 1 > clk $end
$var parameter 32 K" N $end
$var reg 64 L" x_out [63:0] $end
$upscope $end
$upscope $end
$scope begin genblk1[13] $end
$var parameter 5 M" i $end
$scope module Regs $end
$var wire 1 N" load $end
$var wire 64 O" x [63:0] $end
$var wire 1 > clk $end
$var parameter 32 P" N $end
$var reg 64 Q" x_out [63:0] $end
$upscope $end
$upscope $end
$scope begin genblk1[14] $end
$var parameter 5 R" i $end
$scope module Regs $end
$var wire 1 S" load $end
$var wire 64 T" x [63:0] $end
$var wire 1 > clk $end
$var parameter 32 U" N $end
$var reg 64 V" x_out [63:0] $end
$upscope $end
$upscope $end
$scope begin genblk1[15] $end
$var parameter 5 W" i $end
$scope module Regs $end
$var wire 1 X" load $end
$var wire 64 Y" x [63:0] $end
$var wire 1 > clk $end
$var parameter 32 Z" N $end
$var reg 64 [" x_out [63:0] $end
$upscope $end
$upscope $end
$scope begin genblk1[16] $end
$var parameter 6 \" i $end
$scope module Regs $end
$var wire 1 ]" load $end
$var wire 64 ^" x [63:0] $end
$var wire 1 > clk $end
$var parameter 32 _" N $end
$var reg 64 `" x_out [63:0] $end
$upscope $end
$upscope $end
$scope begin genblk1[17] $end
$var parameter 6 a" i $end
$scope module Regs $end
$var wire 1 b" load $end
$var wire 64 c" x [63:0] $end
$var wire 1 > clk $end
$var parameter 32 d" N $end
$var reg 64 e" x_out [63:0] $end
$upscope $end
$upscope $end
$scope begin genblk1[18] $end
$var parameter 6 f" i $end
$scope module Regs $end
$var wire 1 g" load $end
$var wire 64 h" x [63:0] $end
$var wire 1 > clk $end
$var parameter 32 i" N $end
$var reg 64 j" x_out [63:0] $end
$upscope $end
$upscope $end
$scope begin genblk1[19] $end
$var parameter 6 k" i $end
$scope module Regs $end
$var wire 1 l" load $end
$var wire 64 m" x [63:0] $end
$var wire 1 > clk $end
$var parameter 32 n" N $end
$var reg 64 o" x_out [63:0] $end
$upscope $end
$upscope $end
$scope begin genblk1[20] $end
$var parameter 6 p" i $end
$scope module Regs $end
$var wire 1 q" load $end
$var wire 64 r" x [63:0] $end
$var wire 1 > clk $end
$var parameter 32 s" N $end
$var reg 64 t" x_out [63:0] $end
$upscope $end
$upscope $end
$scope begin genblk1[21] $end
$var parameter 6 u" i $end
$scope module Regs $end
$var wire 1 v" load $end
$var wire 64 w" x [63:0] $end
$var wire 1 > clk $end
$var parameter 32 x" N $end
$var reg 64 y" x_out [63:0] $end
$upscope $end
$upscope $end
$scope begin genblk1[22] $end
$var parameter 6 z" i $end
$scope module Regs $end
$var wire 1 {" load $end
$var wire 64 |" x [63:0] $end
$var wire 1 > clk $end
$var parameter 32 }" N $end
$var reg 64 ~" x_out [63:0] $end
$upscope $end
$upscope $end
$scope begin genblk1[23] $end
$var parameter 6 !# i $end
$scope module Regs $end
$var wire 1 "# load $end
$var wire 64 ## x [63:0] $end
$var wire 1 > clk $end
$var parameter 32 $# N $end
$var reg 64 %# x_out [63:0] $end
$upscope $end
$upscope $end
$scope begin genblk1[24] $end
$var parameter 6 &# i $end
$scope module Regs $end
$var wire 1 '# load $end
$var wire 64 (# x [63:0] $end
$var wire 1 > clk $end
$var parameter 32 )# N $end
$var reg 64 *# x_out [63:0] $end
$upscope $end
$upscope $end
$scope begin genblk1[25] $end
$var parameter 6 +# i $end
$scope module Regs $end
$var wire 1 ,# load $end
$var wire 64 -# x [63:0] $end
$var wire 1 > clk $end
$var parameter 32 .# N $end
$var reg 64 /# x_out [63:0] $end
$upscope $end
$upscope $end
$scope begin genblk1[26] $end
$var parameter 6 0# i $end
$scope module Regs $end
$var wire 1 1# load $end
$var wire 64 2# x [63:0] $end
$var wire 1 > clk $end
$var parameter 32 3# N $end
$var reg 64 4# x_out [63:0] $end
$upscope $end
$upscope $end
$scope begin genblk1[27] $end
$var parameter 6 5# i $end
$scope module Regs $end
$var wire 1 6# load $end
$var wire 64 7# x [63:0] $end
$var wire 1 > clk $end
$var parameter 32 8# N $end
$var reg 64 9# x_out [63:0] $end
$upscope $end
$upscope $end
$scope begin genblk1[28] $end
$var parameter 6 :# i $end
$scope module Regs $end
$var wire 1 ;# load $end
$var wire 64 <# x [63:0] $end
$var wire 1 > clk $end
$var parameter 32 =# N $end
$var reg 64 ># x_out [63:0] $end
$upscope $end
$upscope $end
$scope begin genblk1[29] $end
$var parameter 6 ?# i $end
$scope module Regs $end
$var wire 1 @# load $end
$var wire 64 A# x [63:0] $end
$var wire 1 > clk $end
$var parameter 32 B# N $end
$var reg 64 C# x_out [63:0] $end
$upscope $end
$upscope $end
$scope begin genblk1[30] $end
$var parameter 6 D# i $end
$scope module Regs $end
$var wire 1 E# load $end
$var wire 64 F# x [63:0] $end
$var wire 1 > clk $end
$var parameter 32 G# N $end
$var reg 64 H# x_out [63:0] $end
$upscope $end
$upscope $end
$scope begin genblk1[31] $end
$var parameter 6 I# i $end
$scope module Regs $end
$var wire 1 J# load $end
$var wire 64 K# x [63:0] $end
$var wire 1 > clk $end
$var parameter 32 L# N $end
$var reg 64 M# x_out [63:0] $end
$upscope $end
$upscope $end
$scope module Regs $end
$var wire 1 N# load $end
$var wire 64 O# x [63:0] $end
$var wire 1 > clk $end
$var parameter 32 P# N $end
$var reg 64 Q# x_out [63:0] $end
$upscope $end
$upscope $end
$scope module ULA_seletor $end
$var wire 64 R# OFFSET [63:0] $end
$var wire 64 S# dinA [63:0] $end
$var wire 64 T# dinB [63:0] $end
$var wire 64 U# dout [63:0] $end
$var wire 4 V# op [3:0] $end
$var wire 4 W# flags [3:0] $end
$var wire 1 ? alu_src $end
$var wire 64 X# ULA_OUT [63:0] $end
$var wire 64 Y# ULA_IN1 [63:0] $end
$scope module ULA $end
$var wire 64 Z# a [63:0] $end
$var wire 64 [# result [63:0] $end
$var wire 64 \# ula_out [63:0] $end
$var wire 4 ]# op [3:0] $end
$var wire 4 ^# flags [3:0] $end
$var wire 64 _# b [63:0] $end
$var parameter 32 `# BEQ $end
$var parameter 32 a# MSB $end
$var parameter 32 b# Overflow $end
$upscope $end
$scope module mux1 $end
$var wire 64 c# a [63:0] $end
$var wire 64 d# b [63:0] $end
$var wire 64 e# c [63:0] $end
$var wire 64 f# d [63:0] $end
$var wire 2 g# select [1:0] $end
$var wire 64 h# result [63:0] $end
$upscope $end
$upscope $end
$scope module ULAcontrol $end
$var wire 7 i# funct7 [6:0] $end
$var wire 3 j# funct3 [2:0] $end
$var wire 4 k# alu_cmd [3:0] $end
$var parameter 4 l# Btype $end
$var parameter 4 m# Itype $end
$var parameter 4 n# Rtype $end
$var parameter 4 o# Stype $end
$var parameter 4 p# add $end
$var parameter 4 q# sub $end
$var reg 4 r# op [3:0] $end
$upscope $end
$scope module instruction_organizor $end
$var wire 32 s# instruction [31:0] $end
$var wire 7 t# opcode [6:0] $end
$var reg 5 u# Ra [4:0] $end
$var reg 5 v# Rb [4:0] $end
$var reg 5 w# Rw [4:0] $end
$var reg 3 x# funct3 [2:0] $end
$var reg 7 y# funct7 [6:0] $end
$var reg 32 z# immediate [31:0] $end
$upscope $end
$upscope $end
$scope module UC $end
$var wire 4 {# alu_flags [3:0] $end
$var wire 1 ! clk $end
$var wire 7 |# opcode [6:0] $end
$var wire 1 " rst_n $end
$var parameter 7 }# Rtype $end
$var parameter 7 ~# addi $end
$var parameter 7 !$ auipc $end
$var parameter 7 "$ branch $end
$var parameter 32 #$ decode $end
$var parameter 32 $$ executeBtypeBRANCH $end
$var parameter 32 %$ executeItypeADDI $end
$var parameter 32 &$ executeItypeJALR $end
$var parameter 32 '$ executeItypeLOAD $end
$var parameter 32 ($ executeJtypeJAL $end
$var parameter 32 )$ executeRtype $end
$var parameter 32 *$ executeStypeSTORE $end
$var parameter 32 +$ executeUtypeAUIPC $end
$var parameter 32 ,$ fetch $end
$var parameter 7 -$ jal $end
$var parameter 7 .$ jalr $end
$var parameter 7 /$ load $end
$var parameter 7 0$ store $end
$var parameter 32 1$ write_backMEM $end
$var parameter 32 2$ write_backREG $end
$var reg 4 3$ alu_cmd [3:0] $end
$var reg 1 ? alu_src $end
$var reg 1 & d_mem_we $end
$var reg 1 : pc_src $end
$var reg 1 9 rf_src $end
$var reg 1 8 rf_we $end
$var reg 5 4$ state [4:0] $end
$upscope $end
$scope module atrasa_clk $end
$var wire 1 ! clk $end
$var wire 1 > clk_out $end
$var reg 2 5$ counter [1:0] $end
$upscope $end
$upscope $end
$upscope $end
$upscope $end
$enddefinitions $end
$comment Show the parameter values. $end
$dumpall
b1011 2$
b1100 1$
b100011 0$
b11 /$
b1100111 .$
b1101111 -$
b1 ,$
b1010 +$
b110 *$
b11 )$
b1001 ($
b100 '$
b1000 &$
b101 %$
b111 $$
b10 #$
b1100011 "$
b10111 !$
b10011 ~#
b110011 }#
b110 q#
b10 p#
b10 o#
b0 n#
b1 m#
b11 l#
b10 b#
b1 a#
b0 `#
b1000000 P#
b1000000 L#
b11111 I#
b1000000 G#
b11110 D#
b1000000 B#
b11101 ?#
b1000000 =#
b11100 :#
b1000000 8#
b11011 5#
b1000000 3#
b11010 0#
b1000000 .#
b11001 +#
b1000000 )#
b11000 &#
b1000000 $#
b10111 !#
b1000000 }"
b10110 z"
b1000000 x"
b10101 u"
b1000000 s"
b10100 p"
b1000000 n"
b10011 k"
b1000000 i"
b10010 f"
b1000000 d"
b10001 a"
b1000000 _"
b10000 \"
b1000000 Z"
b1111 W"
b1000000 U"
b1110 R"
b1000000 P"
b1101 M"
b1000000 K"
b1100 H"
b1000000 F"
b1011 C"
b1000000 A"
b1010 >"
b1000000 <"
b1001 9"
b1000000 7"
b1000 4"
b1000000 2"
b111 /"
b1000000 -"
b110 *"
b1000000 ("
b101 %"
b1000000 #"
b100 ~
b1000000 |
b11 y
b1000000 w
b10 t
b1000000 r
b1 o
b100000 d
b100000 `
b110 C
b110 B
$end
#0
$dumpvars
b10 5$
bx 4$
bx 3$
bx |#
b0xxx {#
bx z#
bx y#
bx x#
bx w#
bx v#
bx u#
bx t#
bx s#
bx r#
bx k#
bx j#
bx i#
bx h#
b0x g#
b0 f#
b0xxxxxxxxxxxxxxxxxxxxxxxxxxxxxxxxx e#
b0xxxxxxxxxxxxxxxxxxxxxxxxxxxxxxxxx d#
bx c#
bx _#
b0xxx ^#
bx ]#
bx \#
bx [#
bx Z#
bx Y#
bx X#
b0xxx W#
bx V#
bx U#
bx T#
bx S#
b0xxxxxxxxxxxxxxxxxxxxxxxxxxxxxxxxx R#
bx Q#
b0 O#
1N#
bx M#
bx K#
xJ#
bx H#
bx F#
xE#
bx C#
bx A#
x@#
bx >#
bx <#
x;#
bx 9#
bx 7#
x6#
bx 4#
bx 2#
x1#
bx /#
bx -#
x,#
bx *#
bx (#
x'#
bx %#
bx ##
x"#
bx ~"
bx |"
x{"
bx y"
bx w"
xv"
bx t"
bx r"
xq"
bx o"
bx m"
xl"
bx j"
bx h"
xg"
bx e"
bx c"
xb"
bx `"
bx ^"
x]"
bx ["
bx Y"
xX"
bx V"
bx T"
xS"
bx Q"
bx O"
xN"
bx L"
bx J"
xI"
bx G"
bx E"
xD"
bx B"
bx @"
x?"
bx ="
bx ;"
x:"
bx 8"
bx 6"
x5"
bx 3"
bx 1"
x0"
bx ."
bx ,"
x+"
bx )"
bx '"
x&"
bx $"
bx ""
x!"
bx }
bx {
xz
bx x
bx v
xu
bx s
bx q
xp
bx n
b100000 m
bx l
bx k
bx j
bx i
bx h
bxz g
bx f
bx e
bx c
1b
bx a
bx _
1^
1]
b0xxxxxxxxxxxxxxxxxxxxxxxxxxxxxxxxx \
bx [
bx Z
bx Y
bx X
bx W
bx V
bx U
bx T
bx S
bx R
bx Q
b0xxx P
bx O
bx N
bx M
bx L
bx K
bx J
bx I
bx H
bx G
bx F
bx E
b0xxx D
bx A
b0xxx @
x?
0>
bx =
bx <
bx ;
x:
x9
x8
bx 7
bx 6
b10 5
bx 4
bx 3
bx 2
bx 1
bx 0
0/
bx .
bx -
bx ,
bx +
bx *
bx )
bx (
bx '
x&
bx %
bx $
bx #
0"
0!
$end
#1000
b0 Q#
0]
b100000 n
0J#
0E#
0@#
0;#
06#
01#
0,#
0'#
0"#
0{"
0v"
0q"
0l"
0g"
0b"
0]"
0X"
0S"
0N"
0I"
0D"
0?"
0:"
05"
00"
0+"
0&"
0!"
0z
0u
0p
1>
1/
b0z g
b100 [
b100 c
b100000001000010000011 $
b100000001000010000011 *
b100000001000010000011 7
b100000001000010000011 H
b100000001000010000011 _
b100000001000010000011 +
b100000001000010000011 3
b0 %
b0 ,
b0 4
b0 <
b0 M
b0 t#
b0 ;
b0 I
b0 |#
b0 5$
b0 5
b0 U
b0 e
b0 K
b0 a
b0 s#
b1 4$
08
0&
09
0:
b0 g#
0?
1!
1"
#2000
0!
0"
#3000
b0 R
b0 k
b0 S#
b0 Z#
b1 \
b1 R#
b1 d#
b1 e#
b1 O
b1 j#
b1 x#
b1 W
b1 h
b1 w#
b0 Y
b0 j
b0 u#
b1 L
b1 z#
b11 t#
b11 ;
b11 I
b11 |#
b100000001000010000011 K
b100000001000010000011 a
b100000001000010000011 s#
1]
0/
0>
b1 5
b1 5$
b10 4$
1!
#4000
0!
#5000
b1010 Z
b1010 f
b1010 q
b1010 v
b1010 {
b1010 ""
b1010 '"
b1010 ,"
b1010 1"
b1010 6"
b1010 ;"
b1010 @"
b1010 E"
b1010 J"
b1010 O"
b1010 T"
b1010 Y"
b1010 ^"
b1010 c"
b1010 h"
b1010 m"
b1010 r"
b1010 w"
b1010 |"
b1010 ##
b1010 (#
b1010 -#
b1010 2#
b1010 7#
b1010 <#
b1010 A#
b1010 F#
b1010 K#
b1010 )
b1010 0
b1010 F
b1010 #
b1010 (
b1010 6
b1010 E
b0 @
b0 D
b0 {#
b0 P
b0 W#
b0 ^#
b1010 -
b1010 1
b1 '
b1 .
b1 2
b1 =
b1 S
b1 V
b1 U#
b1 X#
b1 [#
b1 \#
1p
b1 Y#
b1 _#
b1 h#
b1z g
b10 J
b10 V#
b10 ]#
b10 r#
18
19
b1 g#
1?
b1 A
b1 T
b1 k#
b1 3$
b10 5$
b10 5
b100 4$
1!
#6000
0!
#7000
0p
b1000 [
b1000 c
b0z g
b1000000001000100000011 $
b1000000001000100000011 *
b1000000001000100000011 7
b1000000001000100000011 H
b1000000001000100000011 _
b1000000001000100000011 +
b1000000001000100000011 3
b1 %
b1 ,
b1 4
b1 <
b1 M
b1010 s
b100 U
b100 e
08
0]
b100000 n
1/
1>
b0 5
b0 5$
b1 4$
1!
#8000
0!
#9000
b10100 Z
b10100 f
b10100 q
b10100 v
b10100 {
b10100 ""
b10100 '"
b10100 ,"
b10100 1"
b10100 6"
b10100 ;"
b10100 @"
b10100 E"
b10100 J"
b10100 O"
b10100 T"
b10100 Y"
b10100 ^"
b10100 c"
b10100 h"
b10100 m"
b10100 r"
b10100 w"
b10100 |"
b10100 ##
b10100 (#
b10100 -#
b10100 2#
b10100 7#
b10100 <#
b10100 A#
b10100 F#
b10100 K#
b10100 )
b10100 0
b10100 F
b10100 #
b10100 (
b10100 6
b10100 E
b10100 -
b10100 1
b10 '
b10 .
b10 2
b10 =
b10 S
b10 V
b10 U#
b10 X#
b10 [#
b10 \#
b10 Y#
b10 _#
b10 h#
b10 \
b10 R#
b10 d#
b10 e#
b10 W
b10 h
b10 w#
b10 L
b10 z#
b1000000001000100000011 K
b1000000001000100000011 a
b1000000001000100000011 s#
1]
0>
0/
b1 5$
b1 5
b10 4$
1!
#10000
0!
#11000
1u
b10z g
18
b10 5
b10 5$
b100 4$
1!
#12000
0!
#13000
0u
b1100 [
b1100 c
b0z g
b1000001000000110110011 $
b1000001000000110110011 *
b1000001000000110110011 7
b1000001000000110110011 H
b1000001000000110110011 _
b1000001000000110110011 +
b1000001000000110110011 3
b10 %
b10 ,
b10 4
b10 <
b10 M
b1000 U
b1000 e
b10100 x
08
0]
b100000 n
1>
1/
b0 5$
b0 5
b1 4$
1!
#14000
0!
#15000
b10100 G
b10100 Q
b10100 l
b10100 T#
b10100 c#
b1010 R
b1010 k
b1010 S#
b1010 Z#
bx Z
bx f
bx q
bx v
bx {
bx ""
bx '"
bx ,"
bx 1"
bx 6"
bx ;"
bx @"
bx E"
bx J"
bx O"
bx T"
bx Y"
bx ^"
bx c"
bx h"
bx m"
bx r"
bx w"
bx |"
bx ##
bx (#
bx -#
bx 2#
bx 7#
bx <#
bx A#
bx F#
bx K#
bx )
bx 0
bx F
bx #
bx (
bx 6
bx E
b0xxx @
b0xxx D
b0xxx {#
b0xxx P
b0xxx W#
b0xxx ^#
bx -
bx 1
bx '
bx .
bx 2
bx =
bx S
bx V
bx U#
bx X#
bx [#
bx \#
b0xxxxxxxxxxxxxxxxxxxxxxxxxxxxxxxxx Y#
b0xxxxxxxxxxxxxxxxxxxxxxxxxxxxxxxxx _#
b0xxxxxxxxxxxxxxxxxxxxxxxxxxxxxxxxx h#
b0xxxxxxxxxxxxxxxxxxxxxxxxxxxxxxxxx \
b0xxxxxxxxxxxxxxxxxxxxxxxxxxxxxxxxx R#
b0xxxxxxxxxxxxxxxxxxxxxxxxxxxxxxxxx d#
b0xxxxxxxxxxxxxxxxxxxxxxxxxxxxxxxxx e#
b0 N
b0 i#
b0 y#
b0 O
b0 j#
b0 x#
bx L
bx z#
b11 W
b11 h
b11 w#
b1 Y
b1 j
b1 u#
b10 X
b10 i
b10 v#
b110011 t#
b110011 ;
b110011 I
b110011 |#
b1000001000000110110011 K
b1000001000000110110011 a
b1000001000000110110011 s#
1]
0/
0>
b1 5
b1 5$
b10 4$
1!
#16000
0!
#17000
b0 @
b0 D
b0 {#
b0 P
b0 W#
b0 ^#
b11110 Z
b11110 f
b11110 q
b11110 v
b11110 {
b11110 ""
b11110 '"
b11110 ,"
b11110 1"
b11110 6"
b11110 ;"
b11110 @"
b11110 E"
b11110 J"
b11110 O"
b11110 T"
b11110 Y"
b11110 ^"
b11110 c"
b11110 h"
b11110 m"
b11110 r"
b11110 w"
b11110 |"
b11110 ##
b11110 (#
b11110 -#
b11110 2#
b11110 7#
b11110 <#
b11110 A#
b11110 F#
b11110 K#
b11110 '
b11110 .
b11110 2
b11110 =
b11110 S
b11110 V
b11110 U#
b11110 X#
b11110 [#
b11110 \#
1z
b10100 Y#
b10100 _#
b10100 h#
b100z g
18
09
b0 g#
0?
b0 A
b0 T
b0 k#
b0 3$
b10 5$
b10 5
b11 4$
1!
#18000
0!
#19000
0z
b10000 [
b10000 c
b0z g
b1000000000100011000001000110011 $
b1000000000100011000001000110011 *
b1000000000100011000001000110011 7
b1000000000100011000001000110011 H
b1000000000100011000001000110011 _
b1000000000100011000001000110011 +
b1000000000100011000001000110011 3
b11 %
b11 ,
b11 4
b11 <
b11 M
b11110 }
b1100 U
b1100 e
08
0]
b100000 n
1/
1>
b0 5
b0 5$
b1 4$
1!
#20000
0!
#21000
b1010 Y#
b1010 _#
b1010 h#
b10100 Z
b10100 f
b10100 q
b10100 v
b10100 {
b10100 ""
b10100 '"
b10100 ,"
b10100 1"
b10100 6"
b10100 ;"
b10100 @"
b10100 E"
b10100 J"
b10100 O"
b10100 T"
b10100 Y"
b10100 ^"
b10100 c"
b10100 h"
b10100 m"
b10100 r"
b10100 w"
b10100 |"
b10100 ##
b10100 (#
b10100 -#
b10100 2#
b10100 7#
b10100 <#
b10100 A#
b10100 F#
b10100 K#
b10100 '
b10100 .
b10100 2
b10100 =
b10100 S
b10100 V
b10100 U#
b10100 X#
b10100 [#
b10100 \#
b110 J
b110 V#
b110 ]#
b110 r#
b1010 G
b1010 Q
b1010 l
b1010 T#
b1010 c#
b11110 R
b11110 k
b11110 S#
b11110 Z#
b100000 N
b100000 i#
b100000 y#
b100 W
b100 h
b100 w#
b11 Y
b11 j
b11 u#
b1 X
b1 i
b1 v#
b1000000000100011000001000110011 K
b1000000000100011000001000110011 a
b1000000000100011000001000110011 s#
1]
0>
0/
b1 5$
b1 5
b10 4$
1!
#22000
0!
#23000
1!"
b1000z g
18
b10 5
b10 5$
b11 4$
1!
#24000
0!
#25000
0!"
b10100 [
b10100 c
b0z g
b1100000010000110100011 $
b1100000010000110100011 *
b1100000010000110100011 7
b1100000010000110100011 H
b1100000010000110100011 _
b1100000010000110100011 +
b1100000010000110100011 3
b100 %
b100 ,
b100 4
b100 <
b100 M
b10000 U
b10000 e
b10100 $"
08
0]
b100000 n
1>
1/
b0 5$
b0 5
b1 4$
1!
#26000
0!
