Processador/testbenches/vvp/waveforms3.vcd
$date
	Wed May 24 14:22:10 2023
$end
$version
	Icarus Verilog
$end
$timescale
	100ps
$end
$scope module Instruction_FD_tb $end
$var reg 1 ! ADD_SUB_tb $end
$var reg 1 " AUIPC_tb $end
$var reg 1 # IR_load_tb $end
$var reg 1 $ JALR_tb $end
$var reg 1 % JAL_tb $end
$var reg 2 & OP_MEM_I_tb [1:0] $end
$var reg 1 ' PC_load_tb $end
$var reg 1 ( WE_mem_tb $end
$var reg 1 ) WE_reg_tb $end
$var reg 1 * clk_tb $end
$var reg 1 + reset_tb $end
$var reg 3 , select_flags_tb [2:0] $end
$scope module instruction_fd $end
$var wire 1 ! ADD_SUB $end
$var wire 1 " AUIPC $end
$var wire 1 # IR_load $end
$var wire 1 % JAL $end
$var wire 1 $ JALR $end
$var wire 2 - OP_MEM_I [1:0] $end
$var wire 1 ' PC_load $end
$var wire 1 ( WE_mem $end
$var wire 1 ) WE_reg $end
$var wire 1 * clk $end
$var wire 1 + reset $end
$var wire 3 . select_flags [2:0] $end
$var wire 1 / soma_PC_sel $end
$var wire 1 0 selected_flag $end
$var wire 32 1 instruction_IR_out [31:0] $end
$var wire 32 2 instruction [31:0] $end
$var wire 32 3 imm_or_const [31:0] $end
$var wire 32 4 imm [31:0] $end
$var wire 6 5 flags [5:0] $end
$var wire 64 6 doutA [63:0] $end
$var wire 64 7 dIN [63:0] $end
$var wire 32 8 addr_instruction [31:0] $end
$var wire 5 9 Rw [4:0] $end
$var wire 5 : Rb [4:0] $end
$var wire 5 ; Ra [4:0] $end
$var wire 32 < PC_or_RS [31:0] $end
$var wire 32 = PC_addr [31:0] $end
$var wire 64 > OFFSET [63:0] $end
$scope module FD $end
$var wire 1 ! ADD_SUB $end
$var wire 64 ? OFFSET [63:0] $end
$var wire 2 @ OP_MEM_I [1:0] $end
$var wire 1 ( WE_mem $end
$var wire 1 ) WE_reg $end
$var wire 1 * clk $end
$var wire 64 A dIN [63:0] $end
$var wire 64 B doutA_IFD [63:0] $end
$var wire 64 C final_address [63:0] $end
$var wire 64 D regIN_memOUT [63:0] $end
$var wire 6 E flags [5:0] $end
$var wire 64 F doutB [63:0] $end
$var wire 64 G doutA [63:0] $end
$var wire 64 H ULA_OUT [63:0] $end
$var wire 5 I Rw [4:0] $end
$var wire 5 J Rb [4:0] $end
$var wire 5 K Ra [4:0] $end
$var wire 64 L Dw [63:0] $end
$scope module MUX4 $end
$var wire 64 M d [63:0] $end
$var wire 2 N select [1:0] $end
$var wire 64 O result [63:0] $end
$var wire 64 P c [63:0] $end
$var wire 64 Q b [63:0] $end
$var wire 64 R a [63:0] $end
$upscope $end
$scope module Memoria $end
$var wire 1 ( WE_mem $end
$var wire 1 * clk $end
$var wire 64 S dout [63:0] $end
$var wire 5 T final_address [4:0] $end
$var wire 64 U dIN [63:0] $end
$upscope $end
$scope module Operacao_memoria $end
$var wire 1 ! ADD_SUB $end
$var wire 64 V OFFSET [63:0] $end
$var wire 2 W OP_MEM_I [1:0] $end
$var wire 64 X dout [63:0] $end
$var wire 64 Y doutA [63:0] $end
$var wire 64 Z doutB [63:0] $end
$var wire 6 [ flags [5:0] $end
$var wire 64 \ dinB [63:0] $end
$var wire 64 ] dinA [63:0] $end
$var wire 64 ^ ULA_OUT [63:0] $end
$var wire 64 _ ULA_IN1 [63:0] $end
$var wire 64 ` ULA_IN0 [63:0] $end
$scope module ULA $end
$var wire 1 ! soma_sub $end
$var wire 64 a result [63:0] $end
$var wire 6 b flags [5:0] $end
$var wire 64 c b [63:0] $end
$var wire 64 d a [63:0] $end
$var parameter 32 e BEQ $end
$var parameter 32 f BGE $end
$var parameter 32 g BGEU $end
$var parameter 32 h BLT $end
$var parameter 32 i BLTU $end
$var parameter 32 j BNE $end
$upscope $end
$scope module mux0 $end
$var wire 64 k d [63:0] $end
$var wire 2 l select [1:0] $end
$var wire 64 m result [63:0] $end
$var wire 64 n c [63:0] $end
$var wire 64 o b [63:0] $end
$var wire 64 p a [63:0] $end
$upscope $end
$scope module mux1 $end
$var wire 64 q b [63:0] $end
$var wire 64 r c [63:0] $end
$var wire 64 s d [63:0] $end
$var wire 2 t select [1:0] $end
$var wire 64 u result [63:0] $end
$var wire 64 v a [63:0] $end
$upscope $end
$upscope $end
$scope module RegFile $end
$var wire 1 ) WE_Reg $end
$var wire 1 * clk $end
$var wire 64 w dIN [63:0] $end
$var wire 32 x loads [31:0] $end
$var wire 5 y Rw [4:0] $end
$var wire 5 z Rb [4:0] $end
$var wire 5 { Ra [4:0] $end
$var reg 64 | doutA [63:0] $end
$var reg 64 } doutB [63:0] $end
$var integer 32 ~ j [31:0] $end
$var integer 32 !" k [31:0] $end
$scope begin genblk1[1] $end
$var parameter 2 "" i $end
$scope module Regs $end
$var wire 1 * clk $end
$var wire 1 #" load $end
$var wire 64 $" x [63:0] $end
$var parameter 32 %" N $end
$var reg 64 &" x_out [63:0] $end
$upscope $end
$upscope $end
$scope begin genblk1[2] $end
$var parameter 3 '" i $end
$scope module Regs $end
$var wire 1 * clk $end
$var wire 1 (" load $end
$var wire 64 )" x [63:0] $end
$var parameter 32 *" N $end
$var reg 64 +" x_out [63:0] $end
$upscope $end
$upscope $end
$scope begin genblk1[3] $end
$var parameter 3 ," i $end
$scope module Regs $end
$var wire 1 * clk $end
$var wire 1 -" load $end
$var wire 64 ." x [63:0] $end
$var parameter 32 /" N $end
$var reg 64 0" x_out [63:0] $end
$upscope $end
$upscope $end
$scope begin genblk1[4] $end
$var parameter 4 1" i $end
$scope module Regs $end
$var wire 1 * clk $end
$var wire 1 2" load $end
$var wire 64 3" x [63:0] $end
$var parameter 32 4" N $end
$var reg 64 5" x_out [63:0] $end
$upscope $end
$upscope $end
$scope begin genblk1[5] $end
$var parameter 4 6" i $end
$scope module Regs $end
$var wire 1 * clk $end
$var wire 1 7" load $end
$var wire 64 8" x [63:0] $end
$var parameter 32 9" N $end
$var reg 64 :" x_out [63:0] $end
$upscope $end
$upscope $end
$scope begin genblk1[6] $end
$var parameter 4 ;" i $end
$scope module Regs $end
$var wire 1 * clk $end
$var wire 1 <" load $end
$var wire 64 =" x [63:0] $end
$var parameter 32 >" N $end
$var reg 64 ?" x_out [63:0] $end
$upscope $end
$upscope $end
$scope begin genblk1[7] $end
$var parameter 4 @" i $end
$scope module Regs $end
$var wire 1 * clk $end
$var wire 1 A" load $end
$var wire 64 B" x [63:0] $end
$var parameter 32 C" N $end
$var reg 64 D" x_out [63:0] $end
$upscope $end
$upscope $end
$scope begin genblk1[8] $end
$var parameter 5 E" i $end
$scope module Regs $end
$var wire 1 * clk $end
$var wire 1 F" load $end
$var wire 64 G" x [63:0] $end
$var parameter 32 H" N $end
$var reg 64 I" x_out [63:0] $end
$upscope $end
$upscope $end
$scope begin genblk1[9] $end
$var parameter 5 J" i $end
$scope module Regs $end
$var wire 1 * clk $end
$var wire 1 K" load $end
$var wire 64 L" x [63:0] $end
$var parameter 32 M" N $end
$var reg 64 N" x_out [63:0] $end
$upscope $end
$upscope $end
$scope begin genblk1[10] $end
$var parameter 5 O" i $end
$scope module Regs $end
$var wire 1 * clk $end
$var wire 1 P" load $end
$var wire 64 Q" x [63:0] $end
$var parameter 32 R" N $end
$var reg 64 S" x_out [63:0] $end
$upscope $end
$upscope $end
$scope begin genblk1[11] $end
$var parameter 5 T" i $end
$scope module Regs $end
$var wire 1 * clk $end
$var wire 1 U" load $end
$var wire 64 V" x [63:0] $end
$var parameter 32 W" N $end
$var reg 64 X" x_out [63:0] $end
$upscope $end
$upscope $end
$scope begin genblk1[12] $end
$var parameter 5 Y" i $end
$scope module Regs $end
$var wire 1 * clk $end
$var wire 1 Z" load $end
$var wire 64 [" x [63:0] $end
$var parameter 32 \" N $end
$var reg 64 ]" x_out [63:0] $end
$upscope $end
$upscope $end
$scope begin genblk1[13] $end
$var parameter 5 ^" i $end
$scope module Regs $end
$var wire 1 * clk $end
$var wire 1 _" load $end
$var wire 64 `" x [63:0] $end
$var parameter 32 a" N $end
$var reg 64 b" x_out [63:0] $end
$upscope $end
$upscope $end
$scope begin genblk1[14] $end
$var parameter 5 c" i $end
$scope module Regs $end
$var wire 1 * clk $end
$var wire 1 d" load $end
$var wire 64 e" x [63:0] $end
$var parameter 32 f" N $end
$var reg 64 g" x_out [63:0] $end
$upscope $end
$upscope $end
$scope begin genblk1[15] $end
$var parameter 5 h" i $end
$scope module Regs $end
$var wire 1 * clk $end
$var wire 1 i" load $end
$var wire 64 j" x [63:0] $end
$var parameter 32 k" N $end
$var reg 64 l" x_out [63:0] $end
$upscope $end
$upscope $end
$scope begin genblk1[16] $end
$var parameter 6 m" i $end
$scope module Regs $end
$var wire 1 * clk $end
$var wire 1 n" load $end
$var wire 64 o" x [63:0] $end
$var parameter 32 p" N $end
$var reg 64 q" x_out [63:0] $end
$upscope $end
$upscope $end
$scope begin genblk1[17] $end
$var parameter 6 r" i $end
$scope module Regs $end
$var wire 1 * clk $end
$var wire 1 s" load $end
$var wire 64 t" x [63:0] $end
$var parameter 32 u" N $end
$var reg 64 v" x_out [63:0] $end
$upscope $end
$upscope $end
$scope begin genblk1[18] $end
$var parameter 6 w" i $end
$scope module Regs $end
$var wire 1 * clk $end
$var wire 1 x" load $end
$var wire 64 y" x [63:0] $end
$var parameter 32 z" N $end
$var reg 64 {" x_out [63:0] $end
$upscope $end
$upscope $end
$scope begin genblk1[19] $end
$var parameter 6 |" i $end
$scope module Regs $end
$var wire 1 * clk $end
$var wire 1 }" load $end
$var wire 64 ~" x [63:0] $end
$var parameter 32 !# N $end
$var reg 64 "# x_out [63:0] $end
$upscope $end
$upscope $end
$scope begin genblk1[20] $end
$var parameter 6 ## i $end
$scope module Regs $end
$var wire 1 * clk $end
$var wire 1 $# load $end
$var wire 64 %# x [63:0] $end
$var parameter 32 &# N $end
$var reg 64 '# x_out [63:0] $end
$upscope $end
$upscope $end
$scope begin genblk1[21] $end
$var parameter 6 (# i $end
$scope module Regs $end
$var wire 1 * clk $end
$var wire 1 )# load $end
$var wire 64 *# x [63:0] $end
$var parameter 32 +# N $end
$var reg 64 ,# x_out [63:0] $end
$upscope $end
$upscope $end
$scope begin genblk1[22] $end
$var parameter 6 -# i $end
$scope module Regs $end
$var wire 1 * clk $end
$var wire 1 .# load $end
$var wire 64 /# x [63:0] $end
$var parameter 32 0# N $end
$var reg 64 1# x_out [63:0] $end
$upscope $end
$upscope $end
$scope begin genblk1[23] $end
$var parameter 6 2# i $end
$scope module Regs $end
$var wire 1 * clk $end
$var wire 1 3# load $end
$var wire 64 4# x [63:0] $end
$var parameter 32 5# N $end
$var reg 64 6# x_out [63:0] $end
$upscope $end
$upscope $end
$scope begin genblk1[24] $end
$var parameter 6 7# i $end
$scope module Regs $end
$var wire 1 * clk $end
$var wire 1 8# load $end
$var wire 64 9# x [63:0] $end
$var parameter 32 :# N $end
$var reg 64 ;# x_out [63:0] $end
$upscope $end
$upscope $end
$scope begin genblk1[25] $end
$var parameter 6 <# i $end
$scope module Regs $end
$var wire 1 * clk $end
$var wire 1 =# load $end
$var wire 64 ># x [63:0] $end
$var parameter 32 ?# N $end
$var reg 64 @# x_out [63:0] $end
$upscope $end
$upscope $end
$scope begin genblk1[26] $end
$var parameter 6 A# i $end
$scope module Regs $end
$var wire 1 * clk $end
$var wire 1 B# load $end
$var wire 64 C# x [63:0] $end
$var parameter 32 D# N $end
$var reg 64 E# x_out [63:0] $end
$upscope $end
$upscope $end
$scope begin genblk1[27] $end
$var parameter 6 F# i $end
$scope module Regs $end
$var wire 1 * clk $end
$var wire 1 G# load $end
$var wire 64 H# x [63:0] $end
$var parameter 32 I# N $end
$var reg 64 J# x_out [63:0] $end
$upscope $end
$upscope $end
$scope begin genblk1[28] $end
$var parameter 6 K# i $end
$scope module Regs $end
$var wire 1 * clk $end
$var wire 1 L# load $end
$var wire 64 M# x [63:0] $end
$var parameter 32 N# N $end
$var reg 64 O# x_out [63:0] $end
$upscope $end
$upscope $end
$scope begin genblk1[29] $end
$var parameter 6 P# i $end
$scope module Regs $end
$var wire 1 * clk $end
$var wire 1 Q# load $end
$var wire 64 R# x [63:0] $end
$var parameter 32 S# N $end
$var reg 64 T# x_out [63:0] $end
$upscope $end
$upscope $end
$scope begin genblk1[30] $end
$var parameter 6 U# i $end
$scope module Regs $end
$var wire 1 * clk $end
$var wire 1 V# load $end
$var wire 64 W# x [63:0] $end
$var parameter 32 X# N $end
$var reg 64 Y# x_out [63:0] $end
$upscope $end
$upscope $end
$scope begin genblk1[31] $end
$var parameter 6 Z# i $end
$scope module Regs $end
$var wire 1 * clk $end
$var wire 1 [# load $end
$var wire 64 \# x [63:0] $end
$var parameter 32 ]# N $end
$var reg 64 ^# x_out [63:0] $end
$upscope $end
$upscope $end
$scope module Regs $end
$var wire 1 * clk $end
$var wire 1 _# load $end
$var wire 64 `# x [63:0] $end
$var parameter 32 a# N $end
$var reg 64 b# x_out [63:0] $end
$upscope $end
$upscope $end
$upscope $end
$scope module InstructionRegister $end
$var wire 1 c# clk $end
$var wire 1 # load $end
$var wire 1 + reset $end
$var wire 32 d# x [31:0] $end
$var parameter 32 e# N $end
$var reg 32 f# x_out [31:0] $end
$upscope $end
$scope module MUX2 $end
$var wire 32 g# a [31:0] $end
$var wire 1 / select $end
$var wire 32 h# result [31:0] $end
$var wire 32 i# b [31:0] $end
$upscope $end
$scope module MUX8 $end
$var wire 6 j# flags [5:0] $end
$var wire 3 k# select [2:0] $end
$var parameter 32 l# BEQ $end
$var parameter 32 m# BGE $end
$var parameter 32 n# BGEU $end
$var parameter 32 o# BLT $end
$var parameter 32 p# BLTU $end
$var parameter 32 q# BNE $end
$var reg 1 0 flag $end
$upscope $end
$scope module PC $end
$var wire 1 * clk $end
$var wire 1 ' load $end
$var wire 1 + reset $end
$var wire 32 r# x [31:0] $end
$var parameter 32 s# N $end
$var reg 32 t# x_out [31:0] $end
$upscope $end
$scope module add $end
$var wire 32 u# a [31:0] $end
$var wire 32 v# b [31:0] $end
$var wire 32 w# result [31:0] $end
$upscope $end
$scope module instruction_organizor $end
$var wire 32 x# instruction [31:0] $end
$var wire 7 y# opcode [6:0] $end
$var reg 5 z# Ra [4:0] $end
$var reg 5 {# Rb [4:0] $end
$var reg 5 |# Rw [4:0] $end
$var reg 32 }# immediate [31:0] $end
$upscope $end
$scope module mem_instruction $end
$var wire 32 ~# dout [31:0] $end
$var wire 32 !$ instruction [31:0] $end
$upscope $end
$upscope $end
$upscope $end
$enddefinitions $end
$comment Show the parameter values. $end
$dumpall
b100000 s#
b1 q#
b100 p#
b10 o#
b101 n#
b11 m#
b0 l#
b100000 e#
b1000000 a#
b1000000 ]#
b11111 Z#
b1000000 X#
b11110 U#
b1000000 S#
b11101 P#
b1000000 N#
b11100 K#
b1000000 I#
b11011 F#
b1000000 D#
b11010 A#
b1000000 ?#
b11001 <#
b1000000 :#
b11000 7#
b1000000 5#
b10111 2#
b1000000 0#
b10110 -#
b1000000 +#
b10101 (#
b1000000 &#
b10100 ##
b1000000 !#
b10011 |"
b1000000 z"
b10010 w"
b1000000 u"
b10001 r"
b1000000 p"
b10000 m"
b1000000 k"
b1111 h"
b1000000 f"
b1110 c"
b1000000 a"
b1101 ^"
b1000000 \"
b1100 Y"
b1000000 W"
b1011 T"
b1000000 R"
b1010 O"
b1000000 M"
b1001 J"
b1000000 H"
b1000 E"
b1000000 C"
b111 @"
b1000000 >"
b110 ;"
b1000000 9"
b101 6"
b1000000 4"
b100 1"
b1000000 /"
b11 ,"
b1000000 *"
b10 '"
b1000000 %"
b1 ""
b1 j
b100 i
b10 h
b101 g
b11 f
b0 e
$end
#0
$dumpvars
b0 !$
b0 ~#
bx }#
bx |#
bx {#
bx z#
bx y#
bx x#
b100 w#
b0 v#
b100 u#
b0 t#
b100 r#
bx k#
bx j#
bx i#
b100 h#
b100 g#
bx f#
b0 d#
0c#
b0 b#
b0 `#
1_#
bx ^#
bx \#
0[#
bx Y#
bx W#
0V#
bx T#
bx R#
0Q#
bx O#
bx M#
0L#
bx J#
bx H#
0G#
bx E#
bx C#
0B#
bx @#
bx >#
0=#
bx ;#
bx 9#
08#
bx 6#
bx 4#
03#
bx 1#
bx /#
0.#
bx ,#
bx *#
0)#
bx '#
bx %#
0$#
bx "#
bx ~"
0}"
bx {"
bx y"
0x"
bx v"
bx t"
0s"
bx q"
bx o"
0n"
bx l"
bx j"
0i"
bx g"
bx e"
0d"
bx b"
bx `"
0_"
bx ]"
bx ["
0Z"
bx X"
bx V"
0U"
bx S"
bx Q"
0P"
bx N"
bx L"
0K"
bx I"
bx G"
0F"
bx D"
bx B"
0A"
bx ?"
bx ="
0<"
bx :"
bx 8"
07"
bx 5"
bx 3"
02"
bx 0"
bx ."
0-"
bx +"
bx )"
0("
bx &"
bx $"
0#"
b100000 !"
b100000 ~
bx }
bx |
bx {
bx z
bx y
b0z x
bx w
bx v
bx u
b0 t
b0 s
b0xxxxxxxxxxxxxxxxxxxxxxxxxxxxxxxxx r
b0xxxxxxxxxxxxxxxxxxxxxxxxxxxxxxxxx q
bx p
bx o
bx n
bx m
b0 l
b0 k
bx d
bx c
bx b
bx a
bx `
bx _
bx ^
bx ]
bx \
bx [
bz Z
bz Y
bx X
b0 W
b0xxxxxxxxxxxxxxxxxxxxxxxxxxxxxxxxx V
bx U
bx T
bx S
bx R
bx Q
bx P
bx O
b0 N
bx M
bx L
bx K
bx J
bx I
bx H
bx G
bx F
bx E
bx D
bx C
bx B
bx A
b0 @
b0xxxxxxxxxxxxxxxxxxxxxxxxxxxxxxxxx ?
b0xxxxxxxxxxxxxxxxxxxxxxxxxxxxxxxxx >
b100 =
b0 <
bx ;
bx :
bx 9
b0 8
bx 7
bx 6
bx 5
bx 4
b100 3
b0 2
bx 1
00
0/
bx .
b0 -
bx ,
1+
1*
0)
0(
1'
b0 &
0%
0$
1#
0"
0!
$end
#1000
b0 y#
b0 1
b0 f#
b0 x#
1c#
0*
#1500
0+
#2000
b1000 =
b1000 r#
b1000 w#
b100 <
b100 v#
b100000001000010000011 2
b100000001000010000011 d#
b100000001000010000011 ~#
b100 8
b100 t#
b100 !$
0c#
b100000 !"
1*
#3000
b1010 L
b1010 O
b1010 w
b1010 $"
b1010 )"
b1010 ."
b1010 3"
b1010 8"
b1010 ="
b1010 B"
b1010 G"
b1010 L"
b1010 Q"
b1010 V"
b1010 ["
b1010 `"
b1010 e"
b1010 j"
b1010 o"
b1010 t"
b1010 y"
b1010 ~"
b1010 %#
b1010 *#
b1010 /#
b1010 4#
b1010 9#
b1010 >#
b1010 C#
b1010 H#
b1010 M#
b1010 R#
b1010 W#
b1010 \#
b10110 5
b10110 E
b10110 [
b10110 b
b10110 j#
b1010 D
b1010 Q
b1010 S
b1 T
b1 C
b1 H
b1 P
b1 R
b1 X
b1 ^
b1 a
b0 `
b0 d
b0 m
b0 F
b0 \
b0 o
b0 v
b0 }
b101 7
b101 A
b101 M
b1 >
b1 ?
b1 V
b1 q
b1 r
b1 9
b1 I
b1 y
b1 |#
b0 :
b0 J
b0 z
b0 {#
b1 4
b1 i#
b1 }#
b11 y#
b100000001000010000011 1
b100000001000010000011 f#
b100000001000010000011 x#
1#"
0("
0-"
02"
07"
0<"
0A"
0F"
0K"
0P"
0U"
0Z"
0_"
0d"
0i"
0n"
0s"
0x"
0}"
0$#
0)#
0.#
03#
08#
0=#
0B#
0G#
0L#
0Q#
0V#
0[#
b1 _
b1 c
b1 u
b1z x
1c#
0*
1)
b1 &
b1 -
b1 @
b1 N
b1 W
b1 l
b1 t
#4000
b1100 =
b1100 r#
b1100 w#
b1000 <
b1000 v#
b1001 7
b1001 A
b1001 M
b1010 &"
b1000000001000100000011 2
b1000000001000100000011 d#
b1000000001000100000011 ~#
b1000 8
b1000 t#
b1000 !$
0c#
b100000 !"
1*
#5000
b10100 L
b10100 O
b10100 w
b10100 $"
b10100 )"
b10100 ."
b10100 3"
b10100 8"
b10100 ="
b10100 B"
b10100 G"
b10100 L"
b10100 Q"
b10100 V"
b10100 ["
b10100 `"
b10100 e"
b10100 j"
b10100 o"
b10100 t"
b10100 y"
b10100 ~"
b10100 %#
b10100 *#
b10100 /#
b10100 4#
b10100 9#
b10100 >#
b10100 C#
b10100 H#
b10100 M#
b10100 R#
b10100 W#
b10100 \#
b10100 D
b10100 Q
b10100 S
b10 T
1("
0#"
b10 C
b10 H
b10 P
b10 R
b10 X
b10 ^
b10 a
b10z x
b10 _
b10 c
b10 u
b1010 7
b1010 A
b1010 M
b10 >
b10 ?
b10 V
b10 q
b10 r
b10 9
b10 I
b10 y
b10 |#
b10 4
b10 i#
b10 }#
b1000000001000100000011 1
b1000000001000100000011 f#
b1000000001000100000011 x#
1c#
0*
#6000
b10000 =
b10000 r#
b10000 w#
b1100 <
b1100 v#
b1110 7
b1110 A
b1110 M
b1000001000000110110011 2
b1000001000000110110011 d#
b1000001000000110110011 ~#
b1100 8
b1100 t#
b1100 !$
b10100 +"
0c#
b100000 !"
1*
#7000
b10100 F
b10100 \
b10100 o
b10100 v
b10100 }
b1010 6
b1010 B
b1010 G
b1010 U
b1010 ]
b1010 n
b1010 p
b1010 |
1-"
0("
b100z x
bx 7
bx A
bx M
b0xxxxxxxxxxxxxxxxxxxxxxxxxxxxxxxxx >
b0xxxxxxxxxxxxxxxxxxxxxxxxxxxxxxxxx ?
b0xxxxxxxxxxxxxxxxxxxxxxxxxxxxxxxxx V
b0xxxxxxxxxxxxxxxxxxxxxxxxxxxxxxxxx q
b0xxxxxxxxxxxxxxxxxxxxxxxxxxxxxxxxx r
bx 4
bx i#
bx }#
b11 9
b11 I
b11 y
b11 |#
b1 ;
b1 K
b1 {
b1 z#
b10 :
b10 J
b10 z
b10 {#
b110011 y#
b1000001000000110110011 1
b1000001000000110110011 f#
b1000001000000110110011 x#
b10110 5
b10110 E
b10110 [
b10110 b
b10110 j#
bx D
bx Q
bx S
b11110 T
b11110 C
b11110 H
b11110 P
b11110 R
b11110 X
b11110 ^
b11110 a
b11110 L
b11110 O
b11110 w
b11110 $"
b11110 )"
b11110 ."
b11110 3"
b11110 8"
b11110 ="
b11110 B"
b11110 G"
b11110 L"
b11110 Q"
b11110 V"
b11110 ["
b11110 `"
b11110 e"
b11110 j"
b11110 o"
b11110 t"
b11110 y"
b11110 ~"
b11110 %#
b11110 *#
b11110 /#
b11110 4#
b11110 9#
b11110 >#
b11110 C#
b11110 H#
b11110 M#
b11110 R#
b11110 W#
b11110 \#
b1010 `
b1010 d
b1010 m
b10100 _
b10100 c
b10100 u
1c#
0*
b0 &
b0 -
b0 @
b0 N
b0 W
b0 l
b0 t
#8000
b10100 =
b10100 r#
b10100 w#
b10000 <
b10000 v#
b11110 0"
b100011000001000110011 2
b100011000001000110011 d#
b100011000001000110011 ~#
b10000 8
b10000 t#
b10000 !$
0c#
b100000 !"
1*
#9000
b101010 5
b101010 E
b101010 [
b101010 b
b101010 j#
b1010 _
b1010 c
b1010 u
b11110 `
b11110 d
b11110 m
b1010 F
b1010 \
b1010 o
b1010 v
b1010 }
b11110 6
b11110 B
b11110 G
b11110 U
b11110 ]
b11110 n
b11110 p
b11110 |
12"
0-"
b1000z x
b100 9
b100 I
b100 y
b100 |#
b11 ;
b11 K
b11 {
b11 z#
b1 :
b1 J
b1 z
b1 {#
b100011000001000110011 1
b100011000001000110011 f#
b100011000001000110011 x#
b10100 L
b10100 O
b10100 w
b10100 $"
b10100 )"
b10100 ."
b10100 3"
b10100 8"
b10100 ="
b10100 B"
b10100 G"
b10100 L"
b10100 Q"
b10100 V"
b10100 ["
b10100 `"
b10100 e"
b10100 j"
b10100 o"
b10100 t"
b10100 y"
b10100 ~"
b10100 %#
b10100 *#
b10100 /#
b10100 4#
b10100 9#
b10100 >#
b10100 C#
b10100 H#
b10100 M#
b10100 R#
b10100 W#
b10100 \#
b10100 T
b10100 C
b10100 H
b10100 P
b10100 R
b10100 X
b10100 ^
b10100 a
1c#
0*
1!
#10000
b11000 =
b11000 r#
b11000 w#
b10100 <
b10100 v#
b11010000110100011 2
b11010000110100011 d#
b11010000110100011 ~#
b10100 8
b10100 t#
b10100 !$
b10100 5"
0c#
b100000 !"
1*
#11000
b11110 D
b11110 Q
b11110 S
b0 F
b0 \
b0 o
b0 v
b0 }
b10111 7
b10111 A
b10111 M
b11 >
b11 ?
b11 V
b11 q
b11 r
bx 9
bx I
bx y
bx |#
b0 :
b0 J
b0 z
b0 {#
b11 4
b11 i#
b11 }#
b100011 y#
b11010000110100011 1
b11010000110100011 f#
b11010000110100011 x#
b10110 5
b10110 E
b10110 [
b10110 b
b10110 j#
b11 T
02"
b11110 L
b11110 O
b11110 w
b11110 $"
b11110 )"
b11110 ."
b11110 3"
b11110 8"
b11110 ="
b11110 B"
b11110 G"
b11110 L"
b11110 Q"
b11110 V"
b11110 ["
b11110 `"
b11110 e"
b11110 j"
b11110 o"
b11110 t"
b11110 y"
b11110 ~"
b11110 %#
b11110 *#
b11110 /#
b11110 4#
b11110 9#
b11110 >#
b11110 C#
b11110 H#
b11110 M#
b11110 R#
b11110 W#
b11110 \#
b0 `
b0 d
b0 m
b11 _
b11 c
b11 u
b11 C
b11 H
b11 P
b11 R
b11 X
b11 ^
b11 a
b0z x
1c#
0*
0!
0)
1(
b1 &
b1 -
b1 @
b1 N
b1 W
b1 l
b1 t
#12000
b11100 =
b11100 r#
b11100 w#
b11000 <
b11000 v#
b11011 7
b11011 A
b11011 M
b100010001000100011 2
b100010001000100011 d#
b100010001000100011 ~#
b11000 8
b11000 t#
b11000 !$
0c#
b100000 !"
1*
#13000
b10100 6
b10100 B
b10100 G
b10100 U
b10100 ]
b10100 n
b10100 p
b10100 |
b101000 L
b101000 O
b101000 w
b101000 $"
b101000 )"
b101000 ."
b101000 3"
b101000 8"
b101000 ="
b101000 B"
b101000 G"
b101000 L"
b101000 Q"
b101000 V"
b101000 ["
b101000 `"
b101000 e"
b101000 j"
b101000 o"
b101000 t"
b101000 y"
b101000 ~"
b101000 %#
b101000 *#
b101000 /#
b101000 4#
b101000 9#
b101000 >#
b101000 C#
b101000 H#
b101000 M#
b101000 R#
b101000 W#
b101000 \#
b101000 D
b101000 Q
b101000 S
b100 T
b100 C
b100 H
b100 P
b100 R
b100 X
b100 ^
b100 a
b100 _
b100 c
b100 u
b11100 7
b11100 A
b11100 M
b100 >
b100 ?
b100 V
b100 q
b100 r
b100 ;
b100 K
b100 {
b100 z#
b100 4
b100 i#
b100 }#
b100010001000100011 1
b100010001000100011 f#
b100010001000100011 x#
1c#
0*
#14000
b100000 =
b100000 r#
b100000 w#
b11100 <
b11100 v#
b10100 L
b10100 O
b10100 w
b10100 $"
b10100 )"
b10100 ."
b10100 3"
b10100 8"
b10100 ="
b10100 B"
b10100 G"
b10100 L"
b10100 Q"
b10100 V"
b10100 ["
b10100 `"
b10100 e"
b10100 j"
b10100 o"
b10100 t"
b10100 y"
b10100 ~"
b10100 %#
b10100 *#
b10100 /#
b10100 4#
b10100 9#
b10100 >#
b10100 C#
b10100 H#
b10100 M#
b10100 R#
b10100 W#
b10100 \#
b100000 7
b100000 A
b100000 M
b101000100010010010010011 2
b101000100010010010010011 d#
b101000100010010010010011 ~#
b11100 8
b11100 t#
b11100 !$
b10100 D
b10100 Q
b10100 S
0c#
b100000 !"
1*
#15000
bx F
bx \
bx o
bx v
bx }
b1010 _
b1010 c
b1010 u
b100110 7
b100110 A
b100110 M
b1010 >
b1010 ?
b1010 V
b1010 q
b1010 r
b1001 9
b1001 I
b1001 y
b1001 |#
bx :
bx J
bx z
bx {#
b1010 4
b1010 i#
b1010 }#
b10011 y#
b101000100010010010010011 1
b101000100010010010010011 f#
b101000100010010010010011 x#
b101010 5
b101010 E
b101010 [
b101010 b
b101010 j#
bx D
bx Q
bx S
b11110 T
0#"
0("
0-"
02"
07"
0<"
0A"
0F"
1K"
0P"
0U"
0Z"
0_"
0d"
0i"
0n"
0s"
0x"
0}"
0$#
0)#
0.#
03#
08#
0=#
0B#
0G#
0L#
0Q#
0V#
0[#
b11110 C
b11110 H
b11110 P
b11110 R
b11110 X
b11110 ^
b11110 a
b100000000z x
b11110 L
b11110 O
b11110 w
b11110 $"
b11110 )"
b11110 ."
b11110 3"
b11110 8"
b11110 ="
b11110 B"
b11110 G"
b11110 L"
b11110 Q"
b11110 V"
b11110 ["
b11110 `"
b11110 e"
b11110 j"
b11110 o"
b11110 t"
b11110 y"
b11110 ~"
b11110 %#
b11110 *#
b11110 /#
b11110 4#
b11110 9#
b11110 >#
b11110 C#
b11110 H#
b11110 M#
b11110 R#
b11110 W#
b11110 \#
b10100 `
b10100 d
b10100 m
1c#
0*
1)
0(
b10 &
b10 -
b10 @
b10 N
b10 W
b10 l
b10 t
#16000
b100100 =
b100100 r#
b100100 w#
b100000 <
b100000 v#
b101010 7
b101010 A
b101010 M
b11110 N"
b1001010010010100011 2
b1001010010010100011 d#
b1001010010010100011 ~#
b100000 8
b100000 t#
b100000 !$
0c#
b100000 !"
1*
